tests/tb_all/tb_all.vcd
$date
	Sat May 10 07:49:49 2025
$end
$version
	Icarus Verilog
$end
$timescale
	1s
$end
$scope module tb_all $end
$var wire 1 ! vld_out $end
$var wire 1 " rdy_in $end
$var wire 32 # pixel_out [31:0] $end
$var wire 8 $ color_out [7:0] $end
$var parameter 32 % PERIOD $end
$var reg 1 & clk $end
$var reg 19 ' metadata [18:0] $end
$var reg 1 ( rdy_out $end
$var reg 1 ) rst_n $end
$var reg 48 * v0 [47:0] $end
$var reg 48 + v1 [47:0] $end
$var reg 48 , v2 [47:0] $end
$var reg 1 - vld_in $end
$scope function make_coord $end
$var reg 48 . point [47:0] $end
$var reg 16 / x_in [15:0] $end
$var reg 16 0 y_in [15:0] $end
$var reg 16 1 z_in [15:0] $end
$upscope $end
$scope function make_meta $end
$var reg 8 2 colors_in [7:0] $end
$var reg 19 3 meta [18:0] $end
$var reg 6 4 tile_x_in [5:0] $end
$var reg 5 5 tile_y_in [4:0] $end
$upscope $end
$scope module rastafarian $end
$var wire 1 & clk $end
$var wire 19 6 metadata [18:0] $end
$var wire 1 ( rdy_out $end
$var wire 1 ) rst_n $end
$var wire 48 7 v0 [47:0] $end
$var wire 48 8 v1 [47:0] $end
$var wire 48 9 v2 [47:0] $end
$var wire 1 - vld_in $end
$var wire 1 ! vld_out $end
$var wire 1 " rdy_in $end
$var wire 32 : pixel_out [31:0] $end
$var wire 32 ; inter_z_current_1 [31:0] $end
$var wire 32 < inter_z_current_0 [31:0] $end
$var wire 1 = inter_vld_1 $end
$var wire 1 > inter_vld_0 $end
$var wire 1 ? inter_rdy_1 $end
$var wire 1 @ inter_rdy_0 $end
$var wire 19 A inter_metadata_1 [18:0] $end
$var wire 19 B inter_metadata_0 [18:0] $end
$var wire 32 C inter_edges_1_2 [31:0] $end
$var wire 32 D inter_edges_1_1 [31:0] $end
$var wire 32 E inter_edges_1_0 [31:0] $end
$var wire 32 F inter_edges_0_2 [31:0] $end
$var wire 32 G inter_edges_0_1 [31:0] $end
$var wire 32 H inter_edges_0_0 [31:0] $end
$var wire 16 I inter_dzdy_1 [15:0] $end
$var wire 16 J inter_dzdy_0 [15:0] $end
$var wire 16 K inter_dzdx_1 [15:0] $end
$var wire 16 L inter_dzdx_0 [15:0] $end
$var wire 48 M inter_deltas_1_2 [47:0] $end
$var wire 48 N inter_deltas_1_1 [47:0] $end
$var wire 48 O inter_deltas_1_0 [47:0] $end
$var wire 48 P inter_deltas_0_2 [47:0] $end
$var wire 48 Q inter_deltas_0_1 [47:0] $end
$var wire 48 R inter_deltas_0_0 [47:0] $end
$var wire 48 S inter_abs_pos_1 [47:0] $end
$var wire 48 T inter_abs_pos_0 [47:0] $end
$var wire 8 U color_out [7:0] $end
$scope module axel_f $end
$var wire 1 & clk $end
$var wire 371 V data_in [370:0] $end
$var wire 1 ) rst_n $end
$var wire 1 > vld_in $end
$var wire 1 ? rdy_out $end
$var parameter 33 W COUNT_WIDTH $end
$var parameter 32 X DEPTH $end
$var parameter 32 Y PTR_WIDTH $end
$var parameter 32 Z WIDTH $end
$var reg 4 [ count [3:0] $end
$var reg 371 \ data_out [370:0] $end
$var reg 3 ] next_read_ptr [2:0] $end
$var reg 1 @ rdy_in $end
$var reg 3 ^ read_ptr [2:0] $end
$var reg 1 = vld_out $end
$var reg 3 _ write_ptr [2:0] $end
$upscope $end
$scope module pixel_proc $end
$var wire 1 & clk $end
$var wire 48 ` in_abs_pos [47:0] $end
$var wire 48 a in_delta_0 [47:0] $end
$var wire 48 b in_delta_1 [47:0] $end
$var wire 48 c in_delta_2 [47:0] $end
$var wire 16 d in_dzdx [15:0] $end
$var wire 16 e in_dzdy [15:0] $end
$var wire 32 f in_edge_0 [31:0] $end
$var wire 32 g in_edge_1 [31:0] $end
$var wire 32 h in_edge_2 [31:0] $end
$var wire 19 i in_metadata [18:0] $end
$var wire 32 j in_z_current [31:0] $end
$var wire 1 ( rdy_out $end
$var wire 1 ) rst_n $end
$var wire 1 = vld_in $end
$var wire 48 k zero [47:0] $end
$var wire 32 l out_coord [31:0] $end
$var wire 11 m new_tile_coord [10:0] $end
$var wire 11 n current_tile_coord [10:0] $end
$var reg 48 o abs_pos [47:0] $end
$var reg 8 p color_out [7:0] $end
$var reg 48 q delta_0 [47:0] $end
$var reg 48 r delta_1 [47:0] $end
$var reg 48 s delta_2 [47:0] $end
$var reg 16 t dzdx [15:0] $end
$var reg 16 u dzdy [15:0] $end
$var reg 32 v edge_0 [31:0] $end
$var reg 32 w edge_1 [31:0] $end
$var reg 32 x edge_2 [31:0] $end
$var reg 48 y flush_abs_pos [47:0] $end
$var reg 8 z flush_rel_pos [7:0] $end
$var reg 19 { metadata [18:0] $end
$var reg 2 | next_state [1:0] $end
$var reg 32 } pixel_out [31:0] $end
$var reg 2 ~ present_state [1:0] $end
$var reg 1 ? rdy_in $end
$var reg 8 !" rel_pos [7:0] $end
$var reg 48 "" temp_coord [47:0] $end
$var reg 32 #" temp_edge_col_off [31:0] $end
$var reg 32 $" temp_edge_row_off [31:0] $end
$var reg 32 %" temp_z_col_off [31:0] $end
$var reg 32 &" temp_z_row_off [31:0] $end
$var reg 1 ! vld_out $end
$var reg 32 '" z_current [31:0] $end
$scope begin $ivl_for_loop1 $end
$var integer 32 (" i [31:0] $end
$upscope $end
$scope task edge_column_offset $end
$upscope $end
$scope task edge_row_offset $end
$upscope $end
$scope task sext_f16_f32 $end
$upscope $end
$scope task tile_to_coord $end
$upscope $end
$scope task z_row_offset $end
$upscope $end
$upscope $end
$scope module tile_proc $end
$var wire 1 & clk $end
$var wire 19 )" in_metadata [18:0] $end
$var wire 1 @ rdy_out $end
$var wire 1 ) rst_n $end
$var wire 48 *" v0 [47:0] $end
$var wire 48 +" v1 [47:0] $end
$var wire 48 ," v2 [47:0] $end
$var wire 1 - vld_in $end
$var wire 48 -" zero [47:0] $end
$var reg 48 ." abs_pos [47:0] $end
$var reg 32 /" coeff_A [31:0] $end
$var reg 32 0" coeff_B [31:0] $end
$var reg 32 1" coeff_C [31:0] $end
$var reg 48 2" delta_0 [47:0] $end
$var reg 48 3" delta_1 [47:0] $end
$var reg 48 4" delta_2 [47:0] $end
$var reg 16 5" dzdx [15:0] $end
$var reg 16 6" dzdy [15:0] $end
$var reg 19 7" metadata [18:0] $end
$var reg 48 8" out_abs_pos [47:0] $end
$var reg 48 9" out_delta_0 [47:0] $end
$var reg 48 :" out_delta_1 [47:0] $end
$var reg 48 ;" out_delta_2 [47:0] $end
$var reg 16 <" out_dzdx [15:0] $end
$var reg 16 =" out_dzdy [15:0] $end
$var reg 32 >" out_edge_0 [31:0] $end
$var reg 32 ?" out_edge_1 [31:0] $end
$var reg 32 @" out_edge_2 [31:0] $end
$var reg 19 A" out_metadata [18:0] $end
$var reg 32 B" out_z_current [31:0] $end
$var reg 1 " rdy_in $end
$var reg 32 C" temp_coeff_a [31:0] $end
$var reg 32 D" temp_coeff_b [31:0] $end
$var reg 32 E" temp_coeff_c [31:0] $end
$var reg 48 F" temp_delta_0 [47:0] $end
$var reg 48 G" temp_delta_1 [47:0] $end
$var reg 48 H" temp_delta_2 [47:0] $end
$var reg 16 I" temp_dzdx [15:0] $end
$var reg 16 J" temp_dzdy [15:0] $end
$var reg 32 K" temp_edge_i [31:0] $end
$var reg 48 L" temp_start [47:0] $end
$var reg 32 M" temp_z [31:0] $end
$var reg 1 > vld_out $end
$var reg 32 N" z_current [31:0] $end
$var integer 32 O" next_state [31:0] $end
$var integer 32 P" present_state [31:0] $end
$scope begin $ivl_for_loop0 $end
$var integer 32 Q" i [31:0] $end
$upscope $end
$scope task compute_delta $end
$upscope $end
$scope task compute_edge $end
$upscope $end
$scope task compute_plane_coeff_a $end
$upscope $end
$scope task compute_plane_coeff_b $end
$upscope $end
$scope task compute_plane_coeff_c $end
$upscope $end
$scope task compute_z $end
$upscope $end
$scope task scale_dz $end
$upscope $end
$scope task tile_to_coord $end
$upscope $end
$upscope $end
$upscope $end
$scope task cross_tile_triangle $end
$upscope $end
$scope task flush $end
$upscope $end
$scope task reset $end
$upscope $end
$scope task run_triangle_test $end
$upscope $end
$scope task star_of_david $end
$upscope $end
$scope task test_multi_tile $end
$upscope $end
$scope task test_nested $end
$upscope $end
$scope task test_nested_backwards $end
$upscope $end
$scope task test_simple_triangle $end
$upscope $end
$upscope $end
$enddefinitions $end
$comment Show the parameter values. $end
$dumpall
b101110011 Z
b10 Y
b100 X
b11 W
b1010 %
$end
#0
$dumpvars
b0 Q"
b0 P"
b0 O"
bx N"
bx M"
b0 L"
bx K"
bx J"
bx I"
b0 H"
b0 G"
b0 F"
bx E"
bx D"
bx C"
bx B"
bx A"
bx @"
bx ?"
bx >"
bx ="
bx <"
bx ;"
bx :"
bx 9"
bx 8"
bx 7"
bx 6"
bx 5"
bx 4"
bx 3"
bx 2"
bx 1"
bx 0"
bx /"
bx ."
b0 -"
b0 ,"
b0 +"
b0 *"
b0 )"
b0 ("
bx '"
bx &"
bx %"
bx $"
bx #"
bx ""
bx !"
bx ~
bx }
b0 |
bx {
bx z
bx y
bx x
bx w
bx v
bx u
bx t
bx s
bx r
bx q
bx p
bx o
bx n
bx m
bx l
b0 k
bx j
bx i
bx h
bx g
bx f
bx e
bx d
bx c
bx b
bx a
bx `
b0 _
b0 ^
bx ]
bx \
b0 [
bx V
bx U
bx T
bx S
bx R
bx Q
bx P
bx O
bx N
bx M
bx L
bx K
bx J
bx I
bx H
bx G
bx F
bx E
bx D
bx C
bx B
bx A
1@
x?
x>
0=
bx <
bx ;
bx :
b0 9
b0 8
b0 7
b0 6
bx 5
bx 4
bx 3
bx 2
bx 1
bx 0
bx /
bx .
0-
b0 ,
b0 +
b0 *
0)
0(
b0 '
0&
bx $
bx #
x"
x!
$end
#5
b0 V
b0 n
b0 l
b0 ~
1?
b0 '"
b0 u
b0 t
b0 <
b0 B"
b0 J
b0 ="
b0 L
b0 <"
b0 B
b0 A"
b0 F
b0 @"
b0 G
b0 ?"
b0 H
b0 >"
b0 P
b0 ;"
b0 Q
b0 :"
b0 R
b0 9"
b0 T
b0 8"
0>
1"
b0 N"
b0 6"
b0 5"
b0 1"
b0 0"
b0 /"
b0 7"
b0 4"
b0 3"
b0 2"
b0 ."
b0 {
b0 s
b0 r
b0 q
b0 x
b0 w
b0 v
b0 z
b0 !"
b0 y
b0 o
b100000000 ("
b11 Q"
1&
#10
0&
#15
b111111111100000000000000000000000000000000000000 H"
b100000011111111110000000000000000000000 G"
b10000000000000000000000 F"
b100000000 ("
b11 Q"
b10000000000000 '
b10000000000000 6
b10000000000000 )"
b101000000000000000100000001000000000000 ,
b101000000000000000100000001000000000000 9
b101000000000000000100000001000000000000 ,"
b1000000000000010100000001000000000000 +
b1000000000000010100000001000000000000 8
b1000000000000010100000001000000000000 +"
b1000000000000000100000001000000000000 *
b1000000000000000100000001000000000000 7
b1000000000000000100000001000000000000 *"
b10000000000000 3
b100 2
b0 4
b0 5
b101000000000000000100000001000000000000 .
b101 /
b1 0
b100000000 1
1)
1&
#20
b1 O"
1-
0&
#25
b10 O"
b111111111100000000000000000000000000000000000000 4"
b100000011111111110000000000000000000000 3"
b10000000000000000000000 2"
b10000000000000 7"
0"
b1 P"
0!
b11111111111111111111110000000000 K"
1&
#30
0-
0&
#35
b11 O"
b11111111111111111111000000000000 1"
b10 P"
b11111111111111111111000000000000 E"
b0 D"
b0 C"
1&
#40
b10100101 3
b0 2
b101 4
b101 5
b1000000000000000000000000100000000000 .
b1 /
b0 0
b10000000 1
0&
#45
b100 O"
b11 P"
b0 J"
b0 I"
1&
#50
0&
#55
b101 O"
b10000000000000000 N"
b100 P"
b10000000000000000 M"
1&
#60
0&
#65
b1000000000000000000000000000000010000001111111111000000000000000000000011111111110000000000000000000000000000000000000011111111111111111111110000000000000000000000000000011000000000001111111111111111111111000000000000000100000000000000000000000000000000000000000000000000000000000010000000000000000 V
b0 O"
b10000000000000000 <
b10000000000000000 B"
b10000000000000 B
b10000000000000 A"
b11111111111111111111110000000000 F
b11111111111111111111110000000000 @"
b1100000000000 G
b1100000000000 ?"
b11111111111111111111110000000000 H
b11111111111111111111110000000000 >"
b111111111100000000000000000000000000000000000000 P
b111111111100000000000000000000000000000000000000 ;"
b100000011111111110000000000000000000000 Q
b100000011111111110000000000000000000000 :"
b10000000000000000000000 R
b10000000000000000000000 9"
1>
b101 P"
1&
#70
0&
#75
b0 m
b111111111111000000000000000000000000000000000000 H"
b1000011111111111100000000000000000000 G"
b100000000000000000000 F"
b1010000000000000101000000000000000000000000 L"
b10 |
b10100101 '
b10100101 6
b10100101 )"
b1000000000000000000000000100000000000 ,
b1000000000000000000000000100000000000 9
b1000000000000000000000000100000000000 ,"
b100000000100000000000 +
b100000000100000000000 8
b100000000100000000000 +"
b100000000000 *
b100000000000 7
b100000000000 *"
1=
b10000000000000000 ;
b10000000000000000 j
b0 I
b0 e
b0 K
b0 d
b10000000000000 A
b10000000000000 i
b11111111111111111111110000000000 C
b11111111111111111111110000000000 h
b1100000000000 D
b1100000000000 g
b11111111111111111111110000000000 E
b11111111111111111111110000000000 f
b111111111100000000000000000000000000000000000000 M
b111111111100000000000000000000000000000000000000 c
b100000011111111110000000000000000000000 N
b100000011111111110000000000000000000000 b
b10000000000000000000000 O
b10000000000000000000000 a
b0 S
b0 `
1"
0>
b0 P"
b1 [
b1 _
b1000000000000000000000000000000010000001111111111000000000000000000000011111111110000000000000000000000000000000000000011111111111111111111110000000000000000000000000000011000000000001111111111111111111111000000000000000100000000000000000000000000000000000000000000000000000000000010000000000000000 \
1&
#80
b1 O"
1-
0&
#85
bx m
0=
bx ;
bx j
bx I
bx e
bx K
bx d
bx A
bx i
bx C
bx h
bx D
bx g
bx E
bx f
bx M
bx c
bx N
bx b
bx O
bx a
bx S
bx `
b10 O"
b10000000000000000 '"
b10000000000000 {
b11111111111111111111110000000000 x
b1100000000000 w
b11111111111111111111110000000000 v
b111111111100000000000000000000000000000000000000 s
b100000011111111110000000000000000000000 r
b10000000000000000000000 q
b0 [
b1 ^
bx \
0?
b10 ~
b111111111111000000000000000000000000000000000000 4"
b1000011111111111100000000000000000000 3"
b100000000000000000000 2"
b1010000000000000101000000000000000000000000 ."
b10100101 7"
0"
b1 P"
b101000000000000 K"
b0 ""
b1 ]
1&
#90
0-
0&
#95
b11 O"
b11111111111111111111111100000000 1"
b1 !"
b1010000000000 w
b0 v
b1000000000000000000000000000000000000 o
b10 P"
b11111111111111111111111100000000 E"
b0 #"
b0 %"
1&
#100
1(
0&
#105
b100 O"
b10 !"
b1000000000000 w
b10000000000 v
b10000000000000000000000000000000000000 o
b11 P"
b0 #"
1&
#110
0&
#115
b101 O"
b1000000000000000 N"
b11 !"
b110000000000 w
b100000000000 v
b11000000000000000000000000000000000000 o
b100 P"
b1000000000000000 M"
b0 #"
1&
#120
0&
#125
b101000000000000010100000000000000000000000000000000000000000000000000010000000000000000000000000000000100001111111111110000000000000000000011111111111100000000000000000000000000000000000000000000000000000101000000000000111111111111111101100001000000000000000000000000010100000000000000000000000101001010000000000000000000000000000000000000000000000001000000000000000 V
b0 O"
b100 !"
b100000000000 w
b110000000000 v
b100000000000000000000000000000000000000 o
b1000000000000000 <
b1000000000000000 B"
b10100101 B
b10100101 A"
b101000000000000 F
b101000000000000 @"
b11111111111111110110000100000000 G
b11111111111111110110000100000000 ?"
b101000000000000 H
b101000000000000 >"
b111111111111000000000000000000000000000000000000 P
b111111111111000000000000000000000000000000000000 ;"
b1000011111111111100000000000000000000 Q
b1000011111111111100000000000000000000 :"
b100000000000000000000 R
b100000000000000000000 9"
b1010000000000000101000000000000000000000000 T
b1010000000000000101000000000000000000000000 8"
1>
b101 P"
b0 #"
1&
#130
0&
#135
b101000101 m
1=
b1000000000000000 ;
b1000000000000000 j
b0 I
b0 e
b0 K
b0 d
b10100101 A
b10100101 i
b101000000000000 C
b101000000000000 h
b11111111111111110110000100000000 D
b11111111111111110110000100000000 g
b101000000000000 E
b101000000000000 f
b111111111111000000000000000000000000000000000000 M
b111111111111000000000000000000000000000000000000 c
b1000011111111111100000000000000000000 N
b1000011111111111100000000000000000000 b
b100000000000000000000 O
b100000000000000000000 a
b1010000000000000101000000000000000000000000 S
b1010000000000000101000000000000000000000000 `
b101 !"
b10000000000 w
b1000000000000 v
1"
0>
b0 P"
b1 [
b10 _
b101000000000000010100000000000000000000000000000000000000000000000000010000000000000000000000000000000100001111111111110000000000000000000011111111111100000000000000000000000000000000000000000000000000000101000000000000111111111111111101100001000000000000000000000000010100000000000000000000000101001010000000000000000000000000000000000000000000000001000000000000000 \
b101000000000000000000000000000000000000 o
b0 #"
1&
#140
0&
#145
b110 !"
b0 w
b1010000000000 v
b110000000000000000000000000000000000000 o
b0 #"
b101000000000000 K"
1&
#150
0&
#155
b111 !"
b11111111111111111111110000000000 w
b1100000000000 v
b111000000000000000000000000000000000000 o
b0 #"
b101000000000000 K"
1&
#160
0&
#165
b1000 !"
b11111111111111111111100000000000 w
b1110000000000 v
b1000000000000000000000000000000000000000 o
b0 #"
b101000000000000 K"
1&
#170
0&
#175
b1001 !"
b11111111111111111111010000000000 w
b10000000000000 v
b1001000000000000000000000000000000000000 o
b0 #"
b101000000000000 K"
1&
#180
0&
#185
b1010 !"
b11111111111111111111000000000000 w
b10010000000000 v
b1010000000000000000000000000000000000000 o
b0 #"
b101000000000000 K"
1&
#190
0&
#195
b1011 !"
b11111111111111111110110000000000 w
b10100000000000 v
b1011000000000000000000000000000000000000 o
b0 #"
b101000000000000 K"
1&
#200
0&
#205
b1100 !"
b11111111111111111110100000000000 w
b10110000000000 v
b1100000000000000000000000000000000000000 o
b0 #"
b101000000000000 K"
1&
#210
0&
#215
b1101 !"
b11111111111111111110010000000000 w
b11000000000000 v
b1101000000000000000000000000000000000000 o
b0 #"
b101000000000000 K"
1&
#220
0&
#225
b1110 !"
b11111111111111111110000000000000 w
b11010000000000 v
b1110000000000000000000000000000000000000 o
b0 #"
b101000000000000 K"
1&
#230
0&
#235
b1111 !"
b11111111111111111101110000000000 w
b11100000000000 v
b1111000000000000000000000000000000000000 o
b0 #"
b101000000000000 K"
1&
#240
0&
#245
b10000 !"
b0 x
b1010000000000 w
b11111111111111111111110000000000 v
b100000000000000000000 o
b10000000000 $"
b0 &"
b101000000000000 K"
1&
#250
0&
#255
b10001 !"
b1000000000000 w
b0 v
b1000000000000000100000000000000000000 o
b0 #"
b101000000000000 K"
1&
#260
0&
#265
b10010 !"
b110000000000 w
b10000000000 v
b10000000000000000100000000000000000000 o
b0 #"
b101000000000000 K"
1&
#270
0&
#275
b10011 !"
b100000000000 w
b100000000000 v
b11000000000000000100000000000000000000 o
b0 #"
b101000000000000 K"
1&
#280
0&
#285
b10100 !"
b10000000000 w
b110000000000 v
b100000000000000000100000000000000000000 o
b0 #"
b101000000000000 K"
1&
#290
0&
#295
b10101 !"
b0 w
b1000000000000 v
b101000000000000000100000000000000000000 o
b0 #"
b101000000000000 K"
1&
#300
0&
#305
b10110 !"
b11111111111111111111110000000000 w
b1010000000000 v
b110000000000000000100000000000000000000 o
b0 #"
b101000000000000 K"
1&
#310
0&
#315
b10111 !"
b11111111111111111111100000000000 w
b1100000000000 v
b111000000000000000100000000000000000000 o
b0 #"
b101000000000000 K"
1&
#320
0&
#325
b11000 !"
b11111111111111111111010000000000 w
b1110000000000 v
b1000000000000000000100000000000000000000 o
b0 #"
b101000000000000 K"
1&
#330
0&
#335
b11001 !"
b11111111111111111111000000000000 w
b10000000000000 v
b1001000000000000000100000000000000000000 o
b0 #"
b101000000000000 K"
1&
#340
0&
#345
b11010 !"
b11111111111111111110110000000000 w
b10010000000000 v
b1010000000000000000100000000000000000000 o
b0 #"
b101000000000000 K"
1&
#350
0&
#355
b11011 !"
b11111111111111111110100000000000 w
b10100000000000 v
b1011000000000000000100000000000000000000 o
b0 #"
b101000000000000 K"
1&
#360
0&
#365
b11100 !"
b11111111111111111110010000000000 w
b10110000000000 v
b1100000000000000000100000000000000000000 o
b0 #"
b101000000000000 K"
1&
#370
0&
#375
b11101 !"
b11111111111111111110000000000000 w
b11000000000000 v
b1101000000000000000100000000000000000000 o
b0 #"
b101000000000000 K"
1&
#380
0&
#385
b11110 !"
b11111111111111111101110000000000 w
b11010000000000 v
b1110000000000000000100000000000000000000 o
b0 #"
b101000000000000 K"
1&
#390
0&
#395
b11111 !"
b11111111111111111101100000000000 w
b11100000000000 v
b1111000000000000000100000000000000000000 o
b0 #"
b101000000000000 K"
1&
#400
0&
#405
b100000 !"
b10000000000 x
b1000000000000 w
b11111111111111111111110000000000 v
b1000000000000000000000 o
b10000000000 $"
b101000000000000 K"
1&
#410
0&
#415
b100001 !"
b110000000000 w
b0 v
b1000000000000001000000000000000000000 o
b0 #"
b101000000000000 K"
1&
#420
0&
#425
b100010 !"
b100000000000 w
b10000000000 v
b10000000000000001000000000000000000000 o
b0 #"
b101000000000000 K"
1&
#430
0&
#435
b100011 !"
b10000000000 w
b100000000000 v
b11000000000000001000000000000000000000 o
b0 #"
b101000000000000 K"
1&
#440
0&
#445
b100100 !"
b0 w
b110000000000 v
b100000000000000001000000000000000000000 o
b0 #"
b101000000000000 K"
1&
#450
0&
#455
b100101 !"
b11111111111111111111110000000000 w
b1000000000000 v
b101000000000000001000000000000000000000 o
b0 #"
b101000000000000 K"
1&
#460
0&
#465
b100110 !"
b11111111111111111111100000000000 w
b1010000000000 v
b110000000000000001000000000000000000000 o
b0 #"
b101000000000000 K"
1&
#470
0&
#475
b100111 !"
b11111111111111111111010000000000 w
b1100000000000 v
b111000000000000001000000000000000000000 o
b0 #"
b101000000000000 K"
1&
#480
0&
#485
b101000 !"
b11111111111111111111000000000000 w
b1110000000000 v
b1000000000000000001000000000000000000000 o
b0 #"
b101000000000000 K"
1&
#490
0&
#495
b101001 !"
b11111111111111111110110000000000 w
b10000000000000 v
b1001000000000000001000000000000000000000 o
b0 #"
b101000000000000 K"
1&
#500
0&
#505
b101010 !"
b11111111111111111110100000000000 w
b10010000000000 v
b1010000000000000001000000000000000000000 o
b0 #"
b101000000000000 K"
1&
#510
0&
#515
b101011 !"
b11111111111111111110010000000000 w
b10100000000000 v
b1011000000000000001000000000000000000000 o
b0 #"
b101000000000000 K"
1&
#520
0&
#525
b101100 !"
b11111111111111111110000000000000 w
b10110000000000 v
b1100000000000000001000000000000000000000 o
b0 #"
b101000000000000 K"
1&
#530
0&
#535
b101101 !"
b11111111111111111101110000000000 w
b11000000000000 v
b1101000000000000001000000000000000000000 o
b0 #"
b101000000000000 K"
1&
#540
0&
#545
b101110 !"
b11111111111111111101100000000000 w
b11010000000000 v
b1110000000000000001000000000000000000000 o
b0 #"
b101000000000000 K"
1&
#550
0&
#555
b101111 !"
b11111111111111111101010000000000 w
b11100000000000 v
b1111000000000000001000000000000000000000 o
b0 #"
b101000000000000 K"
1&
#560
0&
#565
b110000 !"
b100000000000 x
b110000000000 w
b11111111111111111111110000000000 v
b1100000000000000000000 o
b10000000000 $"
b101000000000000 K"
1&
#570
0&
#575
b110001 !"
b100000000000 w
b0 v
b1000000000000001100000000000000000000 o
b0 #"
b101000000000000 K"
1&
#580
0&
#585
b110010 !"
b10000000000 w
b10000000000 v
b10000000000000001100000000000000000000 o
b0 #"
b101000000000000 K"
1&
#590
0&
#595
b110011 !"
b0 w
b100000000000 v
b11000000000000001100000000000000000000 o
b0 #"
b101000000000000 K"
1&
#600
0&
#605
b110100 !"
b11111111111111111111110000000000 w
b110000000000 v
b100000000000000001100000000000000000000 o
b0 #"
b101000000000000 K"
1&
#610
0&
#615
b110101 !"
b11111111111111111111100000000000 w
b1000000000000 v
b101000000000000001100000000000000000000 o
b0 #"
b101000000000000 K"
1&
#620
0&
#625
b110110 !"
b11111111111111111111010000000000 w
b1010000000000 v
b110000000000000001100000000000000000000 o
b0 #"
b101000000000000 K"
1&
#630
0&
#635
b110111 !"
b11111111111111111111000000000000 w
b1100000000000 v
b111000000000000001100000000000000000000 o
b0 #"
b101000000000000 K"
1&
#640
0&
#645
b111000 !"
b11111111111111111110110000000000 w
b1110000000000 v
b1000000000000000001100000000000000000000 o
b0 #"
b101000000000000 K"
1&
#650
0&
#655
b111001 !"
b11111111111111111110100000000000 w
b10000000000000 v
b1001000000000000001100000000000000000000 o
b0 #"
b101000000000000 K"
1&
#660
0&
#665
b111010 !"
b11111111111111111110010000000000 w
b10010000000000 v
b1010000000000000001100000000000000000000 o
b0 #"
b101000000000000 K"
1&
#670
0&
#675
b111011 !"
b11111111111111111110000000000000 w
b10100000000000 v
b1011000000000000001100000000000000000000 o
b0 #"
b101000000000000 K"
1&
#680
0&
#685
b111100 !"
b11111111111111111101110000000000 w
b10110000000000 v
b1100000000000000001100000000000000000000 o
b0 #"
b101000000000000 K"
1&
#690
0&
#695
b111101 !"
b11111111111111111101100000000000 w
b11000000000000 v
b1101000000000000001100000000000000000000 o
b0 #"
b101000000000000 K"
1&
#700
0&
#705
b111110 !"
b11111111111111111101010000000000 w
b11010000000000 v
b1110000000000000001100000000000000000000 o
b0 #"
b101000000000000 K"
1&
#710
0&
#715
b111111 !"
b11111111111111111101000000000000 w
b11100000000000 v
b1111000000000000001100000000000000000000 o
b0 #"
b101000000000000 K"
1&
#720
0&
#725
b1000000 !"
b110000000000 x
b100000000000 w
b11111111111111111111110000000000 v
b10000000000000000000000 o
b10000000000 $"
b101000000000000 K"
1&
#730
0&
#735
b1000001 !"
b10000000000 w
b0 v
b1000000000000010000000000000000000000 o
b0 #"
b101000000000000 K"
1&
#740
0&
#745
b1000010 !"
b0 w
b10000000000 v
b10000000000000010000000000000000000000 o
b0 #"
b101000000000000 K"
1&
#750
0&
#755
b1000011 !"
b11111111111111111111110000000000 w
b100000000000 v
b11000000000000010000000000000000000000 o
b0 #"
b101000000000000 K"
1&
#760
0&
#765
b1000100 !"
b11111111111111111111100000000000 w
b110000000000 v
b100000000000000010000000000000000000000 o
b0 #"
b101000000000000 K"
1&
#770
0&
#775
b1000101 !"
b11111111111111111111010000000000 w
b1000000000000 v
b101000000000000010000000000000000000000 o
b0 #"
b101000000000000 K"
1&
#780
0&
#785
b1000110 !"
b11111111111111111111000000000000 w
b1010000000000 v
b110000000000000010000000000000000000000 o
b0 #"
b101000000000000 K"
1&
#790
0&
#795
b1000111 !"
b11111111111111111110110000000000 w
b1100000000000 v
b111000000000000010000000000000000000000 o
b0 #"
b101000000000000 K"
1&
#800
0&
#805
b1001000 !"
b11111111111111111110100000000000 w
b1110000000000 v
b1000000000000000010000000000000000000000 o
b0 #"
b101000000000000 K"
1&
#810
0&
#815
b1001001 !"
b11111111111111111110010000000000 w
b10000000000000 v
b1001000000000000010000000000000000000000 o
b0 #"
b101000000000000 K"
1&
#820
0&
#825
b1001010 !"
b11111111111111111110000000000000 w
b10010000000000 v
b1010000000000000010000000000000000000000 o
b0 #"
b101000000000000 K"
1&
#830
0&
#835
b1001011 !"
b11111111111111111101110000000000 w
b10100000000000 v
b1011000000000000010000000000000000000000 o
b0 #"
b101000000000000 K"
1&
#840
0&
#845
b1001100 !"
b11111111111111111101100000000000 w
b10110000000000 v
b1100000000000000010000000000000000000000 o
b0 #"
b101000000000000 K"
1&
#850
0&
#855
b1001101 !"
b11111111111111111101010000000000 w
b11000000000000 v
b1101000000000000010000000000000000000000 o
b0 #"
b101000000000000 K"
1&
#860
0&
#865
b1001110 !"
b11111111111111111101000000000000 w
b11010000000000 v
b1110000000000000010000000000000000000000 o
b0 #"
b101000000000000 K"
1&
#870
0&
#875
b1001111 !"
b11111111111111111100110000000000 w
b11100000000000 v
b1111000000000000010000000000000000000000 o
b0 #"
b101000000000000 K"
1&
#880
0&
#885
b1010000 !"
b1000000000000 x
b10000000000 w
b11111111111111111111110000000000 v
b10100000000000000000000 o
b10000000000 $"
b101000000000000 K"
1&
#890
0&
#895
b1010001 !"
b0 w
b0 v
b1000000000000010100000000000000000000 o
b0 #"
b101000000000000 K"
1&
#900
0&
#905
b1010010 !"
b11111111111111111111110000000000 w
b10000000000 v
b10000000000000010100000000000000000000 o
b0 #"
b101000000000000 K"
1&
#910
0&
#915
b1010011 !"
b11111111111111111111100000000000 w
b100000000000 v
b11000000000000010100000000000000000000 o
b0 #"
b101000000000000 K"
1&
#920
0&
#925
b1010100 !"
b11111111111111111111010000000000 w
b110000000000 v
b100000000000000010100000000000000000000 o
b0 #"
b101000000000000 K"
1&
#930
0&
#935
b1010101 !"
b11111111111111111111000000000000 w
b1000000000000 v
b101000000000000010100000000000000000000 o
b0 #"
b101000000000000 K"
1&
#940
0&
#945
b1010110 !"
b11111111111111111110110000000000 w
b1010000000000 v
b110000000000000010100000000000000000000 o
b0 #"
b101000000000000 K"
1&
#950
0&
#955
b1010111 !"
b11111111111111111110100000000000 w
b1100000000000 v
b111000000000000010100000000000000000000 o
b0 #"
b101000000000000 K"
1&
#960
0&
#965
b1011000 !"
b11111111111111111110010000000000 w
b1110000000000 v
b1000000000000000010100000000000000000000 o
b0 #"
b101000000000000 K"
1&
#970
0&
#975
b1011001 !"
b11111111111111111110000000000000 w
b10000000000000 v
b1001000000000000010100000000000000000000 o
b0 #"
b101000000000000 K"
1&
#980
0&
#985
b1011010 !"
b11111111111111111101110000000000 w
b10010000000000 v
b1010000000000000010100000000000000000000 o
b0 #"
b101000000000000 K"
1&
#990
0&
#995
b1011011 !"
b11111111111111111101100000000000 w
b10100000000000 v
b1011000000000000010100000000000000000000 o
b0 #"
b101000000000000 K"
1&
#1000
0&
#1005
b1011100 !"
b11111111111111111101010000000000 w
b10110000000000 v
b1100000000000000010100000000000000000000 o
b0 #"
b101000000000000 K"
1&
#1010
0&
