tests/tb_all/tb_all.vcd
$date
	Mon May 12 18:56:53 2025
$end
$version
	Icarus Verilog
$end
$timescale
	1s
$end
$scope module tb_all $end
$var wire 1 ! z_buffer_write_en $end
$var wire 8 " z_buffer_write_addr [7:0] $end
$var wire 8 # z_buffer_read_addr [7:0] $end
$var wire 32 $ z_buffer_data_out [31:0] $end
$var wire 32 % z_buffer_data_in [31:0] $end
$var wire 1 & vld_out $end
$var wire 1 ' rdy_in $end
$var wire 16 ( pixel_out_y [15:0] $end
$var wire 16 ) pixel_out_x [15:0] $end
$var wire 8 * color_out [7:0] $end
$var wire 1 + color_buffer_write_en $end
$var wire 8 , color_buffer_write_addr [7:0] $end
$var wire 8 - color_buffer_read_addr [7:0] $end
$var wire 8 . color_buffer_data_out [7:0] $end
$var wire 8 / color_buffer_data_in [7:0] $end
$var parameter 32 0 PERIOD $end
$var reg 1 1 clk $end
$var reg 8 2 color [7:0] $end
$var reg 1 3 rdy_out $end
$var reg 1 4 rst_n $end
$var reg 6 5 tile_x [5:0] $end
$var reg 5 6 tile_y [4:0] $end
$var reg 16 7 v0_x [15:0] $end
$var reg 16 8 v0_y [15:0] $end
$var reg 16 9 v0_z [15:0] $end
$var reg 16 : v1_x [15:0] $end
$var reg 16 ; v1_y [15:0] $end
$var reg 16 < v1_z [15:0] $end
$var reg 16 = v2_x [15:0] $end
$var reg 16 > v2_y [15:0] $end
$var reg 16 ? v2_z [15:0] $end
$var reg 1 @ vld_in $end
$scope function make_coord $end
$var reg 48 A point [47:0] $end
$var reg 16 B x_in [15:0] $end
$var reg 16 C y_in [15:0] $end
$var reg 16 D z_in [15:0] $end
$upscope $end
$scope function make_meta $end
$var reg 8 E colors_in [7:0] $end
$var reg 19 F meta [18:0] $end
$var reg 6 G tile_x_in [5:0] $end
$var reg 5 H tile_y_in [4:0] $end
$upscope $end
$scope module color_buffer $end
$var wire 1 1 clk $end
$var wire 8 I data_out [7:0] $end
$var wire 1 4 rst_n $end
$var wire 1 + write_en $end
$var wire 8 J write_addr [7:0] $end
$var wire 8 K read_addr [7:0] $end
$var wire 8 L data_in [7:0] $end
$var parameter 32 M ADDR_SIZE $end
$var parameter 32 N DATA_SIZE $end
$var parameter 32 O INITIAL_VALUE $end
$scope begin $ivl_for_loop2 $end
$var integer 32 P i [31:0] $end
$upscope $end
$scope begin $unm_blk_36 $end
$var integer 32 Q i [31:0] $end
$upscope $end
$upscope $end
$scope module rastafarian $end
$var wire 1 1 clk $end
$var wire 8 R color [7:0] $end
$var wire 8 S color_buffer_data_in [7:0] $end
$var wire 1 3 rdy_out $end
$var wire 1 4 rst_n $end
$var wire 6 T tile_x [5:0] $end
$var wire 5 U tile_y [4:0] $end
$var wire 16 V v0_x [15:0] $end
$var wire 16 W v0_y [15:0] $end
$var wire 16 X v0_z [15:0] $end
$var wire 16 Y v1_x [15:0] $end
$var wire 16 Z v1_y [15:0] $end
$var wire 16 [ v1_z [15:0] $end
$var wire 16 \ v2_x [15:0] $end
$var wire 16 ] v2_y [15:0] $end
$var wire 16 ^ v2_z [15:0] $end
$var wire 1 @ vld_in $end
$var wire 1 ! z_buffer_write_en $end
$var wire 8 _ z_buffer_write_addr [7:0] $end
$var wire 8 ` z_buffer_read_addr [7:0] $end
$var wire 32 a z_buffer_data_out [31:0] $end
$var wire 32 b z_buffer_data_in [31:0] $end
$var wire 1 & vld_out $end
$var wire 1 ' rdy_in $end
$var wire 16 c pixel_out_y [15:0] $end
$var wire 16 d pixel_out_x [15:0] $end
$var wire 32 e inter_z_current_1 [31:0] $end
$var wire 32 f inter_z_current_0 [31:0] $end
$var wire 1 g inter_vld_1 $end
$var wire 1 h inter_vld_0 $end
$var wire 5 i inter_tile_y_1 [4:0] $end
$var wire 5 j inter_tile_y_0 [4:0] $end
$var wire 6 k inter_tile_x_1 [5:0] $end
$var wire 6 l inter_tile_x_0 [5:0] $end
$var wire 1 m inter_rdy_1 $end
$var wire 1 n inter_rdy_0 $end
$var wire 32 o inter_edges_1_2 [31:0] $end
$var wire 32 p inter_edges_1_1 [31:0] $end
$var wire 32 q inter_edges_1_0 [31:0] $end
$var wire 32 r inter_edges_0_2 [31:0] $end
$var wire 32 s inter_edges_0_1 [31:0] $end
$var wire 32 t inter_edges_0_0 [31:0] $end
$var wire 16 u inter_dzdy_1 [15:0] $end
$var wire 16 v inter_dzdy_0 [15:0] $end
$var wire 16 w inter_dzdx_1 [15:0] $end
$var wire 16 x inter_dzdx_0 [15:0] $end
$var wire 16 y inter_deltas_1_2_y [15:0] $end
$var wire 16 z inter_deltas_1_2_x [15:0] $end
$var wire 16 { inter_deltas_1_1_y [15:0] $end
$var wire 16 | inter_deltas_1_1_x [15:0] $end
$var wire 16 } inter_deltas_1_0_y [15:0] $end
$var wire 16 ~ inter_deltas_1_0_x [15:0] $end
$var wire 16 !" inter_deltas_0_2_y [15:0] $end
$var wire 16 "" inter_deltas_0_2_x [15:0] $end
$var wire 16 #" inter_deltas_0_1_y [15:0] $end
$var wire 16 $" inter_deltas_0_1_x [15:0] $end
$var wire 16 %" inter_deltas_0_0_y [15:0] $end
$var wire 16 &" inter_deltas_0_0_x [15:0] $end
$var wire 8 '" inter_color_1 [7:0] $end
$var wire 8 (" inter_color_0 [7:0] $end
$var wire 16 )" inter_abs_pos_1_y [15:0] $end
$var wire 16 *" inter_abs_pos_1_x [15:0] $end
$var wire 16 +" inter_abs_pos_0_y [15:0] $end
$var wire 16 ," inter_abs_pos_0_x [15:0] $end
$var wire 8 -" color_out [7:0] $end
$var wire 1 + color_buffer_write_en $end
$var wire 8 ." color_buffer_write_addr [7:0] $end
$var wire 8 /" color_buffer_read_addr [7:0] $end
$var wire 8 0" color_buffer_data_out [7:0] $end
$scope module axel_f $end
$var wire 1 1 clk $end
$var wire 307 1" data_in [306:0] $end
$var wire 1 4 rst_n $end
$var wire 1 h vld_in $end
$var wire 1 m rdy_out $end
$var parameter 32 2" DEPTH $end
$var parameter 32 3" MIN_DEPTH $end
$var parameter 32 4" PTR_WIDTH $end
$var parameter 32 5" WIDTH $end
$var reg 307 6" data_out [306:0] $end
$var reg 3 7" next_read_ptr [2:0] $end
$var reg 1 n rdy_in $end
$var reg 3 8" read_ptr [2:0] $end
$var reg 1 g vld_out $end
$var reg 3 9" write_ptr [2:0] $end
$scope begin $ivl_for_loop0 $end
$var integer 32 :" i [31:0] $end
$upscope $end
$upscope $end
$scope module pixel_proc $end
$var wire 1 1 clk $end
$var wire 8 ;" color_buffer_data_in [7:0] $end
$var wire 8 <" color_buffer_read_addr [7:0] $end
$var wire 16 =" in_abs_pos_x [15:0] $end
$var wire 16 >" in_abs_pos_y [15:0] $end
$var wire 8 ?" in_color [7:0] $end
$var wire 16 @" in_delta_0_x [15:0] $end
$var wire 16 A" in_delta_0_y [15:0] $end
$var wire 16 B" in_delta_1_x [15:0] $end
$var wire 16 C" in_delta_1_y [15:0] $end
$var wire 16 D" in_delta_2_x [15:0] $end
$var wire 16 E" in_delta_2_y [15:0] $end
$var wire 16 F" in_dzdx [15:0] $end
$var wire 16 G" in_dzdy [15:0] $end
$var wire 32 H" in_edge_0 [31:0] $end
$var wire 32 I" in_edge_1 [31:0] $end
$var wire 32 J" in_edge_2 [31:0] $end
$var wire 6 K" in_tile_x [5:0] $end
$var wire 5 L" in_tile_y [4:0] $end
$var wire 32 M" in_z_current [31:0] $end
$var wire 1 3 rdy_out $end
$var wire 1 4 rst_n $end
$var wire 1 g vld_in $end
$var wire 8 N" z_buffer_read_addr [7:0] $end
$var wire 32 O" z_buffer_data_in [31:0] $end
$var wire 11 P" new_tile_coord [10:0] $end
$var wire 11 Q" current_tile_coord [10:0] $end
$var reg 8 R" addr_position [7:0] $end
$var reg 8 S" color_buffer_data_out [7:0] $end
$var reg 8 T" color_buffer_write_addr [7:0] $end
$var reg 1 + color_buffer_write_en $end
$var reg 8 U" color_out [7:0] $end
$var reg 32 V" coord_position [31:0] $end
$var reg 32 W" delta_0 [31:0] $end
$var reg 32 X" delta_1 [31:0] $end
$var reg 32 Y" delta_2 [31:0] $end
$var reg 16 Z" dzdx [15:0] $end
$var reg 16 [" dzdy [15:0] $end
$var reg 32 \" edge_0 [31:0] $end
$var reg 32 ]" edge_1 [31:0] $end
$var reg 32 ^" edge_2 [31:0] $end
$var reg 19 _" metadata [18:0] $end
$var reg 2 `" next_state [1:0] $end
$var reg 16 a" pixel_out_x [15:0] $end
$var reg 16 b" pixel_out_y [15:0] $end
$var reg 2 c" present_state [1:0] $end
$var reg 32 d" prev_coord_position [31:0] $end
$var reg 1 m rdy_in $end
$var reg 32 e" temp_coord [31:0] $end
$var reg 32 f" temp_edge_col_off [31:0] $end
$var reg 32 g" temp_edge_row_off [31:0] $end
$var reg 32 h" temp_z_col_off [31:0] $end
$var reg 32 i" temp_z_row_off [31:0] $end
$var reg 1 & vld_out $end
$var reg 32 j" z_buffer_data_out [31:0] $end
$var reg 8 k" z_buffer_write_addr [7:0] $end
$var reg 1 ! z_buffer_write_en $end
$var reg 32 l" z_current [31:0] $end
$scope task edge_column_offset $end
$upscope $end
$scope task edge_row_offset $end
$upscope $end
$scope task sext_f16_f32 $end
$upscope $end
$scope task tile_to_coord $end
$upscope $end
$scope task z_row_offset $end
$upscope $end
$upscope $end
$scope module tile_proc $end
$var wire 1 1 clk $end
$var wire 8 m" in_color [7:0] $end
$var wire 6 n" in_tile_x [5:0] $end
$var wire 5 o" in_tile_y [4:0] $end
$var wire 1 n rdy_out $end
$var wire 1 4 rst_n $end
$var wire 16 p" v0_x [15:0] $end
$var wire 16 q" v0_y [15:0] $end
$var wire 16 r" v0_z [15:0] $end
$var wire 16 s" v1_x [15:0] $end
$var wire 16 t" v1_y [15:0] $end
$var wire 16 u" v1_z [15:0] $end
$var wire 16 v" v2_x [15:0] $end
$var wire 16 w" v2_y [15:0] $end
$var wire 16 x" v2_z [15:0] $end
$var wire 1 @ vld_in $end
$var reg 48 y" abs_pos [47:0] $end
$var reg 32 z" coeff_A [31:0] $end
$var reg 32 {" coeff_B [31:0] $end
$var reg 32 |" coeff_C [31:0] $end
$var reg 48 }" delta_0 [47:0] $end
$var reg 48 ~" delta_1 [47:0] $end
$var reg 48 !# delta_2 [47:0] $end
$var reg 16 "# dzdx [15:0] $end
$var reg 16 ## dzdy [15:0] $end
$var reg 19 $# metadata [18:0] $end
$var reg 16 %# out_abs_pos_x [15:0] $end
$var reg 16 &# out_abs_pos_y [15:0] $end
$var reg 8 '# out_color [7:0] $end
$var reg 16 (# out_delta_0_x [15:0] $end
$var reg 16 )# out_delta_0_y [15:0] $end
$var reg 16 *# out_delta_1_x [15:0] $end
$var reg 16 +# out_delta_1_y [15:0] $end
$var reg 16 ,# out_delta_2_x [15:0] $end
$var reg 16 -# out_delta_2_y [15:0] $end
$var reg 16 .# out_dzdx [15:0] $end
$var reg 16 /# out_dzdy [15:0] $end
$var reg 32 0# out_edge_0 [31:0] $end
$var reg 32 1# out_edge_1 [31:0] $end
$var reg 32 2# out_edge_2 [31:0] $end
$var reg 6 3# out_tile_x [5:0] $end
$var reg 5 4# out_tile_y [4:0] $end
$var reg 32 5# out_z_current [31:0] $end
$var reg 1 ' rdy_in $end
$var reg 32 6# temp_coeff_a [31:0] $end
$var reg 32 7# temp_coeff_b [31:0] $end
$var reg 32 8# temp_coeff_c [31:0] $end
$var reg 48 9# temp_delta_0 [47:0] $end
$var reg 48 :# temp_delta_1 [47:0] $end
$var reg 48 ;# temp_delta_2 [47:0] $end
$var reg 16 <# temp_dzdx [15:0] $end
$var reg 16 =# temp_dzdy [15:0] $end
$var reg 32 ># temp_edge_i [31:0] $end
$var reg 48 ?# temp_start [47:0] $end
$var reg 32 @# temp_z [31:0] $end
$var reg 48 A# v0 [47:0] $end
$var reg 48 B# v1 [47:0] $end
$var reg 48 C# v2 [47:0] $end
$var reg 1 h vld_out $end
$var reg 32 D# z_current [31:0] $end
$var reg 48 E# zero [47:0] $end
$var integer 32 F# next_state [31:0] $end
$var integer 32 G# present_state [31:0] $end
$scope begin $ivl_for_loop1 $end
$var integer 32 H# i [31:0] $end
$upscope $end
$scope task compute_delta $end
$upscope $end
$scope task compute_edge $end
$upscope $end
$scope task compute_plane_coeff_a $end
$upscope $end
$scope task compute_plane_coeff_b $end
$upscope $end
$scope task compute_plane_coeff_c $end
$upscope $end
$scope task compute_z $end
$upscope $end
$scope task scale_dz $end
$upscope $end
$scope task tile_to_coord $end
$upscope $end
$upscope $end
$upscope $end
$scope module z_buffer $end
$var wire 1 1 clk $end
$var wire 32 I# data_in [31:0] $end
$var wire 32 J# data_out [31:0] $end
$var wire 8 K# read_addr [7:0] $end
$var wire 1 4 rst_n $end
$var wire 8 L# write_addr [7:0] $end
$var wire 1 ! write_en $end
$var parameter 32 M# ADDR_SIZE $end
$var parameter 65 N# DATA_SIZE $end
$var parameter 32 O# INITIAL_VALUE $end
$scope begin $ivl_for_loop2 $end
$var integer 32 P# i [31:0] $end
$upscope $end
$scope begin $unm_blk_36 $end
$var integer 32 Q# i [31:0] $end
$upscope $end
$upscope $end
$scope task cross_tile_triangle $end
$upscope $end
$scope task flush $end
$upscope $end
$scope task reset $end
$upscope $end
$scope task run_triangle_test $end
$upscope $end
$scope task star_of_david $end
$upscope $end
$scope task test_multi_tile $end
$upscope $end
$scope task test_nested $end
$upscope $end
$scope task test_nested_backwards $end
$upscope $end
$scope task test_simple_triangle $end
$upscope $end
$upscope $end
$enddefinitions $end
$comment Show the parameter values. $end
$dumpall
b1111111111111111111111111111111 O#
b100000 N#
b1000 M#
b100110011 5"
b10 4"
b100 3"
b100 2"
b0 O
b1000 N
b1000 M
b1010 0
$end
#0
$dumpvars
b100000000 Q#
b0 P#
bx L#
bx K#
bx J#
bx I#
b0 H#
b0 G#
b0 F#
b0 E#
bx D#
b0 C#
b0 B#
b0 A#
bx @#
b0 ?#
bx >#
bx =#
bx <#
b0 ;#
b0 :#
b0 9#
bx 8#
bx 7#
bx 6#
bx 5#
bx 4#
bx 3#
bx 2#
bx 1#
bx 0#
bx /#
bx .#
bx -#
bx ,#
bx +#
bx *#
bx )#
bx (#
bx '#
bx &#
bx %#
bx $#
bx ##
bx "#
bx !#
bx ~"
bx }"
bx |"
bx {"
bx z"
bx y"
b0 x"
b0 w"
b0 v"
b0 u"
b0 t"
b0 s"
b0 r"
b0 q"
b0 p"
b0 o"
b0 n"
b0 m"
bx l"
bx k"
bx j"
bx i"
bx h"
bx g"
bx f"
bx e"
bx d"
bx c"
bx b"
bx a"
b0 `"
bx _"
bx ^"
bx ]"
bx \"
bx ["
bx Z"
bx Y"
bx X"
bx W"
bx V"
bx U"
bx T"
bx S"
bx R"
bx Q"
b0 P"
bx O"
bx N"
b0 M"
b0 L"
b0 K"
b0 J"
b0 I"
b0 H"
b0 G"
b0 F"
b0 E"
b0 D"
b0 C"
b0 B"
b0 A"
b0 @"
b0 ?"
b0 >"
b0 ="
bx <"
bx ;"
b100 :"
b0 9"
b0 8"
bx 7"
b0 6"
bx 1"
bx 0"
bx /"
bx ."
bx -"
bx ,"
bx +"
b0 *"
b0 )"
bx ("
b0 '"
bx &"
bx %"
bx $"
bx #"
bx ""
bx !"
b0 ~
b0 }
b0 |
b0 {
b0 z
b0 y
bx x
b0 w
bx v
b0 u
bx t
bx s
bx r
b0 q
b0 p
b0 o
1n
xm
bx l
b0 k
bx j
b0 i
xh
0g
bx f
b0 e
bx d
bx c
bx b
bx a
bx `
bx _
b0 ^
b0 ]
b0 \
b0 [
b0 Z
b0 Y
b0 X
b0 W
b0 V
b0 U
b0 T
bx S
b0 R
b100000000 Q
b0 P
bx L
bx K
bx J
bx I
bx H
bx G
bx F
bx E
bx D
bx C
bx B
bx A
0@
b0 ?
b0 >
b0 =
b0 <
b0 ;
b0 :
b0 9
b0 8
b0 7
b0 6
b0 5
04
03
b0 2
01
bx /
bx .
bx -
bx ,
x+
bx *
bx )
bx (
x'
x&
bx %
bx $
bx #
bx "
x!
$end
#5
b0 1"
b0 Q"
b1111111111111111111111111111111 %
b1111111111111111111111111111111 b
b1111111111111111111111111111111 O"
b1111111111111111111111111111111 J#
b0 /
b0 I
b0 S
b0 ;"
b0 f
b0 5#
b0 v
b0 /#
b0 x
b0 .#
b0 j
b0 4#
b0 l
b0 3#
b0 ("
b0 '#
b0 r
b0 2#
b0 s
b0 1#
b0 t
b0 0#
b0 !"
b0 -#
b0 ""
b0 ,#
b0 #"
b0 +#
b0 $"
b0 *#
b0 %"
b0 )#
b0 &"
b0 (#
b0 +"
b0 &#
b0 ,"
b0 %#
0h
1'
b0 D#
b0 ##
b0 "#
b0 |"
b0 {"
b0 z"
b0 $#
b0 !#
b0 ~"
b0 }"
b0 y"
b0 c"
b0 (
b0 c
b0 b"
b0 )
b0 d
b0 a"
b0 *
b0 -"
b0 U"
0&
1m
b0 l"
b0 ["
b0 Z"
b0 _"
b0 Y"
b0 X"
b0 W"
b0 ^"
b0 ]"
b0 \"
b0 #
b0 `
b0 N"
b0 K#
b0 -
b0 K
b0 /"
b0 <"
b0 R"
b0 d"
b0 V"
b100000000 P#
b100000000 P
b11 H#
11
#10
01
#15
b111111111100000000000000000000000000000000000000 ;#
b100000011111111110000000000000000000000 :#
b10000000000000000000000 9#
b101000000000000000100000001000000000000 C#
b1000000000000010100000001000000000000 B#
b1000000000000000100000001000000000000 A#
b100000000 P#
b100000000 P
b11 H#
b100 2
b100 R
b100 m"
b1000000000000 ?
b1000000000000 ^
b1000000000000 x"
b10000 >
b10000 ]
b10000 w"
b1010000 =
b1010000 \
b1010000 v"
b1000000000000 <
b1000000000000 [
b1000000000000 u"
b1010000 ;
b1010000 Z
b1010000 t"
b10000 :
b10000 Y
b10000 s"
b1000000000000 9
b1000000000000 X
b1000000000000 r"
b10000 8
b10000 W
b10000 q"
b10000 7
b10000 V
b10000 p"
b10000000000000 F
b100 E
b0 G
b0 H
b101000000000000000100000001000000000000 A
b101 B
b1 C
b100000000 D
14
11
#20
b1 F#
1@
01
#25
b10 F#
0+
0!
b111111111100000000000000000000000000000000000000 !#
b100000011111111110000000000000000000000 ~"
b10000000000000000000000 }"
b10000000000000 $#
0'
b1 G#
b11111111111111111111110000000000 >#
11
#30
0@
01
#35
b11 F#
b11111111111111111111000000000000 |"
b10 G#
b11111111111111111111000000000000 8#
b0 7#
b0 6#
11
#40
b10100101 F
b0 E
b101 G
b101 H
b1000000000000000000000000100000000000 A
b1 B
b0 C
b10000000 D
01
#45
b100 F#
b11 G#
b0 =#
b0 <#
11
#50
01
#55
b101 F#
b10000000000000000 D#
b100 G#
b10000000000000000 @#
11
#60
01
#65
b1000000000000000100000011111111110000001111111111000000000000000000000011111111111111111111110000000000000000000000000000011000000000001111111111111111111111000000000000000100000000000000000000000000000000000000000000000000000000000010000000000000000 1"
b0 F#
b10000000000000000 f
b10000000000000000 5#
b100 ("
b100 '#
b11111111111111111111110000000000 r
b11111111111111111111110000000000 2#
b1100000000000 s
b1100000000000 1#
b11111111111111111111110000000000 t
b11111111111111111111110000000000 0#
b1111111111000000 ""
b1111111111000000 ,#
b1111111111000000 #"
b1111111111000000 +#
b1000000 $"
b1000000 *#
b1000000 %"
b1000000 )#
1h
b101 G#
11
#70
01
#75
b111111111111000000000000000000000000000000000000 ;#
b1000011111111111100000000000000000000 :#
b100000000000000000000 9#
b1010000000000000101000000000000000000000000 ?#
b1000000000000000000000000100000000000 C#
b100000000100000000000 B#
b100000000000 A#
b10 `"
b101 6
b101 U
b101 o"
b101 5
b101 T
b101 n"
b0 2
b0 R
b0 m"
b100000000000 ?
b100000000000 ^
b100000000000 x"
b0 >
b0 ]
b0 w"
b10000 =
b10000 \
b10000 v"
b100000000000 <
b100000000000 [
b100000000000 u"
b10000 ;
b10000 Z
b10000 t"
b0 :
b0 Y
b0 s"
b100000000000 9
b100000000000 X
b100000000000 r"
b0 8
b0 W
b0 q"
b0 7
b0 V
b0 p"
b10000000000000000 e
b10000000000000000 M"
b100 '"
b100 ?"
b11111111111111111111110000000000 o
b11111111111111111111110000000000 J"
b1100000000000 p
b1100000000000 I"
b11111111111111111111110000000000 q
b11111111111111111111110000000000 H"
b1111111111000000 z
b1111111111000000 D"
b1111111111000000 {
b1111111111000000 C"
b1000000 |
b1000000 B"
b1000000 }
b1000000 A"
1g
1'
0h
b0 G#
b1000000000000000100000011111111110000001111111111000000000000000000000011111111111111111111110000000000000000000000000000011000000000001111111111111111111111000000000000000100000000000000000000000000000000000000000000000000000000000010000000000000000 6"
b1 9"
11
#80
b1 F#
1@
01
#85
0g
b0 e
b0 M"
b0 '"
b0 ?"
b0 o
b0 J"
b0 p
b0 I"
b0 q
b0 H"
b0 z
b0 D"
b0 {
b0 C"
b0 |
b0 B"
b0 }
b0 A"
b10 F#
0m
b10000000000000000 l"
b10000000000000 _"
b11111111111111111111110000000000 ^"
b1100000000000 ]"
b11111111111111111111110000000000 \"
b11111111110000000000000000000000 Y"
b10000001111111111000000 X"
b1000000 W"
b1 8"
b0 6"
b10 c"
b111111111111000000000000000000000000000000000000 !#
b1000011111111111100000000000000000000 ~"
b100000000000000000000 }"
b1010000000000000101000000000000000000000000 y"
b10100101 $#
0'
b1 G#
b101000000000000 >#
b0 e"
b1 7"
11
#90
0@
01
#95
b11 F#
b11111111111111111111111100000000 |"
b1 #
b1 `
b1 N"
b1 K#
b1 -
b1 K
b1 /"
b1 <"
b1 R"
b1010000000000 ]"
b0 \"
b100000000000000000000 V"
b10 G#
b11111111111111111111111100000000 8#
b0 f"
b0 h"
11
#100
13
01
#105
b100 F#
b10 #
b10 `
b10 N"
b10 K#
b10 -
b10 K
b10 /"
b10 <"
b10 R"
b1000000000000 ]"
b10000000000 \"
b1000000000000000000000 V"
b11 G#
b0 f"
11
#110
01
#115
b101 F#
b1000000000000000 D#
b11 #
b11 `
b11 N"
b11 K#
b11 -
b11 K
b11 /"
b11 <"
b11 R"
b110000000000 ]"
b100000000000 \"
b1100000000000000000000 V"
b100 G#
b1000000000000000 @#
b0 f"
11
#120
01
#125
b10100000000000001010000000000000000000000000000000000010000000000000001000011111111111100001111111111110000000000000000000000000000000000000101000000000000111111111111111101100001000000000000000000000000010100000000000000000000000101001010000000000000000000000000000000000000000000000001000000000000000 1"
b0 F#
b100 #
b100 `
b100 N"
b100 K#
b100 -
b100 K
b100 /"
b100 <"
b100 R"
b100000000000 ]"
b110000000000 \"
b10000000000000000000000 V"
b1000000000000000 f
b1000000000000000 5#
b101 j
b101 4#
b101 l
b101 3#
b0 ("
b0 '#
b101000000000000 r
b101000000000000 2#
b11111111111111110110000100000000 s
b11111111111111110110000100000000 1#
b101000000000000 t
b101000000000000 0#
b1111111111110000 ""
b1111111111110000 ,#
b1111111111110000 #"
b1111111111110000 +#
b10000 $"
b10000 *#
b10000 %"
b10000 )#
b10100000000 +"
b10100000000 &#
b10100000000 ,"
b10100000000 %#
1h
b101 G#
b0 f"
11
#130
01
#135
b101000101 P"
b1000000000000000 e
b1000000000000000 M"
b101 i
b101 L"
b101 k
b101 K"
b101000000000000 o
b101000000000000 J"
b11111111111111110110000100000000 p
b11111111111111110110000100000000 I"
b101000000000000 q
b101000000000000 H"
b1111111111110000 z
b1111111111110000 D"
b1111111111110000 {
b1111111111110000 C"
b10000 |
b10000 B"
b10000 }
b10000 A"
b10100000000 )"
b10100000000 >"
b10100000000 *"
b10100000000 ="
1g
b101 #
b101 `
b101 N"
b101 K#
b101 -
b101 K
b101 /"
b101 <"
b101 R"
b10000000000 ]"
b1000000000000 \"
1'
0h
b0 G#
b10100000000000001010000000000000000000000000000000000010000000000000001000011111111111100001111111111110000000000000000000000000000000000000101000000000000111111111111111101100001000000000000000000000000010100000000000000000000000101001010000000000000000000000000000000000000000000000001000000000000000 6"
b10 9"
b10100000000000000000000 V"
b0 f"
11
#140
01
#145
b110 #
b110 `
b110 N"
b110 K#
b110 -
b110 K
b110 /"
b110 <"
b110 R"
b0 ]"
b1010000000000 \"
b11000000000000000000000 V"
b0 f"
b101000000000000 >#
11
#150
01
#155
b111 #
b111 `
b111 N"
b111 K#
b111 -
b111 K
b111 /"
b111 <"
b111 R"
b11111111111111111111110000000000 ]"
b1100000000000 \"
b11100000000000000000000 V"
b0 f"
b101000000000000 >#
11
#160
01
#165
b1000 #
b1000 `
b1000 N"
b1000 K#
b1000 -
b1000 K
b1000 /"
b1000 <"
b1000 R"
b11111111111111111111100000000000 ]"
b1110000000000 \"
b100000000000000000000000 V"
b0 f"
b101000000000000 >#
11
#170
01
#175
b1001 #
b1001 `
b1001 N"
b1001 K#
b1001 -
b1001 K
b1001 /"
b1001 <"
b1001 R"
b11111111111111111111010000000000 ]"
b10000000000000 \"
b100100000000000000000000 V"
b0 f"
b101000000000000 >#
11
#180
01
#185
b1010 #
b1010 `
b1010 N"
b1010 K#
b1010 -
b1010 K
b1010 /"
b1010 <"
b1010 R"
b11111111111111111111000000000000 ]"
b10010000000000 \"
b101000000000000000000000 V"
b0 f"
b101000000000000 >#
11
#190
01
#195
b1011 #
b1011 `
b1011 N"
b1011 K#
b1011 -
b1011 K
b1011 /"
b1011 <"
b1011 R"
b11111111111111111110110000000000 ]"
b10100000000000 \"
b101100000000000000000000 V"
b0 f"
b101000000000000 >#
11
#200
01
#205
b1100 #
b1100 `
b1100 N"
b1100 K#
b1100 -
b1100 K
b1100 /"
b1100 <"
b1100 R"
b11111111111111111110100000000000 ]"
b10110000000000 \"
b110000000000000000000000 V"
b0 f"
b101000000000000 >#
11
#210
01
#215
b1101 #
b1101 `
b1101 N"
b1101 K#
b1101 -
b1101 K
b1101 /"
b1101 <"
b1101 R"
b11111111111111111110010000000000 ]"
b11000000000000 \"
b110100000000000000000000 V"
b0 f"
b101000000000000 >#
11
#220
01
#225
b1110 #
b1110 `
b1110 N"
b1110 K#
b1110 -
b1110 K
b1110 /"
b1110 <"
b1110 R"
b11111111111111111110000000000000 ]"
b11010000000000 \"
b111000000000000000000000 V"
b0 f"
b101000000000000 >#
11
#230
01
#235
b1111 #
b1111 `
b1111 N"
b1111 K#
b1111 -
b1111 K
b1111 /"
b1111 <"
b1111 R"
b11111111111111111101110000000000 ]"
b11100000000000 \"
b111100000000000000000000 V"
b0 f"
b101000000000000 >#
11
#240
01
#245
b10000 #
b10000 `
b10000 N"
b10000 K#
b10000 -
b10000 K
b10000 /"
b10000 <"
b10000 R"
b0 ^"
b1010000000000 ]"
b11111111111111111111110000000000 \"
b10000 V"
b10000000000 g"
b0 i"
b101000000000000 >#
11
#250
01
#255
b10001 #
b10001 `
b10001 N"
b10001 K#
b10001 -
b10001 K
b10001 /"
b10001 <"
b10001 R"
b1000000000000 ]"
b0 \"
b100000000000000010000 V"
b0 f"
b101000000000000 >#
11
#260
01
#265
b10010 #
b10010 `
b10010 N"
b10010 K#
b10010 -
b10010 K
b10010 /"
b10010 <"
b10010 R"
b110000000000 ]"
b10000000000 \"
b1000000000000000010000 V"
1+
b100 .
b100 L
b100 0"
b100 S"
b10001 ,
b10001 J
b10001 ."
b10001 T"
1!
b10000000000000000 $
b10000000000000000 a
b10000000000000000 j"
b10000000000000000 I#
b10001 "
b10001 _
b10001 k"
b10001 L#
b0 f"
b101000000000000 >#
11
#270
01
#275
b10011 #
b10011 `
b10011 N"
b10011 K#
b10011 -
b10011 K
b10011 /"
b10011 <"
b10011 R"
b100000000000 ]"
b100000000000 \"
b1100000000000000010000 V"
b10010 ,
b10010 J
b10010 ."
b10010 T"
b10010 "
b10010 _
b10010 k"
b10010 L#
b0 f"
b101000000000000 >#
11
#280
01
#285
b10100 #
b10100 `
b10100 N"
b10100 K#
b10100 -
b10100 K
b10100 /"
b10100 <"
b10100 R"
b10000000000 ]"
b110000000000 \"
b10000000000000000010000 V"
b10011 ,
b10011 J
b10011 ."
b10011 T"
b10011 "
b10011 _
b10011 k"
b10011 L#
b0 f"
b101000000000000 >#
11
#290
01
#295
b10101 #
b10101 `
b10101 N"
b10101 K#
b10101 -
b10101 K
b10101 /"
b10101 <"
b10101 R"
b0 ]"
b1000000000000 \"
b10100000000000000010000 V"
b10100 ,
b10100 J
b10100 ."
b10100 T"
b10100 "
b10100 _
b10100 k"
b10100 L#
b0 f"
b101000000000000 >#
11
#300
01
#305
b10110 #
b10110 `
b10110 N"
b10110 K#
b10110 -
b10110 K
b10110 /"
b10110 <"
b10110 R"
b11111111111111111111110000000000 ]"
b1010000000000 \"
b11000000000000000010000 V"
b10101 ,
b10101 J
b10101 ."
b10101 T"
b10101 "
b10101 _
b10101 k"
b10101 L#
b0 f"
b101000000000000 >#
11
#310
01
#315
b10111 #
b10111 `
b10111 N"
b10111 K#
b10111 -
b10111 K
b10111 /"
b10111 <"
b10111 R"
b11111111111111111111100000000000 ]"
b1100000000000 \"
b11100000000000000010000 V"
0+
0!
b0 f"
b101000000000000 >#
11
#320
01
#325
b11000 #
b11000 `
b11000 N"
b11000 K#
b11000 -
b11000 K
b11000 /"
b11000 <"
b11000 R"
b11111111111111111111010000000000 ]"
b1110000000000 \"
b100000000000000000010000 V"
b0 f"
b101000000000000 >#
11
#330
01
#335
b11001 #
b11001 `
b11001 N"
b11001 K#
b11001 -
b11001 K
b11001 /"
b11001 <"
b11001 R"
b11111111111111111111000000000000 ]"
b10000000000000 \"
b100100000000000000010000 V"
b0 f"
b101000000000000 >#
11
#340
01
#345
b11010 #
b11010 `
b11010 N"
b11010 K#
b11010 -
b11010 K
b11010 /"
b11010 <"
b11010 R"
b11111111111111111110110000000000 ]"
b10010000000000 \"
b101000000000000000010000 V"
b0 f"
b101000000000000 >#
11
#350
01
