tests/tb_all/tb_all.vcd
$version Generated by VerilatedVcd $end
$timescale 1ps $end
 $scope module $rootio $end
 $upscope $end
 $scope module tb_all $end
  $var wire 1 /# clk $end
  $var wire 1 # rst_n $end
  $var wire 1 $ rdy_out $end
  $var wire 1 % vld_in $end
  $scope module v0 $end
   $var wire 16 & x [15:0] $end
   $var wire 16 ' y [15:0] $end
   $var wire 16 ( z [15:0] $end
  $upscope $end
  $scope module v1 $end
   $var wire 16 ) x [15:0] $end
   $var wire 16 * y [15:0] $end
   $var wire 16 + z [15:0] $end
  $upscope $end
  $scope module v2 $end
   $var wire 16 , x [15:0] $end
   $var wire 16 - y [15:0] $end
   $var wire 16 . z [15:0] $end
  $upscope $end
  $scope module metadata $end
   $var wire 8 / color [7:0] $end
   $var wire 6 0 tile_x [5:0] $end
   $var wire 5 1 tile_y [4:0] $end
  $upscope $end
  $var wire 1 &! rdy_in $end
  $var wire 1 '! vld_out $end
  $var wire 8 (! color_out [7:0] $end
  $scope module pixel_out $end
   $var wire 16 )! x [15:0] $end
   $var wire 16 *! y [15:0] $end
  $upscope $end
  $var wire 32 1# PERIOD [31:0] $end
  $scope module make_coord__Vstatic__point $end
   $var wire 16 2 x [15:0] $end
   $var wire 16 3 y [15:0] $end
   $var wire 16 4 z [15:0] $end
  $upscope $end
  $scope module make_meta__Vstatic__meta $end
   $var wire 8 5 color [7:0] $end
   $var wire 6 6 tile_x [5:0] $end
   $var wire 5 7 tile_y [4:0] $end
  $upscope $end
  $scope module rastafarian $end
   $var wire 1 /# clk $end
   $var wire 1 # rst_n $end
   $var wire 1 $ rdy_out $end
   $var wire 1 % vld_in $end
   $scope module v0 $end
    $var wire 16 & x [15:0] $end
    $var wire 16 ' y [15:0] $end
    $var wire 16 ( z [15:0] $end
   $upscope $end
   $scope module v1 $end
    $var wire 16 ) x [15:0] $end
    $var wire 16 * y [15:0] $end
    $var wire 16 + z [15:0] $end
   $upscope $end
   $scope module v2 $end
    $var wire 16 , x [15:0] $end
    $var wire 16 - y [15:0] $end
    $var wire 16 . z [15:0] $end
   $upscope $end
   $scope module metadata $end
    $var wire 8 / color [7:0] $end
    $var wire 6 0 tile_x [5:0] $end
    $var wire 5 1 tile_y [4:0] $end
   $upscope $end
   $var wire 1 &! rdy_in $end
   $var wire 1 '! vld_out $end
   $var wire 8 (! color_out [7:0] $end
   $scope module pixel_out $end
    $var wire 16 )! x [15:0] $end
    $var wire 16 *! y [15:0] $end
   $upscope $end
   $scope module inter_abs_pos_0 $end
    $var wire 16 +! x [15:0] $end
    $var wire 16 ,! y [15:0] $end
    $var wire 16 -! z [15:0] $end
   $upscope $end
   $scope module inter_deltas_0[0] $end
    $var wire 16 .! x [15:0] $end
    $var wire 16 /! y [15:0] $end
    $var wire 16 0! z [15:0] $end
   $upscope $end
   $scope module inter_deltas_0[1] $end
    $var wire 16 1! x [15:0] $end
    $var wire 16 2! y [15:0] $end
    $var wire 16 3! z [15:0] $end
   $upscope $end
   $scope module inter_deltas_0[2] $end
    $var wire 16 4! x [15:0] $end
    $var wire 16 5! y [15:0] $end
    $var wire 16 6! z [15:0] $end
   $upscope $end
   $var wire 32 7! inter_edges_0[0] [31:0] $end
   $var wire 32 8! inter_edges_0[1] [31:0] $end
   $var wire 32 9! inter_edges_0[2] [31:0] $end
   $scope module inter_metadata_0 $end
    $var wire 8 :! color [7:0] $end
    $var wire 6 ;! tile_x [5:0] $end
    $var wire 5 <! tile_y [4:0] $end
   $upscope $end
   $var wire 16 =! inter_dzdx_0 [15:0] $end
   $var wire 16 >! inter_dzdy_0 [15:0] $end
   $var wire 32 ?! inter_z_current_0 [31:0] $end
   $var wire 1 @! inter_vld_0 $end
   $var wire 1 8 inter_rdy_0 $end
   $scope module inter_abs_pos_1 $end
    $var wire 16 9 x [15:0] $end
    $var wire 16 : y [15:0] $end
    $var wire 16 ; z [15:0] $end
   $upscope $end
   $scope module inter_deltas_1[0] $end
    $var wire 16 A! x [15:0] $end
    $var wire 16 B! y [15:0] $end
    $var wire 16 C! z [15:0] $end
   $upscope $end
   $scope module inter_deltas_1[1] $end
    $var wire 16 D! x [15:0] $end
    $var wire 16 E! y [15:0] $end
    $var wire 16 F! z [15:0] $end
   $upscope $end
   $scope module inter_deltas_1[2] $end
    $var wire 16 G! x [15:0] $end
    $var wire 16 H! y [15:0] $end
    $var wire 16 I! z [15:0] $end
   $upscope $end
   $var wire 32 J! inter_edges_1[0] [31:0] $end
   $var wire 32 K! inter_edges_1[1] [31:0] $end
   $var wire 32 L! inter_edges_1[2] [31:0] $end
   $scope module inter_metadata_1 $end
    $var wire 8 < color [7:0] $end
    $var wire 6 = tile_x [5:0] $end
    $var wire 5 > tile_y [4:0] $end
   $upscope $end
   $var wire 16 ? inter_dzdx_1 [15:0] $end
   $var wire 16 @ inter_dzdy_1 [15:0] $end
   $var wire 32 A inter_z_current_1 [31:0] $end
   $var wire 1 B inter_vld_1 $end
   $var wire 1 M! inter_rdy_1 $end
   $scope module axel_f $end
    $var wire 32 2# WIDTH [31:0] $end
    $var wire 32 3# DEPTH [31:0] $end
    $var wire 32 4# PTR_WIDTH [31:0] $end
    $var wire 1 /# clk $end
    $var wire 1 # rst_n $end
    $var wire 1 M! rdy_out $end
    $var wire 1 @! vld_in $end
    $var wire 371 N! data_in [370:0] $end
    $var wire 371 C data_out [370:0] $end
    $var wire 1 8 rdy_in $end
    $var wire 1 B vld_out $end
    $var wire 32 5# COUNT_WIDTH [31:0] $end
    $var wire 371 Z! buffer[0] [370:0] $end
    $var wire 371 f! buffer[1] [370:0] $end
    $var wire 371 r! buffer[2] [370:0] $end
    $var wire 371 ~! buffer[3] [370:0] $end
    $var wire 3 O write_ptr [2:0] $end
    $var wire 3 P read_ptr [2:0] $end
    $var wire 4 Q count [3:0] $end
    $var wire 3 ," next_read_ptr [2:0] $end
   $upscope $end
   $scope module pixel_proc $end
    $var wire 1 /# clk $end
    $var wire 1 # rst_n $end
    $var wire 1 $ rdy_out $end
    $var wire 1 B vld_in $end
    $scope module in_abs_pos $end
     $var wire 16 9 x [15:0] $end
     $var wire 16 : y [15:0] $end
     $var wire 16 ; z [15:0] $end
    $upscope $end
    $scope module in_delta_0 $end
     $var wire 16 R x [15:0] $end
     $var wire 16 S y [15:0] $end
     $var wire 16 T z [15:0] $end
    $upscope $end
    $scope module in_delta_1 $end
     $var wire 16 U x [15:0] $end
     $var wire 16 V y [15:0] $end
     $var wire 16 W z [15:0] $end
    $upscope $end
    $scope module in_delta_2 $end
     $var wire 16 X x [15:0] $end
     $var wire 16 Y y [15:0] $end
     $var wire 16 Z z [15:0] $end
    $upscope $end
    $var wire 32 [ in_edge_0 [31:0] $end
    $var wire 32 \ in_edge_1 [31:0] $end
    $var wire 32 ] in_edge_2 [31:0] $end
    $scope module in_metadata $end
     $var wire 8 < color [7:0] $end
     $var wire 6 = tile_x [5:0] $end
     $var wire 5 > tile_y [4:0] $end
    $upscope $end
    $var wire 16 ? in_dzdx [15:0] $end
    $var wire 16 @ in_dzdy [15:0] $end
    $var wire 32 A in_z_current [31:0] $end
    $var wire 1 M! rdy_in $end
    $var wire 1 '! vld_out $end
    $var wire 8 (! color_out [7:0] $end
    $scope module pixel_out $end
     $var wire 16 )! x [15:0] $end
     $var wire 16 *! y [15:0] $end
    $upscope $end
    $var wire 32 -" present_state [31:0] $end
    $var wire 32 ^ next_state [31:0] $end
    $scope module abs_pos $end
     $var wire 16 ." x [15:0] $end
     $var wire 16 /" y [15:0] $end
     $var wire 16 0" z [15:0] $end
    $upscope $end
    $scope module flush_abs_pos $end
     $var wire 16 1" x [15:0] $end
     $var wire 16 2" y [15:0] $end
     $var wire 16 3" z [15:0] $end
    $upscope $end
    $var wire 8 4" rel_pos [7:0] $end
    $var wire 8 5" flush_rel_pos [7:0] $end
    $scope module deltas[0] $end
     $var wire 16 6" x [15:0] $end
     $var wire 16 7" y [15:0] $end
     $var wire 16 8" z [15:0] $end
    $upscope $end
    $scope module deltas[1] $end
     $var wire 16 9" x [15:0] $end
     $var wire 16 :" y [15:0] $end
     $var wire 16 ;" z [15:0] $end
    $upscope $end
    $scope module deltas[2] $end
     $var wire 16 <" x [15:0] $end
     $var wire 16 =" y [15:0] $end
     $var wire 16 >" z [15:0] $end
    $upscope $end
    $var wire 32 ?" edges[0] [31:0] $end
    $var wire 32 @" edges[1] [31:0] $end
    $var wire 32 A" edges[2] [31:0] $end
    $scope module metadata $end
     $var wire 8 B" color [7:0] $end
     $var wire 6 C" tile_x [5:0] $end
     $var wire 5 D" tile_y [4:0] $end
    $upscope $end
    $var wire 16 E" dzdx [15:0] $end
    $var wire 16 F" dzdy [15:0] $end
    $var wire 32 G" z_current [31:0] $end
    $scope module out_coord $end
     $var wire 16 H" x [15:0] $end
     $var wire 16 I" y [15:0] $end
    $upscope $end
    $var wire 11 J" current_tile_coord [10:0] $end
    $var wire 11 _ new_tile_coord [10:0] $end
    $scope module zero $end
     $var wire 16 6# x [15:0] $end
     $var wire 16 6# y [15:0] $end
     $var wire 16 6# z [15:0] $end
    $upscope $end
    $var wire 32 K" edge_row_offset__Vstatic__s_dy [31:0] $end
    $var wire 32 L" edge_row_offset__Vstatic__s_dx [31:0] $end
    $var wire 32 M" edge_column_offset__Vstatic__s_dy [31:0] $end
    $scope module tile_to_coord__Vstatic__out $end
     $var wire 16 N" x [15:0] $end
     $var wire 16 O" y [15:0] $end
     $var wire 16 P" z [15:0] $end
    $upscope $end
    $scope module unnamedblk1 $end
     $var wire 32 Q" i [31:0] $end
    $upscope $end
    $scope module unnamedblk2 $end
     $var wire 32 R" i [31:0] $end
    $upscope $end
    $scope module unnamedblk3 $end
     $var wire 32 S" i [31:0] $end
    $upscope $end
    $scope module unnamedblk4 $end
     $var wire 32 T" i [31:0] $end
    $upscope $end
   $upscope $end
   $scope module tile_proc $end
    $var wire 1 /# clk $end
    $var wire 1 # rst_n $end
    $var wire 1 8 rdy_out $end
    $var wire 1 % vld_in $end
    $scope module v0 $end
     $var wire 16 & x [15:0] $end
     $var wire 16 ' y [15:0] $end
     $var wire 16 ( z [15:0] $end
    $upscope $end
    $scope module v1 $end
     $var wire 16 ) x [15:0] $end
     $var wire 16 * y [15:0] $end
     $var wire 16 + z [15:0] $end
    $upscope $end
    $scope module v2 $end
     $var wire 16 , x [15:0] $end
     $var wire 16 - y [15:0] $end
     $var wire 16 . z [15:0] $end
    $upscope $end
    $scope module in_metadata $end
     $var wire 8 / color [7:0] $end
     $var wire 6 0 tile_x [5:0] $end
     $var wire 5 1 tile_y [4:0] $end
    $upscope $end
    $var wire 1 &! rdy_in $end
    $var wire 1 @! vld_out $end
    $scope module out_abs_pos $end
     $var wire 16 +! x [15:0] $end
     $var wire 16 ,! y [15:0] $end
     $var wire 16 -! z [15:0] $end
    $upscope $end
    $scope module out_delta_0 $end
     $var wire 16 U" x [15:0] $end
     $var wire 16 V" y [15:0] $end
     $var wire 16 W" z [15:0] $end
    $upscope $end
    $scope module out_delta_1 $end
     $var wire 16 X" x [15:0] $end
     $var wire 16 Y" y [15:0] $end
     $var wire 16 Z" z [15:0] $end
    $upscope $end
    $scope module out_delta_2 $end
     $var wire 16 [" x [15:0] $end
     $var wire 16 \" y [15:0] $end
     $var wire 16 ]" z [15:0] $end
    $upscope $end
    $var wire 32 ^" out_edge_0 [31:0] $end
    $var wire 32 _" out_edge_1 [31:0] $end
    $var wire 32 `" out_edge_2 [31:0] $end
    $scope module out_metadata $end
     $var wire 8 :! color [7:0] $end
     $var wire 6 ;! tile_x [5:0] $end
     $var wire 5 <! tile_y [4:0] $end
    $upscope $end
    $var wire 16 =! out_dzdx [15:0] $end
    $var wire 16 >! out_dzdy [15:0] $end
    $var wire 32 ?! out_z_current [31:0] $end
    $var wire 32 a" present_state [31:0] $end
    $var wire 32 0# next_state [31:0] $end
    $scope module v[0] $end
     $var wire 16 ` x [15:0] $end
     $var wire 16 a y [15:0] $end
     $var wire 16 b z [15:0] $end
    $upscope $end
    $scope module v[1] $end
     $var wire 16 c x [15:0] $end
     $var wire 16 d y [15:0] $end
     $var wire 16 e z [15:0] $end
    $upscope $end
    $scope module v[2] $end
     $var wire 16 f x [15:0] $end
     $var wire 16 g y [15:0] $end
     $var wire 16 h z [15:0] $end
    $upscope $end
    $scope module rotated_v[0] $end
     $var wire 16 i x [15:0] $end
     $var wire 16 j y [15:0] $end
     $var wire 16 k z [15:0] $end
    $upscope $end
    $scope module rotated_v[1] $end
     $var wire 16 l x [15:0] $end
     $var wire 16 m y [15:0] $end
     $var wire 16 n z [15:0] $end
    $upscope $end
    $scope module rotated_v[2] $end
     $var wire 16 o x [15:0] $end
     $var wire 16 p y [15:0] $end
     $var wire 16 q z [15:0] $end
    $upscope $end
    $scope module temp_start $end
     $var wire 16 r x [15:0] $end
     $var wire 16 s y [15:0] $end
     $var wire 16 t z [15:0] $end
    $upscope $end
    $scope module temp_deltas[0] $end
     $var wire 16 u x [15:0] $end
     $var wire 16 v y [15:0] $end
     $var wire 16 w z [15:0] $end
    $upscope $end
    $scope module temp_deltas[1] $end
     $var wire 16 x x [15:0] $end
     $var wire 16 y y [15:0] $end
     $var wire 16 z z [15:0] $end
    $upscope $end
    $scope module temp_deltas[2] $end
     $var wire 16 { x [15:0] $end
     $var wire 16 | y [15:0] $end
     $var wire 16 } z [15:0] $end
    $upscope $end
    $scope module zero $end
     $var wire 16 6# x [15:0] $end
     $var wire 16 6# y [15:0] $end
     $var wire 16 6# z [15:0] $end
    $upscope $end
    $scope module abs_pos $end
     $var wire 16 b" x [15:0] $end
     $var wire 16 c" y [15:0] $end
     $var wire 16 d" z [15:0] $end
    $upscope $end
    $scope module deltas[0] $end
     $var wire 16 e" x [15:0] $end
     $var wire 16 f" y [15:0] $end
     $var wire 16 g" z [15:0] $end
    $upscope $end
    $scope module deltas[1] $end
     $var wire 16 h" x [15:0] $end
     $var wire 16 i" y [15:0] $end
     $var wire 16 j" z [15:0] $end
    $upscope $end
    $scope module deltas[2] $end
     $var wire 16 k" x [15:0] $end
     $var wire 16 l" y [15:0] $end
     $var wire 16 m" z [15:0] $end
    $upscope $end
    $var wire 32 n" edges[0] [31:0] $end
    $var wire 32 o" edges[1] [31:0] $end
    $var wire 32 p" edges[2] [31:0] $end
    $scope module metadata $end
     $var wire 8 q" color [7:0] $end
     $var wire 6 r" tile_x [5:0] $end
     $var wire 5 s" tile_y [4:0] $end
    $upscope $end
    $var wire 32 t" coeff_A [31:0] $end
    $var wire 32 u" coeff_B [31:0] $end
    $var wire 32 v" coeff_C [31:0] $end
    $var wire 16 w" dzdx [15:0] $end
    $var wire 16 x" dzdy [15:0] $end
    $var wire 32 y" z_current [31:0] $end
    $scope module tile_to_coord__Vstatic__out $end
     $var wire 16 ~ x [15:0] $end
     $var wire 16 !! y [15:0] $end
     $var wire 16 "! z [15:0] $end
    $upscope $end
    $scope module compute_delta__Vstatic__out $end
     $var wire 16 #! x [15:0] $end
     $var wire 16 $! y [15:0] $end
     $var wire 16 %! z [15:0] $end
    $upscope $end
    $var wire 16 z" compute_edge__Vstatic__temp_x_sub [15:0] $end
    $var wire 16 {" compute_edge__Vstatic__temp_y_sub [15:0] $end
    $var wire 32 |" compute_edge__Vstatic__temp_x_mult [31:0] $end
    $var wire 32 }" compute_edge__Vstatic__temp_y_mult [31:0] $end
    $var wire 32 ~" compute_plane_coeff_a__Vstatic__temp_y0z2_mult [31:0] $end
    $var wire 32 !# compute_plane_coeff_a__Vstatic__temp_z0y2_mult [31:0] $end
    $var wire 32 "# compute_plane_coeff_b__Vstatic__temp_z0x2_mult [31:0] $end
    $var wire 32 ## compute_plane_coeff_b__Vstatic__temp_x0z2_mult [31:0] $end
    $var wire 32 $# compute_plane_coeff_c__Vstatic__temp_x0y2_mult [31:0] $end
    $var wire 32 %# compute_plane_coeff_c__Vstatic__temp_y0x2_mult [31:0] $end
    $var wire 32 &# scale_dz__Vstatic__div_result_dz [31:0] $end
    $var wire 16 '# compute_z__Vstatic__delta_x [15:0] $end
    $var wire 16 (# compute_z__Vstatic__delta_y [15:0] $end
    $var wire 32 )# compute_z__Vstatic__x_component [31:0] $end
    $var wire 32 *# compute_z__Vstatic__y_component [31:0] $end
    $var wire 32 +# compute_z__Vstatic__z_component [31:0] $end
    $scope module unnamedblk1 $end
     $var wire 32 ,# i [31:0] $end
    $upscope $end
    $scope module unnamedblk2 $end
     $var wire 32 -# i [31:0] $end
    $upscope $end
    $scope module unnamedblk3 $end
     $var wire 32 .# i [31:0] $end
    $upscope $end
   $upscope $end
  $upscope $end
 $upscope $end
$enddefinitions $end


#0
0#
0$
0%
b0000000000000000 &
b0000000000000000 '
b0000000000000000 (
b0000000000000000 )
b0000000000000000 *
b0000000000000000 +
b0000000000000000 ,
b0000000000000000 -
b0000000000000000 .
b00000000 /
b000000 0
b00000 1
b0000000000000000 2
b0000000000000000 3
b0000000000000000 4
b00000000 5
b000000 6
b00000 7
18
b0000000000000000 9
b0000000000000000 :
b0000000000000000 ;
b00000000 <
b000000 =
b00000 >
b0000000000000000 ?
b0000000000000000 @
b00000000000000000000000000000000 A
0B
b00000000000000000000000000000000000000000000000000000000000000000000000000000000000000000000000000000000000000000000000000000000000000000000000000000000000000000000000000000000000000000000000000000000000000000000000000000000000000000000000000000000000000000000000000000000000000000000000000000000000000000000000000000000000000000000000000000000000000000000000000000000000 C
b000 O
b000 P
b0000 Q
b0000000000000000 R
b0000000000000000 S
b0000000000000000 T
b0000000000000000 U
b0000000000000000 V
b0000000000000000 W
b0000000000000000 X
b0000000000000000 Y
b0000000000000000 Z
b00000000000000000000000000000000 [
b00000000000000000000000000000000 \
b00000000000000000000000000000000 ]
b00000000000000000000000000000000 ^
b00000000000 _
b0000000000000000 `
b0000000000000000 a
b0000000000000000 b
b0000000000000000 c
b0000000000000000 d
b0000000000000000 e
b0000000000000000 f
b0000000000000000 g
b0000000000000000 h
b0000000000000000 i
b0000000000000000 j
b0000000000000000 k
b0000000000000000 l
b0000000000000000 m
b0000000000000000 n
b0000000000000000 o
b0000000000000000 p
b0000000000000000 q
b0000000000000000 r
b0000000000000000 s
b0000000000000000 t
b0000000000000000 u
b0000000000000000 v
b0000000000000000 w
b0000000000000000 x
b0000000000000000 y
b0000000000000000 z
b0000000000000000 {
b0000000000000000 |
b0000000000000000 }
b0000000000000000 ~
b0000000000000000 !!
b0000000000000000 "!
b0000000000000000 #!
b0000000000000000 $!
b0000000000000000 %!
0&!
0'!
b00000000 (!
b0000000000000000 )!
b0000000000000000 *!
b0000000000000000 +!
b0000000000000000 ,!
b0000000000000000 -!
b0000000000000000 .!
b0000000000000000 /!
b0000000000000000 0!
b0000000000000000 1!
b0000000000000000 2!
b0000000000000000 3!
b0000000000000000 4!
b0000000000000000 5!
b0000000000000000 6!
b00000000000000000000000000000000 7!
b00000000000000000000000000000000 8!
b00000000000000000000000000000000 9!
b00000000 :!
b000000 ;!
b00000 <!
b0000000000000000 =!
b0000000000000000 >!
b00000000000000000000000000000000 ?!
0@!
b0000000000000000 A!
b0000000000000000 B!
b0000000000000000 C!
b0000000000000000 D!
b0000000000000000 E!
b0000000000000000 F!
b0000000000000000 G!
b0000000000000000 H!
b0000000000000000 I!
b00000000000000000000000000000000 J!
b00000000000000000000000000000000 K!
b00000000000000000000000000000000 L!
0M!
b00000000000000000000000000000000000000000000000000000000000000000000000000000000000000000000000000000000000000000000000000000000000000000000000000000000000000000000000000000000000000000000000000000000000000000000000000000000000000000000000000000000000000000000000000000000000000000000000000000000000000000000000000000000000000000000000000000000000000000000000000000000000 N!
b00000000000000000000000000000000000000000000000000000000000000000000000000000000000000000000000000000000000000000000000000000000000000000000000000000000000000000000000000000000000000000000000000000000000000000000000000000000000000000000000000000000000000000000000000000000000000000000000000000000000000000000000000000000000000000000000000000000000000000000000000000000000 Z!
b00000000000000000000000000000000000000000000000000000000000000000000000000000000000000000000000000000000000000000000000000000000000000000000000000000000000000000000000000000000000000000000000000000000000000000000000000000000000000000000000000000000000000000000000000000000000000000000000000000000000000000000000000000000000000000000000000000000000000000000000000000000000 f!
b00000000000000000000000000000000000000000000000000000000000000000000000000000000000000000000000000000000000000000000000000000000000000000000000000000000000000000000000000000000000000000000000000000000000000000000000000000000000000000000000000000000000000000000000000000000000000000000000000000000000000000000000000000000000000000000000000000000000000000000000000000000000 r!
b00000000000000000000000000000000000000000000000000000000000000000000000000000000000000000000000000000000000000000000000000000000000000000000000000000000000000000000000000000000000000000000000000000000000000000000000000000000000000000000000000000000000000000000000000000000000000000000000000000000000000000000000000000000000000000000000000000000000000000000000000000000000 ~!
b000 ,"
b00000000000000000000000000000000 -"
b0000000000000000 ."
b0000000000000000 /"
b0000000000000000 0"
b0000000000000000 1"
b0000000000000000 2"
b0000000000000000 3"
b00000000 4"
b00000000 5"
b0000000000000000 6"
b0000000000000000 7"
b0000000000000000 8"
b0000000000000000 9"
b0000000000000000 :"
b0000000000000000 ;"
b0000000000000000 <"
b0000000000000000 ="
b0000000000000000 >"
b00000000000000000000000000000000 ?"
b00000000000000000000000000000000 @"
b00000000000000000000000000000000 A"
b00000000 B"
b000000 C"
b00000 D"
b0000000000000000 E"
b0000000000000000 F"
b00000000000000000000000000000000 G"
b0000000000000000 H"
b0000000000000000 I"
b00000000000 J"
b00000000000000000000000000000000 K"
b00000000000000000000000000000000 L"
b00000000000000000000000000000000 M"
b0000000000000000 N"
b0000000000000000 O"
b0000000000000000 P"
b00000000000000000000000000000000 Q"
b00000000000000000000000000000000 R"
b00000000000000000000000000000000 S"
b00000000000000000000000000000000 T"
b0000000000000000 U"
b0000000000000000 V"
b0000000000000000 W"
b0000000000000000 X"
b0000000000000000 Y"
b0000000000000000 Z"
b0000000000000000 ["
b0000000000000000 \"
b0000000000000000 ]"
b00000000000000000000000000000000 ^"
b00000000000000000000000000000000 _"
b00000000000000000000000000000000 `"
b00000000000000000000000000000000 a"
b0000000000000000 b"
b0000000000000000 c"
b0000000000000000 d"
b0000000000000000 e"
b0000000000000000 f"
b0000000000000000 g"
b0000000000000000 h"
b0000000000000000 i"
b0000000000000000 j"
b0000000000000000 k"
b0000000000000000 l"
b0000000000000000 m"
b00000000000000000000000000000000 n"
b00000000000000000000000000000000 o"
b00000000000000000000000000000000 p"
b00000000 q"
b000000 r"
b00000 s"
b00000000000000000000000000000000 t"
b00000000000000000000000000000000 u"
b00000000000000000000000000000000 v"
b0000000000000000 w"
b0000000000000000 x"
b00000000000000000000000000000000 y"
b0000000000000000 z"
b0000000000000000 {"
b00000000000000000000000000000000 |"
b00000000000000000000000000000000 }"
b00000000000000000000000000000000 ~"
b00000000000000000000000000000000 !#
b00000000000000000000000000000000 "#
b00000000000000000000000000000000 ##
b00000000000000000000000000000000 $#
b00000000000000000000000000000000 %#
b00000000000000000000000000000000 &#
b0000000000000000 '#
b0000000000000000 (#
b00000000000000000000000000000000 )#
b00000000000000000000000000000000 *#
b00000000000000000000000000000000 +#
b00000000000000000000000000000000 ,#
b00000000000000000000000000000000 -#
b00000000000000000000000000000000 .#
0/#
b00000000000000000000000000000000 0#
b00000000000000000000000000001010 1#
b00000000000000000000000101110011 2#
b00000000000000000000000000000100 3#
b00000000000000000000000000000010 4#
b00000000000000000000000000000011 5#
b0000000000000000 6#
#5000
1&!
1M!
b00000000000000000000000000000011 Q"
b00000000000000000000000100000000 R"
b00000000000000000000000000000011 ,#
1/#
#10000
0/#
#15000
1#
b0000000000010000 &
b0000000011100000 '
b0010000000000000 (
b0000000001110000 )
b0000000000100000 *
b0010000000000000 +
b0000000011000000 ,
b0000000011110000 -
b0010000000000000 .
b00000001 /
b0000000000010000 2
b0000000011100000 3
b0010000000000000 4
b00000001 5
b0000000000010000 `
b0000000011100000 a
b0010000000000000 b
b0000000001110000 c
b0000000000100000 d
b0010000000000000 e
b0000000011000000 f
b0000000011110000 g
b0010000000000000 h
b0000000001110000 i
b0000000000100000 j
b0010000000000000 k
b0000000011000000 l
b0000000011110000 m
b0010000000000000 n
b0000000000010000 o
b0000000011100000 p
b0010000000000000 q
b0000000001100000 u
b1111111101000000 v
b0000000001010000 x
b0000000011010000 y
b1111111101010000 {
b1111111111110000 |
b1111111101010000 #!
b1111111111110000 $!
0M!
b0000000001100000 e"
b1111111101000000 f"
b0000000001010000 h"
b0000000011010000 i"
b1111111101010000 k"
b1111111111110000 l"
b00000000000000000110000000000000 n"
b11111111111111111010111100000000 o"
b11111111111111110110011100000000 p"
b00000001 q"
b1111111101000000 z"
b1111111100010000 {"
b00000000000000000000110000000000 |"
b00000000000000001010010100000000 }"
b00000000000000000000000000000011 -#
b00000000000000000000000000000011 .#
1/#
#20000
1%
0/#
b00000000000000000000000000000001 0#
#25000
0&!
b00000000000000000000000000000001 a"
1/#
b00000000000000000000000000000010 0#
#30000
0%
0/#
#35000
b00000000000000000000000000000010 a"
b00000000000000001000101000000000 v"
b11111111111111111111101000000000 $#
b00000000000000001000010000000000 %#
1/#
b00000000000000000000000000000011 0#
#40000
b0000000000010000 3
b0001000000000000 4
b00000010 5
0/#
#45000
b00000000000000000000000000000011 a"
1/#
b00000000000000000000000000000100 0#
#50000
0/#
#55000
b00000000000000000000000000000100 a"
b00000000000000100000000000000000 y"
b0000000000010000 '#
b0000000011100000 (#
b00000000000000100000000000000000 +#
1/#
b00000000000000000000000000000101 0#
#60000
0/#
#65000
b0000000001100000 .!
b1111111101000000 /!
b0000000001010000 1!
b0000000011010000 2!
b1111111101010000 4!
b1111111111110000 5!
b00000000000000000110000000000000 7!
b11111111111111111010111100000000 8!
b11111111111111110110011100000000 9!
b00000001 :!
b00000000000000100000000000000000 ?!
1@!
b00000000000000000000000000000000000000000000000000000000011000001111111101000000000000000000000000000000010100000000000011010000000000000000000011111111010100001111111111110000000000000000000000000000000000000110000000000000111111111111111110101111000000001111111111111111011001110000000000000001000000000000000000000000000000000000000000000000000000000100000000000000000 N!
b0000000001100000 U"
b1111111101000000 V"
b0000000001010000 X"
b0000000011010000 Y"
b1111111101010000 ["
b1111111111110000 \"
b00000000000000000110000000000000 ^"
b11111111111111111010111100000000 _"
b11111111111111110110011100000000 `"
b00000000000000000000000000000101 a"
1/#
b00000000000000000000000000000000 0#
#70000
0/#
#75000
b0000000000010000 '
b0001000000000000 (
b0000000101000000 )
b0000000000010000 *
b0100000000000000 +
b0000000000010000 ,
b0000000000100000 -
b0001000000000000 .
b00000010 /
b00000001 <
b00000000000000100000000000000000 A
1B
b00000000000000000000000000000000000000000000000000000000011000001111111101000000000000000000000000000000010100000000000011010000000000000000000011111111010100001111111111110000000000000000000000000000000000000110000000000000111111111111111110101111000000001111111111111111011001110000000000000001000000000000000000000000000000000000000000000000000000000100000000000000000 C
b001 O
b0001 Q
b0000000001100000 R
b1111111101000000 S
b0000000001010000 U
b0000000011010000 V
b1111111101010000 X
b1111111111110000 Y
b00000000000000000110000000000000 [
b11111111111111111010111100000000 \
b11111111111111110110011100000000 ]
b00000000000000000000000000000010 ^
b0000000000010000 a
b0001000000000000 b
b0000000101000000 c
b0000000000010000 d
b0100000000000000 e
b0000000000010000 f
b0000000000100000 g
b0001000000000000 h
b0000000101000000 i
b0000000000010000 j
b0100000000000000 k
b0000000000010000 l
b0000000000100000 m
b0001000000000000 n
b0000000000010000 p
b0001000000000000 q
b0000000100110000 u
b0000000000000000 v
b0011000000000000 w
b1111111011010000 x
b0000000000010000 y
b1101000000000000 z
b0000000000000000 {
b0000000000000000 #!
1&!
0@!
b0000000001100000 A!
b1111111101000000 B!
b0000000001010000 D!
b0000000011010000 E!
b1111111101010000 G!
b1111111111110000 H!
b00000000000000000110000000000000 J!
b11111111111111111010111100000000 K!
b11111111111111110110011100000000 L!
b00000000000000000000000000000000000000000000000000000000011000001111111101000000000000000000000000000000010100000000000011010000000000000000000011111111010100001111111111110000000000000000000000000000000000000110000000000000111111111111111110101111000000001111111111111111011001110000000000000001000000000000000000000000000000000000000000000000000000000100000000000000000 Z!
b00000000000000000000000000000000 a"
1/#
#80000
1%
0/#
b00000000000000000000000000000001 0#
#85000
0&!
b00000000000000000000000000000010 -"
b0000000001100000 6"
b1111111101000000 7"
b0000000001010000 9"
b0000000011010000 :"
b1111111101010000 <"
b1111111111110000 ="
b00000000000000000110000000000000 ?"
b11111111111111111010111100000000 @"
b11111111111111110110011100000000 A"
b00000001 B"
b00000000000000100000000000000000 G"
b00000000000000000000000000000001 a"
b0000000100110000 e"
b0000000000000000 f"
b0011000000000000 g"
b1111111011010000 h"
b0000000000010000 i"
b1101000000000000 j"
b0000000000000000 k"
b00000000000000000001001100000000 n"
b11111111111111111101100100000000 o"
b00000000000000000000000100000000 p"
b00000010 q"
b1111111111110000 z"
b1111111111100000 {"
b00000000000000000000000100000000 |"
b00000000000000000000000000000000 }"
1/#
b00000000000000000000000000000010 0#
#90000
0%
0/#
#95000
b0000000000010000 ."
b00000001 4"
b00000000000000000101010000000000 ?"
b11111111111111111011110000000000 @"
b11111111111111110110011000000000 A"
b11111111111111111111111100000000 M"
b00000000000000000000000000000011 T"
b00000000000000000000000000000010 a"
b11111111111111010000000000000000 t"
b00000000000000000001001100000000 v"
b11111111111111010000000000000000 !#
b11111111111111111110110100000000 $#
b00000000000000000000000000000000 %#
1/#
b00000000000000000000000000000011 0#
#100000
b00000011 5
0/#
#105000
b0000000000100000 ."
b00000010 4"
b00000000000000000100100000000000 ?"
b11111111111111111100100100000000 @"
b11111111111111110110010100000000 A"
b00000000000000000000000000000011 a"
b0000001010000110 w"
1/#
b00000000000000000000000000000100 0#
#110000
0/#
