tests/tb_all/tb_all.vcd
$date
	Sat May 10 09:56:16 2025
$end
$version
	Icarus Verilog
$end
$timescale
	1s
$end
$scope module tb_all $end
$var wire 1 ! vld_out $end
$var wire 1 " rdy_in $end
$var wire 16 # pixel_out_y [15:0] $end
$var wire 16 $ pixel_out_x [15:0] $end
$var wire 8 % color_out [7:0] $end
$var parameter 32 & PERIOD $end
$var reg 1 ' clk $end
$var reg 8 ( color [7:0] $end
$var reg 1 ) rdy_out $end
$var reg 1 * rst_n $end
$var reg 6 + tile_x [5:0] $end
$var reg 5 , tile_y [4:0] $end
$var reg 16 - v0_x [15:0] $end
$var reg 16 . v0_y [15:0] $end
$var reg 16 / v0_z [15:0] $end
$var reg 16 0 v1_x [15:0] $end
$var reg 16 1 v1_y [15:0] $end
$var reg 16 2 v1_z [15:0] $end
$var reg 16 3 v2_x [15:0] $end
$var reg 16 4 v2_y [15:0] $end
$var reg 16 5 v2_z [15:0] $end
$var reg 1 6 vld_in $end
$scope function make_coord $end
$var reg 48 7 point [47:0] $end
$var reg 16 8 x_in [15:0] $end
$var reg 16 9 y_in [15:0] $end
$var reg 16 : z_in [15:0] $end
$upscope $end
$scope function make_meta $end
$var reg 8 ; colors_in [7:0] $end
$var reg 19 < meta [18:0] $end
$var reg 6 = tile_x_in [5:0] $end
$var reg 5 > tile_y_in [4:0] $end
$upscope $end
$scope module rastafarian $end
$var wire 1 ' clk $end
$var wire 8 ? color [7:0] $end
$var wire 1 ) rdy_out $end
$var wire 1 * rst_n $end
$var wire 6 @ tile_x [5:0] $end
$var wire 5 A tile_y [4:0] $end
$var wire 16 B v0_x [15:0] $end
$var wire 16 C v0_y [15:0] $end
$var wire 16 D v0_z [15:0] $end
$var wire 16 E v1_x [15:0] $end
$var wire 16 F v1_y [15:0] $end
$var wire 16 G v1_z [15:0] $end
$var wire 16 H v2_x [15:0] $end
$var wire 16 I v2_y [15:0] $end
$var wire 16 J v2_z [15:0] $end
$var wire 1 6 vld_in $end
$var wire 1 ! vld_out $end
$var wire 1 " rdy_in $end
$var wire 16 K pixel_out_y [15:0] $end
$var wire 16 L pixel_out_x [15:0] $end
$var wire 32 M inter_z_current_1 [31:0] $end
$var wire 32 N inter_z_current_0 [31:0] $end
$var wire 1 O inter_vld_1 $end
$var wire 1 P inter_vld_0 $end
$var wire 5 Q inter_tile_y_1 [4:0] $end
$var wire 5 R inter_tile_y_0 [4:0] $end
$var wire 6 S inter_tile_x_1 [5:0] $end
$var wire 6 T inter_tile_x_0 [5:0] $end
$var wire 1 U inter_rdy_1 $end
$var wire 1 V inter_rdy_0 $end
$var wire 32 W inter_edges_1_2 [31:0] $end
$var wire 32 X inter_edges_1_1 [31:0] $end
$var wire 32 Y inter_edges_1_0 [31:0] $end
$var wire 32 Z inter_edges_0_2 [31:0] $end
$var wire 32 [ inter_edges_0_1 [31:0] $end
$var wire 32 \ inter_edges_0_0 [31:0] $end
$var wire 16 ] inter_dzdy_1 [15:0] $end
$var wire 16 ^ inter_dzdy_0 [15:0] $end
$var wire 16 _ inter_dzdx_1 [15:0] $end
$var wire 16 ` inter_dzdx_0 [15:0] $end
$var wire 16 a inter_deltas_1_2_z [15:0] $end
$var wire 16 b inter_deltas_1_2_y [15:0] $end
$var wire 16 c inter_deltas_1_2_x [15:0] $end
$var wire 16 d inter_deltas_1_1_z [15:0] $end
$var wire 16 e inter_deltas_1_1_y [15:0] $end
$var wire 16 f inter_deltas_1_1_x [15:0] $end
$var wire 16 g inter_deltas_1_0_z [15:0] $end
$var wire 16 h inter_deltas_1_0_y [15:0] $end
$var wire 16 i inter_deltas_1_0_x [15:0] $end
$var wire 16 j inter_deltas_0_2_z [15:0] $end
$var wire 16 k inter_deltas_0_2_y [15:0] $end
$var wire 16 l inter_deltas_0_2_x [15:0] $end
$var wire 16 m inter_deltas_0_1_z [15:0] $end
$var wire 16 n inter_deltas_0_1_y [15:0] $end
$var wire 16 o inter_deltas_0_1_x [15:0] $end
$var wire 16 p inter_deltas_0_0_z [15:0] $end
$var wire 16 q inter_deltas_0_0_y [15:0] $end
$var wire 16 r inter_deltas_0_0_x [15:0] $end
$var wire 8 s inter_color_1 [7:0] $end
$var wire 8 t inter_color_0 [7:0] $end
$var wire 16 u inter_abs_pos_1_z [15:0] $end
$var wire 16 v inter_abs_pos_1_y [15:0] $end
$var wire 16 w inter_abs_pos_1_x [15:0] $end
$var wire 16 x inter_abs_pos_0_z [15:0] $end
$var wire 16 y inter_abs_pos_0_y [15:0] $end
$var wire 16 z inter_abs_pos_0_x [15:0] $end
$var wire 8 { color_out [7:0] $end
$scope module axel_f $end
$var wire 1 ' clk $end
$var wire 371 | data_in [370:0] $end
$var wire 1 * rst_n $end
$var wire 1 P vld_in $end
$var wire 1 U rdy_out $end
$var parameter 33 } COUNT_WIDTH $end
$var parameter 32 ~ DEPTH $end
$var parameter 32 !" PTR_WIDTH $end
$var parameter 32 "" WIDTH $end
$var reg 4 #" count [3:0] $end
$var reg 371 $" data_out [370:0] $end
$var reg 3 %" next_read_ptr [2:0] $end
$var reg 1 V rdy_in $end
$var reg 3 &" read_ptr [2:0] $end
$var reg 1 O vld_out $end
$var reg 3 '" write_ptr [2:0] $end
$upscope $end
$scope module pixel_proc $end
$var wire 1 ' clk $end
$var wire 16 (" in_abs_pos_x [15:0] $end
$var wire 16 )" in_abs_pos_y [15:0] $end
$var wire 16 *" in_abs_pos_z [15:0] $end
$var wire 8 +" in_color [7:0] $end
$var wire 16 ," in_delta_0_x [15:0] $end
$var wire 16 -" in_delta_0_y [15:0] $end
$var wire 16 ." in_delta_0_z [15:0] $end
$var wire 16 /" in_delta_1_x [15:0] $end
$var wire 16 0" in_delta_1_y [15:0] $end
$var wire 16 1" in_delta_1_z [15:0] $end
$var wire 16 2" in_delta_2_x [15:0] $end
$var wire 16 3" in_delta_2_y [15:0] $end
$var wire 16 4" in_delta_2_z [15:0] $end
$var wire 16 5" in_dzdx [15:0] $end
$var wire 16 6" in_dzdy [15:0] $end
$var wire 32 7" in_edge_0 [31:0] $end
$var wire 32 8" in_edge_1 [31:0] $end
$var wire 32 9" in_edge_2 [31:0] $end
$var wire 6 :" in_tile_x [5:0] $end
$var wire 5 ;" in_tile_y [4:0] $end
$var wire 32 <" in_z_current [31:0] $end
$var wire 1 ) rdy_out $end
$var wire 1 * rst_n $end
$var wire 1 O vld_in $end
$var wire 11 =" new_tile_coord [10:0] $end
$var wire 11 >" current_tile_coord [10:0] $end
$var reg 48 ?" abs_pos [47:0] $end
$var reg 8 @" color_out [7:0] $end
$var reg 48 A" delta_0 [47:0] $end
$var reg 48 B" delta_1 [47:0] $end
$var reg 48 C" delta_2 [47:0] $end
$var reg 16 D" dzdx [15:0] $end
$var reg 16 E" dzdy [15:0] $end
$var reg 32 F" edge_0 [31:0] $end
$var reg 32 G" edge_1 [31:0] $end
$var reg 32 H" edge_2 [31:0] $end
$var reg 48 I" flush_abs_pos [47:0] $end
$var reg 8 J" flush_rel_pos [7:0] $end
$var reg 19 K" metadata [18:0] $end
$var reg 2 L" next_state [1:0] $end
$var reg 16 M" pixel_out_x [15:0] $end
$var reg 16 N" pixel_out_y [15:0] $end
$var reg 2 O" present_state [1:0] $end
$var reg 1 U rdy_in $end
$var reg 8 P" rel_pos [7:0] $end
$var reg 48 Q" temp_coord [47:0] $end
$var reg 32 R" temp_edge_col_off [31:0] $end
$var reg 32 S" temp_edge_row_off [31:0] $end
$var reg 32 T" temp_z_col_off [31:0] $end
$var reg 32 U" temp_z_row_off [31:0] $end
$var reg 1 ! vld_out $end
$var reg 32 V" z_current [31:0] $end
$scope begin $ivl_for_loop1 $end
$var integer 32 W" i [31:0] $end
$upscope $end
$scope task edge_column_offset $end
$upscope $end
$scope task edge_row_offset $end
$upscope $end
$scope task sext_f16_f32 $end
$upscope $end
$scope task tile_to_coord $end
$upscope $end
$scope task z_row_offset $end
$upscope $end
$upscope $end
$scope module tile_proc $end
$var wire 1 ' clk $end
$var wire 8 X" in_color [7:0] $end
$var wire 6 Y" in_tile_x [5:0] $end
$var wire 5 Z" in_tile_y [4:0] $end
$var wire 1 V rdy_out $end
$var wire 1 * rst_n $end
$var wire 16 [" v0_x [15:0] $end
$var wire 16 \" v0_y [15:0] $end
$var wire 16 ]" v0_z [15:0] $end
$var wire 16 ^" v1_x [15:0] $end
$var wire 16 _" v1_y [15:0] $end
$var wire 16 `" v1_z [15:0] $end
$var wire 16 a" v2_x [15:0] $end
$var wire 16 b" v2_y [15:0] $end
$var wire 16 c" v2_z [15:0] $end
$var wire 1 6 vld_in $end
$var reg 48 d" abs_pos [47:0] $end
$var reg 32 e" coeff_A [31:0] $end
$var reg 32 f" coeff_B [31:0] $end
$var reg 32 g" coeff_C [31:0] $end
$var reg 48 h" delta_0 [47:0] $end
$var reg 48 i" delta_1 [47:0] $end
$var reg 48 j" delta_2 [47:0] $end
$var reg 16 k" dzdx [15:0] $end
$var reg 16 l" dzdy [15:0] $end
$var reg 19 m" metadata [18:0] $end
$var reg 16 n" out_abs_pos_x [15:0] $end
$var reg 16 o" out_abs_pos_y [15:0] $end
$var reg 16 p" out_abs_pos_z [15:0] $end
$var reg 8 q" out_color [7:0] $end
$var reg 16 r" out_delta_0_x [15:0] $end
$var reg 16 s" out_delta_0_y [15:0] $end
$var reg 16 t" out_delta_0_z [15:0] $end
$var reg 16 u" out_delta_1_x [15:0] $end
$var reg 16 v" out_delta_1_y [15:0] $end
$var reg 16 w" out_delta_1_z [15:0] $end
$var reg 16 x" out_delta_2_x [15:0] $end
$var reg 16 y" out_delta_2_y [15:0] $end
$var reg 16 z" out_delta_2_z [15:0] $end
$var reg 16 {" out_dzdx [15:0] $end
$var reg 16 |" out_dzdy [15:0] $end
$var reg 32 }" out_edge_0 [31:0] $end
$var reg 32 ~" out_edge_1 [31:0] $end
$var reg 32 !# out_edge_2 [31:0] $end
$var reg 6 "# out_tile_x [5:0] $end
$var reg 5 ## out_tile_y [4:0] $end
$var reg 32 $# out_z_current [31:0] $end
$var reg 1 " rdy_in $end
$var reg 32 %# temp_coeff_a [31:0] $end
$var reg 32 &# temp_coeff_b [31:0] $end
$var reg 32 '# temp_coeff_c [31:0] $end
$var reg 48 (# temp_delta_0 [47:0] $end
$var reg 48 )# temp_delta_1 [47:0] $end
$var reg 48 *# temp_delta_2 [47:0] $end
$var reg 16 +# temp_dzdx [15:0] $end
$var reg 16 ,# temp_dzdy [15:0] $end
$var reg 32 -# temp_edge_i [31:0] $end
$var reg 48 .# temp_start [47:0] $end
$var reg 32 /# temp_z [31:0] $end
$var reg 48 0# v0 [47:0] $end
$var reg 48 1# v1 [47:0] $end
$var reg 48 2# v2 [47:0] $end
$var reg 1 P vld_out $end
$var reg 32 3# z_current [31:0] $end
$var reg 48 4# zero [47:0] $end
$var integer 32 5# next_state [31:0] $end
$var integer 32 6# present_state [31:0] $end
$scope begin $ivl_for_loop0 $end
$var integer 32 7# i [31:0] $end
$upscope $end
$scope task compute_delta $end
$upscope $end
$scope task compute_edge $end
$upscope $end
$scope task compute_plane_coeff_a $end
$upscope $end
$scope task compute_plane_coeff_b $end
$upscope $end
$scope task compute_plane_coeff_c $end
$upscope $end
$scope task compute_z $end
$upscope $end
$scope task scale_dz $end
$upscope $end
$scope task tile_to_coord $end
$upscope $end
$upscope $end
$upscope $end
$scope task cross_tile_triangle $end
$upscope $end
$scope task flush $end
$upscope $end
$scope task reset $end
$upscope $end
$scope task run_triangle_test $end
$upscope $end
$scope task star_of_david $end
$upscope $end
$scope task test_multi_tile $end
$upscope $end
$scope task test_nested $end
$upscope $end
$scope task test_nested_backwards $end
$upscope $end
$scope task test_simple_triangle $end
$upscope $end
$upscope $end
$enddefinitions $end
$comment Show the parameter values. $end
$dumpall
b101110011 ""
b10 !"
b100 ~
b11 }
b1010 &
$end
#0
$dumpvars
b0 7#
b0 6#
b0 5#
b0 4#
bx 3#
b0 2#
b0 1#
b0 0#
bx /#
b0 .#
bx -#
bx ,#
bx +#
b0 *#
b0 )#
b0 (#
bx '#
bx &#
bx %#
bx $#
bx ##
bx "#
bx !#
bx ~"
bx }"
bx |"
bx {"
bx z"
bx y"
bx x"
bx w"
bx v"
bx u"
bx t"
bx s"
bx r"
bx q"
bx p"
bx o"
bx n"
bx m"
bx l"
bx k"
bx j"
bx i"
bx h"
bx g"
bx f"
bx e"
bx d"
b0 c"
b0 b"
b0 a"
b0 `"
b0 _"
b0 ^"
b0 ]"
b0 \"
b0 ["
b0 Z"
b0 Y"
b0 X"
b0 W"
bx V"
bx U"
bx T"
bx S"
bx R"
bx Q"
bx P"
bx O"
bx N"
bx M"
b0 L"
bx K"
bx J"
bx I"
bx H"
bx G"
bx F"
bx E"
bx D"
bx C"
bx B"
bx A"
bx @"
bx ?"
bx >"
b0 ="
b0 <"
b0 ;"
b0 :"
b0 9"
b0 8"
b0 7"
b0 6"
b0 5"
b0 4"
b0 3"
b0 2"
b0 1"
b0 0"
b0 /"
b0 ."
b0 -"
b0 ,"
b0 +"
b0 *"
b0 )"
b0 ("
b0 '"
b0 &"
bx %"
b0 $"
b0 #"
bx |
bx {
bx z
bx y
bx x
b0 w
b0 v
b0 u
bx t
b0 s
bx r
bx q
bx p
bx o
bx n
bx m
bx l
bx k
bx j
b0 i
b0 h
b0 g
b0 f
b0 e
b0 d
b0 c
b0 b
b0 a
bx `
b0 _
bx ^
b0 ]
bx \
bx [
bx Z
b0 Y
b0 X
b0 W
1V
xU
bx T
b0 S
bx R
b0 Q
xP
0O
bx N
b0 M
bx L
bx K
b0 J
b0 I
b0 H
b0 G
b0 F
b0 E
b0 D
b0 C
b0 B
b0 A
b0 @
b0 ?
bx >
bx =
bx <
bx ;
bx :
bx 9
bx 8
bx 7
06
b0 5
b0 4
b0 3
b0 2
b0 1
b0 0
b0 /
b0 .
b0 -
b0 ,
b0 +
0*
0)
b0 (
0'
bx %
bx $
bx #
x"
x!
$end
#5
b0 |
bx ="
b0 >"
bx M
bx <"
bx ]
bx 6"
bx _
bx 5"
bx Q
bx ;"
bx S
bx :"
bx s
bx +"
bx W
bx 9"
bx X
bx 8"
bx Y
bx 7"
bx a
bx 4"
bx b
bx 3"
bx c
bx 2"
bx d
bx 1"
bx e
bx 0"
bx f
bx /"
bx g
bx ."
bx h
bx -"
bx i
bx ,"
bx u
bx *"
bx v
bx )"
bx w
bx ("
b0 O"
1U
b0 V"
b0 E"
b0 D"
b0 N
b0 $#
b0 ^
b0 |"
b0 `
b0 {"
b0 R
b0 ##
b0 T
b0 "#
b0 t
b0 q"
b0 Z
b0 !#
b0 [
b0 ~"
b0 \
b0 }"
b0 j
b0 z"
b0 k
b0 y"
b0 l
b0 x"
b0 m
b0 w"
b0 n
b0 v"
b0 o
b0 u"
b0 p
b0 t"
b0 q
b0 s"
b0 r
b0 r"
b0 x
b0 p"
b0 y
b0 o"
b0 z
b0 n"
0P
1"
b0 3#
b0 l"
b0 k"
b0 g"
b0 f"
b0 e"
b0 m"
b0 j"
b0 i"
b0 h"
b0 d"
bx $"
b0 K"
b0 C"
b0 B"
b0 A"
b0 H"
b0 G"
b0 F"
b0 J"
b0 P"
b0 I"
b0 ?"
b100000000 W"
b11 7#
1'
#10
0'
#15
b111111111100000000000000000000000000000000000000 *#
b100000011111111110000000000000000000000 )#
b10000000000000000000000 (#
b101000000000000000100000001000000000000 2#
b1000000000000010100000001000000000000 1#
b1000000000000000100000001000000000000 0#
b100000000 W"
b11 7#
b100 (
b100 ?
b100 X"
b1000000000000 5
b1000000000000 J
b1000000000000 c"
b10000 4
b10000 I
b10000 b"
b1010000 3
b1010000 H
b1010000 a"
b1000000000000 2
b1000000000000 G
b1000000000000 `"
b1010000 1
b1010000 F
b1010000 _"
b10000 0
b10000 E
b10000 ^"
b1000000000000 /
b1000000000000 D
b1000000000000 ]"
b10000 .
b10000 C
b10000 \"
b10000 -
b10000 B
b10000 ["
b10000000000000 <
b100 ;
b0 =
b0 >
b101000000000000000100000001000000000000 7
b101 8
b1 9
b100000000 :
1*
1'
#20
b1 5#
16
0'
#25
b10 5#
b111111111100000000000000000000000000000000000000 j"
b100000011111111110000000000000000000000 i"
b10000000000000000000000 h"
b10000000000000 m"
0"
b1 6#
0!
b11111111111111111111110000000000 -#
1'
#30
06
0'
#35
b11 5#
b11111111111111111111000000000000 g"
b10 6#
b11111111111111111111000000000000 '#
b0 &#
b0 %#
1'
#40
b10100101 <
b0 ;
b101 =
b101 >
b1000000000000000000000000100000000000 7
b1 8
b0 9
b10000000 :
0'
#45
b100 5#
b11 6#
b0 ,#
b0 +#
1'
#50
0'
#55
b101 5#
b10000000000000000 3#
b100 6#
b10000000000000000 /#
1'
#60
0'
#65
b1000000000000000000000000000000010000001111111111000000000000000000000011111111110000000000000000000000000000000000000011111111111111111111110000000000000000000000000000011000000000001111111111111111111111000000000000000100000000000000000000000000000000000000000000000000000000000010000000000000000 |
b0 5#
b10000000000000000 N
b10000000000000000 $#
b100 t
b100 q"
b11111111111111111111110000000000 Z
b11111111111111111111110000000000 !#
b1100000000000 [
b1100000000000 ~"
b11111111111111111111110000000000 \
b11111111111111111111110000000000 }"
b1111111111000000 l
b1111111111000000 x"
b1111111111000000 n
b1111111111000000 v"
b1000000 o
b1000000 u"
b1000000 q
b1000000 s"
1P
b101 6#
1'
#70
0'
#75
b111111111111000000000000000000000000000000000000 *#
b1000011111111111100000000000000000000 )#
b100000000000000000000 (#
b1010000000000000101000000000000000000000000 .#
b1000000000000000000000000100000000000 2#
b100000000100000000000 1#
b100000000000 0#
b10 L"
b0 ="
b101 ,
b101 A
b101 Z"
b101 +
b101 @
b101 Y"
b0 (
b0 ?
b0 X"
b100000000000 5
b100000000000 J
b100000000000 c"
b0 4
b0 I
b0 b"
b10000 3
b10000 H
b10000 a"
b100000000000 2
b100000000000 G
b100000000000 `"
b10000 1
b10000 F
b10000 _"
b0 0
b0 E
b0 ^"
b100000000000 /
b100000000000 D
b100000000000 ]"
b0 .
b0 C
b0 \"
b0 -
b0 B
b0 ["
1O
b10000000000000000 M
b10000000000000000 <"
b0 ]
b0 6"
b0 _
b0 5"
b0 Q
b0 ;"
b0 S
b0 :"
b100 s
b100 +"
b11111111111111111111110000000000 W
b11111111111111111111110000000000 9"
b1100000000000 X
b1100000000000 8"
b11111111111111111111110000000000 Y
b11111111111111111111110000000000 7"
b0 a
b0 4"
b0 b
b0 3"
b1111111111000000 c
b1111111111000000 2"
b0 d
b0 1"
b1111111111000000 e
b1111111111000000 0"
b1000000 f
b1000000 /"
b0 g
b0 ."
b1000000 h
b1000000 -"
b0 i
b0 ,"
b0 u
b0 *"
b0 v
b0 )"
b0 w
b0 ("
1"
0P
b0 6#
b1 #"
b1 '"
b1000000000000000000000000000000010000001111111111000000000000000000000011111111110000000000000000000000000000000000000011111111111111111111110000000000000000000000000000011000000000001111111111111111111111000000000000000100000000000000000000000000000000000000000000000000000000000010000000000000000 $"
1'
#80
b1 5#
16
0'
#85
bx ="
0O
bx M
bx <"
bx ]
bx 6"
bx _
bx 5"
bx Q
bx ;"
bx S
bx :"
bx s
bx +"
bx W
bx 9"
bx X
bx 8"
bx Y
bx 7"
bx a
bx 4"
bx b
bx 3"
bx c
bx 2"
bx d
bx 1"
bx e
bx 0"
bx f
bx /"
bx g
bx ."
bx h
bx -"
bx i
bx ,"
bx u
bx *"
bx v
bx )"
bx w
bx ("
b10 5#
b10000000000000000 V"
b10000000000000 K"
b11111111111111111111110000000000 H"
b1100000000000 G"
b11111111111111111111110000000000 F"
b111111111100000000000000000000000000000000000000 C"
b100000011111111110000000000000000000000 B"
b10000000000000000000000 A"
b0 #"
b1 &"
bx $"
0U
b10 O"
b111111111111000000000000000000000000000000000000 j"
b1000011111111111100000000000000000000 i"
b100000000000000000000 h"
b1010000000000000101000000000000000000000000 d"
b10100101 m"
0"
b1 6#
b101000000000000 -#
b0 Q"
b1 %"
1'
#90
06
0'
#95
b11 5#
b11111111111111111111111100000000 g"
b1 P"
b1010000000000 G"
b0 F"
b1000000000000000000000000000000000000 ?"
b10 6#
b11111111111111111111111100000000 '#
b0 R"
b0 T"
1'
#100
1)
0'
#105
b100 5#
b10 P"
b1000000000000 G"
b10000000000 F"
b10000000000000000000000000000000000000 ?"
b11 6#
b0 R"
1'
#110
0'
#115
b101 5#
b1000000000000000 3#
b11 P"
b110000000000 G"
b100000000000 F"
b11000000000000000000000000000000000000 ?"
b100 6#
b1000000000000000 /#
b0 R"
1'
#120
0'
#125
b101000000000000010100000000000000000000000000000000000000000000000000010000000000000000000000000000000100001111111111110000000000000000000011111111111100000000000000000000000000000000000000000000000000000101000000000000111111111111111101100001000000000000000000000000010100000000000000000000000101001010000000000000000000000000000000000000000000000001000000000000000 |
b0 5#
b100 P"
b100000000000 G"
b110000000000 F"
b100000000000000000000000000000000000000 ?"
b1000000000000000 N
b1000000000000000 $#
b101 R
b101 ##
b101 T
b101 "#
b0 t
b0 q"
b101000000000000 Z
b101000000000000 !#
b11111111111111110110000100000000 [
b11111111111111110110000100000000 ~"
b101000000000000 \
b101000000000000 }"
b1111111111110000 l
b1111111111110000 x"
b1111111111110000 n
b1111111111110000 v"
b10000 o
b10000 u"
b10000 q
b10000 s"
b10100000000 y
b10100000000 o"
b10100000000 z
b10100000000 n"
1P
b101 6#
b0 R"
1'
#130
0'
#135
b101000101 ="
1O
b1000000000000000 M
b1000000000000000 <"
b0 ]
b0 6"
b0 _
b0 5"
b101 Q
b101 ;"
b101 S
b101 :"
b0 s
b0 +"
b101000000000000 W
b101000000000000 9"
b11111111111111110110000100000000 X
b11111111111111110110000100000000 8"
b101000000000000 Y
b101000000000000 7"
b0 a
b0 4"
b0 b
b0 3"
b1111111111110000 c
b1111111111110000 2"
b0 d
b0 1"
b1111111111110000 e
b1111111111110000 0"
b10000 f
b10000 /"
b0 g
b0 ."
b10000 h
b10000 -"
b0 i
b0 ,"
b0 u
b0 *"
b10100000000 v
b10100000000 )"
b10100000000 w
b10100000000 ("
b101 P"
b10000000000 G"
b1000000000000 F"
1"
0P
b0 6#
b1 #"
b10 '"
b101000000000000010100000000000000000000000000000000000000000000000000010000000000000000000000000000000100001111111111110000000000000000000011111111111100000000000000000000000000000000000000000000000000000101000000000000111111111111111101100001000000000000000000000000010100000000000000000000000101001010000000000000000000000000000000000000000000000001000000000000000 $"
b101000000000000000000000000000000000000 ?"
b0 R"
1'
#140
0'
#145
b110 P"
b0 G"
b1010000000000 F"
b110000000000000000000000000000000000000 ?"
b0 R"
b101000000000000 -#
1'
#150
0'
#155
b111 P"
b11111111111111111111110000000000 G"
b1100000000000 F"
b111000000000000000000000000000000000000 ?"
b0 R"
b101000000000000 -#
1'
#160
0'
#165
b1000 P"
b11111111111111111111100000000000 G"
b1110000000000 F"
b1000000000000000000000000000000000000000 ?"
b0 R"
b101000000000000 -#
1'
#170
0'
#175
b1001 P"
b11111111111111111111010000000000 G"
b10000000000000 F"
b1001000000000000000000000000000000000000 ?"
b0 R"
b101000000000000 -#
1'
#180
0'
#185
b1010 P"
b11111111111111111111000000000000 G"
b10010000000000 F"
b1010000000000000000000000000000000000000 ?"
b0 R"
b101000000000000 -#
1'
#190
0'
#195
b1011 P"
b11111111111111111110110000000000 G"
b10100000000000 F"
b1011000000000000000000000000000000000000 ?"
b0 R"
b101000000000000 -#
1'
#200
0'
#205
b1100 P"
b11111111111111111110100000000000 G"
b10110000000000 F"
b1100000000000000000000000000000000000000 ?"
b0 R"
b101000000000000 -#
1'
#210
0'
#215
b1101 P"
b11111111111111111110010000000000 G"
b11000000000000 F"
b1101000000000000000000000000000000000000 ?"
b0 R"
b101000000000000 -#
1'
#220
0'
#225
b1110 P"
b11111111111111111110000000000000 G"
b11010000000000 F"
b1110000000000000000000000000000000000000 ?"
b0 R"
b101000000000000 -#
1'
#230
0'
#235
b1111 P"
b11111111111111111101110000000000 G"
b11100000000000 F"
b1111000000000000000000000000000000000000 ?"
b0 R"
b101000000000000 -#
1'
#240
0'
#245
b10000 P"
b0 H"
b1010000000000 G"
b11111111111111111111110000000000 F"
b100000000000000000000 ?"
b10000000000 S"
b0 U"
b101000000000000 -#
1'
#250
0'
#255
b10001 P"
b1000000000000 G"
b0 F"
b1000000000000000100000000000000000000 ?"
b0 R"
b101000000000000 -#
1'
#260
0'
#265
b10010 P"
b110000000000 G"
b10000000000 F"
b10000000000000000100000000000000000000 ?"
b0 R"
b101000000000000 -#
1'
#270
0'
#275
b10011 P"
b100000000000 G"
b100000000000 F"
b11000000000000000100000000000000000000 ?"
b0 R"
b101000000000000 -#
1'
#280
0'
#285
b10100 P"
b10000000000 G"
b110000000000 F"
b100000000000000000100000000000000000000 ?"
b0 R"
b101000000000000 -#
1'
#290
0'
#295
b10101 P"
b0 G"
b1000000000000 F"
b101000000000000000100000000000000000000 ?"
b0 R"
b101000000000000 -#
1'
#300
0'
#305
b10110 P"
b11111111111111111111110000000000 G"
b1010000000000 F"
b110000000000000000100000000000000000000 ?"
b0 R"
b101000000000000 -#
1'
#310
0'
#315
b10111 P"
b11111111111111111111100000000000 G"
b1100000000000 F"
b111000000000000000100000000000000000000 ?"
b0 R"
b101000000000000 -#
1'
#320
0'
#325
b11000 P"
b11111111111111111111010000000000 G"
b1110000000000 F"
b1000000000000000000100000000000000000000 ?"
b0 R"
b101000000000000 -#
1'
#330
0'
#335
b11001 P"
b11111111111111111111000000000000 G"
b10000000000000 F"
b1001000000000000000100000000000000000000 ?"
b0 R"
b101000000000000 -#
1'
#340
0'
#345
b11010 P"
b11111111111111111110110000000000 G"
b10010000000000 F"
b1010000000000000000100000000000000000000 ?"
b0 R"
b101000000000000 -#
1'
#350
0'
#355
b11011 P"
b11111111111111111110100000000000 G"
b10100000000000 F"
b1011000000000000000100000000000000000000 ?"
b0 R"
b101000000000000 -#
1'
#360
0'
#365
b11100 P"
b11111111111111111110010000000000 G"
b10110000000000 F"
b1100000000000000000100000000000000000000 ?"
b0 R"
b101000000000000 -#
1'
#370
0'
#375
b11101 P"
b11111111111111111110000000000000 G"
b11000000000000 F"
b1101000000000000000100000000000000000000 ?"
b0 R"
b101000000000000 -#
1'
#380
0'
#385
b11110 P"
b11111111111111111101110000000000 G"
b11010000000000 F"
b1110000000000000000100000000000000000000 ?"
b0 R"
b101000000000000 -#
1'
#390
0'
#395
b11111 P"
b11111111111111111101100000000000 G"
b11100000000000 F"
b1111000000000000000100000000000000000000 ?"
b0 R"
b101000000000000 -#
1'
#400
0'
#405
b100000 P"
b10000000000 H"
b1000000000000 G"
b11111111111111111111110000000000 F"
b1000000000000000000000 ?"
b10000000000 S"
b101000000000000 -#
1'
#410
0'
#415
b100001 P"
b110000000000 G"
b0 F"
b1000000000000001000000000000000000000 ?"
b0 R"
b101000000000000 -#
1'
#420
0'
#425
b100010 P"
b100000000000 G"
b10000000000 F"
b10000000000000001000000000000000000000 ?"
b0 R"
b101000000000000 -#
1'
#430
0'
#435
b100011 P"
b10000000000 G"
b100000000000 F"
b11000000000000001000000000000000000000 ?"
b0 R"
b101000000000000 -#
1'
#440
0'
#445
b100100 P"
b0 G"
b110000000000 F"
b100000000000000001000000000000000000000 ?"
b0 R"
b101000000000000 -#
1'
#450
0'
#455
b100101 P"
b11111111111111111111110000000000 G"
b1000000000000 F"
b101000000000000001000000000000000000000 ?"
b0 R"
b101000000000000 -#
1'
#460
0'
#465
b100110 P"
b11111111111111111111100000000000 G"
b1010000000000 F"
b110000000000000001000000000000000000000 ?"
b0 R"
b101000000000000 -#
1'
#470
0'
#475
b100111 P"
b11111111111111111111010000000000 G"
b1100000000000 F"
b111000000000000001000000000000000000000 ?"
b0 R"
b101000000000000 -#
1'
#480
0'
#485
b101000 P"
b11111111111111111111000000000000 G"
b1110000000000 F"
b1000000000000000001000000000000000000000 ?"
b0 R"
b101000000000000 -#
1'
#490
0'
#495
b101001 P"
b11111111111111111110110000000000 G"
b10000000000000 F"
b1001000000000000001000000000000000000000 ?"
b0 R"
b101000000000000 -#
1'
#500
0'
#505
b101010 P"
b11111111111111111110100000000000 G"
b10010000000000 F"
b1010000000000000001000000000000000000000 ?"
b0 R"
b101000000000000 -#
1'
#510
0'
#515
b101011 P"
b11111111111111111110010000000000 G"
b10100000000000 F"
b1011000000000000001000000000000000000000 ?"
b0 R"
b101000000000000 -#
1'
#520
0'
#525
b101100 P"
b11111111111111111110000000000000 G"
b10110000000000 F"
b1100000000000000001000000000000000000000 ?"
b0 R"
b101000000000000 -#
1'
#530
0'
#535
b101101 P"
b11111111111111111101110000000000 G"
b11000000000000 F"
b1101000000000000001000000000000000000000 ?"
b0 R"
b101000000000000 -#
1'
#540
0'
#545
b101110 P"
b11111111111111111101100000000000 G"
b11010000000000 F"
b1110000000000000001000000000000000000000 ?"
b0 R"
b101000000000000 -#
1'
#550
0'
#555
b101111 P"
b11111111111111111101010000000000 G"
b11100000000000 F"
b1111000000000000001000000000000000000000 ?"
b0 R"
b101000000000000 -#
1'
#560
0'
#565
b110000 P"
b100000000000 H"
b110000000000 G"
b11111111111111111111110000000000 F"
b1100000000000000000000 ?"
b10000000000 S"
b101000000000000 -#
1'
#570
0'
#575
b110001 P"
b100000000000 G"
b0 F"
b1000000000000001100000000000000000000 ?"
b0 R"
b101000000000000 -#
1'
#580
0'
#585
b110010 P"
b10000000000 G"
b10000000000 F"
b10000000000000001100000000000000000000 ?"
b0 R"
b101000000000000 -#
1'
#590
0'
#595
b110011 P"
b0 G"
b100000000000 F"
b11000000000000001100000000000000000000 ?"
b0 R"
b101000000000000 -#
1'
#600
0'
#605
b110100 P"
b11111111111111111111110000000000 G"
b110000000000 F"
b100000000000000001100000000000000000000 ?"
b0 R"
b101000000000000 -#
1'
#610
0'
