tests/tb_raster/tb_raster.vcd
$version Generated by VerilatedVcd $end
$timescale 1ps $end
 $scope module $rootio $end
 $upscope $end
 $scope module tb_raster $end
  $var wire 1 7! clk $end
  $var wire 1 # rst_n $end
  $var wire 1 $ rdy_out $end
  $var wire 1 % vld_in $end
  $scope module v0 $end
   $var wire 16 & x [15:0] $end
   $var wire 16 ' y [15:0] $end
   $var wire 16 ( z [15:0] $end
  $upscope $end
  $scope module v1 $end
   $var wire 16 ) x [15:0] $end
   $var wire 16 * y [15:0] $end
   $var wire 16 + z [15:0] $end
  $upscope $end
  $scope module v2 $end
   $var wire 16 , x [15:0] $end
   $var wire 16 - y [15:0] $end
   $var wire 16 . z [15:0] $end
  $upscope $end
  $scope module in_metadata $end
   $var wire 8 / color [7:0] $end
   $var wire 5 0 tile_y [4:0] $end
   $var wire 6 1 tile_x [5:0] $end
  $upscope $end
  $var wire 1 S rdy_in $end
  $var wire 1 T vld_out $end
  $scope module out_abs_pos $end
   $var wire 16 U x [15:0] $end
   $var wire 16 V y [15:0] $end
   $var wire 16 W z [15:0] $end
  $upscope $end
  $scope module out_delta_0 $end
   $var wire 16 X x [15:0] $end
   $var wire 16 Y y [15:0] $end
   $var wire 16 Z z [15:0] $end
  $upscope $end
  $scope module out_delta_1 $end
   $var wire 16 [ x [15:0] $end
   $var wire 16 \ y [15:0] $end
   $var wire 16 ] z [15:0] $end
  $upscope $end
  $scope module out_delta_2 $end
   $var wire 16 ^ x [15:0] $end
   $var wire 16 _ y [15:0] $end
   $var wire 16 ` z [15:0] $end
  $upscope $end
  $var wire 32 a out_edge_0 [31:0] $end
  $var wire 32 b out_edge_1 [31:0] $end
  $var wire 32 c out_edge_2 [31:0] $end
  $scope module out_metadata $end
   $var wire 8 d color [7:0] $end
   $var wire 5 e tile_y [4:0] $end
   $var wire 6 f tile_x [5:0] $end
  $upscope $end
  $var wire 16 g out_dzdx [15:0] $end
  $var wire 16 h out_dzdy [15:0] $end
  $var wire 32 i out_z_current [31:0] $end
  $var wire 32 9! CLK_PERIOD [31:0] $end
  $scope module tile_proc $end
   $var wire 1 7! clk $end
   $var wire 1 # rst_n $end
   $var wire 1 $ rdy_out $end
   $var wire 1 % vld_in $end
   $scope module v0 $end
    $var wire 16 & x [15:0] $end
    $var wire 16 ' y [15:0] $end
    $var wire 16 ( z [15:0] $end
   $upscope $end
   $scope module v1 $end
    $var wire 16 ) x [15:0] $end
    $var wire 16 * y [15:0] $end
    $var wire 16 + z [15:0] $end
   $upscope $end
   $scope module v2 $end
    $var wire 16 , x [15:0] $end
    $var wire 16 - y [15:0] $end
    $var wire 16 . z [15:0] $end
   $upscope $end
   $scope module in_metadata $end
    $var wire 8 / color [7:0] $end
    $var wire 5 0 tile_y [4:0] $end
    $var wire 6 1 tile_x [5:0] $end
   $upscope $end
   $var wire 1 S rdy_in $end
   $var wire 1 T vld_out $end
   $scope module out_abs_pos $end
    $var wire 16 U x [15:0] $end
    $var wire 16 V y [15:0] $end
    $var wire 16 W z [15:0] $end
   $upscope $end
   $scope module out_delta_0 $end
    $var wire 16 X x [15:0] $end
    $var wire 16 Y y [15:0] $end
    $var wire 16 Z z [15:0] $end
   $upscope $end
   $scope module out_delta_1 $end
    $var wire 16 [ x [15:0] $end
    $var wire 16 \ y [15:0] $end
    $var wire 16 ] z [15:0] $end
   $upscope $end
   $scope module out_delta_2 $end
    $var wire 16 ^ x [15:0] $end
    $var wire 16 _ y [15:0] $end
    $var wire 16 ` z [15:0] $end
   $upscope $end
   $var wire 32 a out_edge_0 [31:0] $end
   $var wire 32 b out_edge_1 [31:0] $end
   $var wire 32 c out_edge_2 [31:0] $end
   $scope module out_metadata $end
    $var wire 8 d color [7:0] $end
    $var wire 5 e tile_y [4:0] $end
    $var wire 6 f tile_x [5:0] $end
   $upscope $end
   $var wire 16 g out_dzdx [15:0] $end
   $var wire 16 h out_dzdy [15:0] $end
   $var wire 32 i out_z_current [31:0] $end
   $var wire 32 j present_state [31:0] $end
   $var wire 32 8! next_state [31:0] $end
   $scope module v[0] $end
    $var wire 16 2 x [15:0] $end
    $var wire 16 3 y [15:0] $end
    $var wire 16 4 z [15:0] $end
   $upscope $end
   $scope module v[1] $end
    $var wire 16 5 x [15:0] $end
    $var wire 16 6 y [15:0] $end
    $var wire 16 7 z [15:0] $end
   $upscope $end
   $scope module v[2] $end
    $var wire 16 8 x [15:0] $end
    $var wire 16 9 y [15:0] $end
    $var wire 16 : z [15:0] $end
   $upscope $end
   $scope module rotated_v[0] $end
    $var wire 16 ; x [15:0] $end
    $var wire 16 < y [15:0] $end
    $var wire 16 = z [15:0] $end
   $upscope $end
   $scope module rotated_v[1] $end
    $var wire 16 > x [15:0] $end
    $var wire 16 ? y [15:0] $end
    $var wire 16 @ z [15:0] $end
   $upscope $end
   $scope module rotated_v[2] $end
    $var wire 16 A x [15:0] $end
    $var wire 16 B y [15:0] $end
    $var wire 16 C z [15:0] $end
   $upscope $end
   $scope module temp_start $end
    $var wire 16 D x [15:0] $end
    $var wire 16 E y [15:0] $end
    $var wire 16 F z [15:0] $end
   $upscope $end
   $scope module temp_deltas[0] $end
    $var wire 16 G x [15:0] $end
    $var wire 16 H y [15:0] $end
    $var wire 16 I z [15:0] $end
   $upscope $end
   $scope module temp_deltas[1] $end
    $var wire 16 J x [15:0] $end
    $var wire 16 K y [15:0] $end
    $var wire 16 L z [15:0] $end
   $upscope $end
   $scope module temp_deltas[2] $end
    $var wire 16 M x [15:0] $end
    $var wire 16 N y [15:0] $end
    $var wire 16 O z [15:0] $end
   $upscope $end
   $scope module abs_pos $end
    $var wire 16 k x [15:0] $end
    $var wire 16 l y [15:0] $end
    $var wire 16 m z [15:0] $end
   $upscope $end
   $scope module deltas[0] $end
    $var wire 16 n x [15:0] $end
    $var wire 16 o y [15:0] $end
    $var wire 16 p z [15:0] $end
   $upscope $end
   $scope module deltas[1] $end
    $var wire 16 q x [15:0] $end
    $var wire 16 r y [15:0] $end
    $var wire 16 s z [15:0] $end
   $upscope $end
   $scope module deltas[2] $end
    $var wire 16 t x [15:0] $end
    $var wire 16 u y [15:0] $end
    $var wire 16 v z [15:0] $end
   $upscope $end
   $var wire 32 w edges[0] [31:0] $end
   $var wire 32 x edges[1] [31:0] $end
   $var wire 32 y edges[2] [31:0] $end
   $scope module metadata $end
    $var wire 8 z color [7:0] $end
    $var wire 5 { tile_y [4:0] $end
    $var wire 6 | tile_x [5:0] $end
   $upscope $end
   $var wire 32 } coeff_A [31:0] $end
   $var wire 32 ~ coeff_B [31:0] $end
   $var wire 32 !! coeff_C [31:0] $end
   $var wire 16 "! dzdx [15:0] $end
   $var wire 16 #! dzdy [15:0] $end
   $var wire 32 $! z_current [31:0] $end
   $scope module tile_to_coord__Vstatic__out $end
    $var wire 16 P x [15:0] $end
    $var wire 16 Q y [15:0] $end
    $var wire 16 R z [15:0] $end
   $upscope $end
   $var wire 16 %! compute_edge__Vstatic__temp_x_sub [15:0] $end
   $var wire 16 &! compute_edge__Vstatic__temp_y_sub [15:0] $end
   $var wire 32 '! compute_edge__Vstatic__temp_x_mult [31:0] $end
   $var wire 32 (! compute_edge__Vstatic__temp_y_mult [31:0] $end
   $var wire 32 )! compute_plane_coeff_a__Vstatic__temp_y0z2_mult [31:0] $end
   $var wire 32 *! compute_plane_coeff_a__Vstatic__temp_z0y2_mult [31:0] $end
   $var wire 32 +! compute_plane_coeff_b__Vstatic__temp_z0x2_mult [31:0] $end
   $var wire 32 ,! compute_plane_coeff_b__Vstatic__temp_x0z2_mult [31:0] $end
   $var wire 32 -! compute_plane_coeff_c__Vstatic__temp_x0y2_mult [31:0] $end
   $var wire 32 .! compute_plane_coeff_c__Vstatic__temp_y0x2mult [31:0] $end
   $var wire 32 /! scale_dz__Vstatic__div_result_dz [31:0] $end
   $var wire 16 0! compute_z__Vstatic__delta_x [15:0] $end
   $var wire 16 1! compute_z__Vstatic__delta_y [15:0] $end
   $var wire 32 2! compute_z__Vstatic__x_component [31:0] $end
   $var wire 32 3! compute_z__Vstatic__y_component [31:0] $end
   $var wire 32 4! compute_z__Vstatic__z_component [31:0] $end
   $scope module unnamedblk1 $end
    $var wire 32 5! i [31:0] $end
   $upscope $end
   $scope module unnamedblk2 $end
    $var wire 32 6! i [31:0] $end
   $upscope $end
  $upscope $end
 $upscope $end
$enddefinitions $end


#0
0#
0$
0%
b0000000000000000 &
b0000000000000000 '
b0000000000000000 (
b0000000000000000 )
b0000000000000000 *
b0000000000000000 +
b0000000000000000 ,
b0000000000000000 -
b0000000000000000 .
b00000000 /
b00000 0
b000000 1
b0000000000000000 2
b0000000000000000 3
b0000000000000000 4
b0000000000000000 5
b0000000000000000 6
b0000000000000000 7
b0000000000000000 8
b0000000000000000 9
b0000000000000000 :
b0000000000000000 ;
b0000000000000000 <
b0000000000000000 =
b0000000000000000 >
b0000000000000000 ?
b0000000000000000 @
b0000000000000000 A
b0000000000000000 B
b0000000000000000 C
b0000000000000000 D
b0000000000000000 E
b0000000000000000 F
b0000000000000000 G
b0000000000000000 H
b0000000000000000 I
b0000000000000000 J
b0000000000000000 K
b0000000000000000 L
b0000000000000000 M
b0000000000000000 N
b0000000000000000 O
b0000000000000000 P
b0000000000000000 Q
b0000000000000000 R
0S
0T
b0000000000000000 U
b0000000000000000 V
b0000000000000000 W
b0000000000000000 X
b0000000000000000 Y
b0000000000000000 Z
b0000000000000000 [
b0000000000000000 \
b0000000000000000 ]
b0000000000000000 ^
b0000000000000000 _
b0000000000000000 `
b00000000000000000000000000000000 a
b00000000000000000000000000000000 b
b00000000000000000000000000000000 c
b00000000 d
b00000 e
b000000 f
b0000000000000000 g
b0000000000000000 h
b00000000000000000000000000000000 i
b00000000000000000000000000000000 j
b0000000000000000 k
b0000000000000000 l
b0000000000000000 m
b0000000000000000 n
b0000000000000000 o
b0000000000000000 p
b0000000000000000 q
b0000000000000000 r
b0000000000000000 s
b0000000000000000 t
b0000000000000000 u
b0000000000000000 v
b00000000000000000000000000000000 w
b00000000000000000000000000000000 x
b00000000000000000000000000000000 y
b00000000 z
b00000 {
b000000 |
b00000000000000000000000000000000 }
b00000000000000000000000000000000 ~
b00000000000000000000000000000000 !!
b0000000000000000 "!
b0000000000000000 #!
b00000000000000000000000000000000 $!
b0000000000000000 %!
b0000000000000000 &!
b00000000000000000000000000000000 '!
b00000000000000000000000000000000 (!
b00000000000000000000000000000000 )!
b00000000000000000000000000000000 *!
b00000000000000000000000000000000 +!
b00000000000000000000000000000000 ,!
b00000000000000000000000000000000 -!
b00000000000000000000000000000000 .!
b00000000000000000000000000000000 /!
b0000000000000000 0!
b0000000000000000 1!
b00000000000000000000000000000000 2!
b00000000000000000000000000000000 3!
b00000000000000000000000000000000 4!
b00000000000000000000000000000000 5!
b00000000000000000000000000000000 6!
07!
b00000000000000000000000000000000 8!
b00000000000000000000000000001010 9!
#5000
1S
17!
#10000
07!
#15000
1#
1%
b0000000000010000 &
b0000000011100000 '
b0010000000000000 (
b0000000001110000 )
b0000000000100000 *
b0010000000000000 +
b0000000011000000 ,
b0000000011110000 -
b0010000000000000 .
b00000001 /
b0000000000010000 2
b0000000011100000 3
b0010000000000000 4
b0000000001110000 5
b0000000000100000 6
b0010000000000000 7
b0000000011000000 8
b0000000011110000 9
b0010000000000000 :
b0000000001110000 ;
b0000000000100000 <
b0010000000000000 =
b0000000011000000 >
b0000000011110000 ?
b0010000000000000 @
b0000000000010000 A
b0000000011100000 B
b0010000000000000 C
b0000000001100000 G
b1111111101000000 H
b0000000001010000 J
b0000000011010000 K
b1111111101010000 M
b1111111111110000 N
0S
b00000000000000000000000000000001 j
b0000000001100000 n
b1111111101000000 o
b0000000001010000 q
b0000000011010000 r
b1111111101010000 t
b1111111111110000 u
b00000000000000000110000000000000 w
b11111111111111111010111100000000 x
b11111111111111110110011100000000 y
b00000001 z
b1111111101000000 %!
b1111111100010000 &!
b00000000000000000000110000000000 '!
b00000000000000001010010100000000 (!
b00000000000000000000000000000011 5!
b00000000000000000000000000000011 6!
17!
b00000000000000000000000000000010 8!
#20000
0%
07!
#25000
b00000000000000000000000000000010 j
b11111111111111110111011000000000 !!
b11111111111111111111101000000000 -!
b00000000000000001000010000000000 .!
17!
b00000000000000000000000000000011 8!
#30000
07!
#35000
b00000000000000000000000000000011 j
17!
b00000000000000000000000000000100 8!
#40000
07!
#45000
b00000000000000000000000000000100 j
b00000000000000100000000000000000 $!
b0000000000010000 0!
b0000000011100000 1!
b00000000000000100000000000000000 4!
17!
b00000000000000000000000000000101 8!
#50000
07!
#55000
1$
1T
b0000000001100000 X
b1111111101000000 Y
b0000000001010000 [
b0000000011010000 \
b1111111101010000 ^
b1111111111110000 _
b00000000000000000110000000000000 a
b11111111111111111010111100000000 b
b11111111111111110110011100000000 c
b00000001 d
b00000000000000100000000000000000 i
b00000000000000000000000000000101 j
17!
b00000000000000000000000000000000 8!
#60000
07!
#65000
0$
1S
0T
b00000000000000000000000000000000 j
17!
#70000
1%
b0000000000010000 '
b0001000000000000 (
b0000000101000000 )
b0000000000010000 *
b0100000000000000 +
b0000000000010000 ,
b0000000000100000 -
b0001000000000000 .
b0000000000010000 3
b0001000000000000 4
b0000000101000000 5
b0000000000010000 6
b0100000000000000 7
b0000000000010000 8
b0000000000100000 9
b0001000000000000 :
b0000000101000000 ;
b0000000000010000 <
b0100000000000000 =
b0000000000010000 >
b0000000000100000 ?
b0001000000000000 @
b0000000000010000 B
b0001000000000000 C
b0000000100110000 G
b0000000000000000 H
b0011000000000000 I
b1111111011010000 J
b0000000000010000 K
b1101000000000000 L
b0000000000000000 M
07!
b00000000000000000000000000000001 8!
#75000
0S
b00000000000000000000000000000001 j
b0000000100110000 n
b0000000000000000 o
b0011000000000000 p
b1111111011010000 q
b0000000000010000 r
b1101000000000000 s
b0000000000000000 t
b00000000000000000001001100000000 w
b11111111111111111101100100000000 x
b00000000000000000000000100000000 y
b1111111111110000 %!
b1111111111100000 &!
b00000000000000000000000100000000 '!
b00000000000000000000000000000000 (!
17!
b00000000000000000000000000000010 8!
#80000
0%
07!
#85000
b00000000000000000000000000000010 j
b00000000000000110000000000000000 }
b11111111111111111110110100000000 !!
b11111111111111010000000000000000 *!
b11111111111111111110110100000000 -!
b00000000000000000000000000000000 .!
17!
b00000000000000000000000000000011 8!
#90000
07!
#95000
b00000000000000000000000000000011 j
b0000000000000010 "!
17!
b00000000000000000000000000000100 8!
#100000
07!
#105000
b00000000000000000000000000000100 j
b00000000000000010000000000100000 $!
b0000000000010000 1!
b00000000000000000000000000100000 2!
b00000000000000010000000000000000 4!
17!
b00000000000000000000000000000101 8!
#110000
07!
#115000
1$
1T
b0000000100110000 X
b0000000000000000 Y
b0011000000000000 Z
b1111111011010000 [
b0000000000010000 \
b1101000000000000 ]
b0000000000000000 ^
b00000000000000000001001100000000 a
b11111111111111111101100100000000 b
b00000000000000000000000100000000 c
b0000000000000010 g
b00000000000000010000000000100000 i
b00000000000000000000000000000101 j
17!
b00000000000000000000000000000000 8!
#120000
07!
#125000
0$
1S
0T
b00000000000000000000000000000000 j
17!
#130000
1%
b0000000000100000 )
b0001000000000000 +
b0000000101000000 -
b0100000000000000 .
b0000000000100000 5
b0001000000000000 7
b0000000101000000 9
b0100000000000000 :
b0000000000100000 ;
b0001000000000000 =
b0000000101000000 ?
b0100000000000000 @
b0000000000010000 G
b0000000000000000 I
b1111111111110000 J
b0000000100110000 K
b0011000000000000 L
b1111111011010000 N
b1101000000000000 O
07!
b00000000000000000000000000000001 8!
#135000
0S
b00000000000000000000000000000001 j
b0000000000010000 n
b0000000000000000 p
b1111111111110000 q
b0000000100110000 r
b0011000000000000 s
b1111111011010000 u
b1101000000000000 v
b00000000000000000000000100000000 w
b00000000000000000001001100000000 y
b1111111011000000 &!
b00000000000000000001001100000000 '!
17!
b00000000000000000000000000000010 8!
#140000
0%
07!
#145000
b00000000000000000000000000000010 j
b00000000000000000000000000000000 }
b00000000000000110000000000000000 ~
b00000000000000000000000000000000 *!
b11111111111111010000000000000000 ,!
17!
b00000000000000000000000000000011 8!
#150000
07!
#155000
b00000000000000000000000000000011 j
b0000000000000000 "!
b0000000000000010 #!
b00000000000000000000000000101000 /!
17!
b00000000000000000000000000000100 8!
#160000
07!
#165000
b00000000000000000000000000000100 j
b00000000000000000000000000000000 2!
b00000000000000000000000000100000 3!
17!
b00000000000000000000000000000101 8!
#170000
07!
#175000
1$
1T
b0000000000010000 X
b0000000000000000 Z
b1111111111110000 [
b0000000100110000 \
b0011000000000000 ]
b1111111011010000 _
b1101000000000000 `
b00000000000000000000000100000000 a
b00000000000000000001001100000000 c
b0000000000000000 g
b0000000000000010 h
b00000000000000000000000000000101 j
17!
b00000000000000000000000000000000 8!
#180000
07!
#185000
0$
1S
0T
b00000000000000000000000000000000 j
17!
