tests/tb_raster/tb_tile.vcd
$version Generated by VerilatedVcd $end
$timescale 1ps $end
 $scope module $rootio $end
 $upscope $end
 $scope module tb_tile $end
  $var wire 1 A! clk $end
  $var wire 1 # rst_n $end
  $var wire 1 $ rdy_out $end
  $var wire 1 % vld_in $end
  $scope module v0 $end
   $var wire 16 & x [15:0] $end
   $var wire 16 ' y [15:0] $end
   $var wire 16 ( z [15:0] $end
  $upscope $end
  $scope module v1 $end
   $var wire 16 ) x [15:0] $end
   $var wire 16 * y [15:0] $end
   $var wire 16 + z [15:0] $end
  $upscope $end
  $scope module v2 $end
   $var wire 16 , x [15:0] $end
   $var wire 16 - y [15:0] $end
   $var wire 16 . z [15:0] $end
  $upscope $end
  $scope module in_metadata $end
   $var wire 8 / color [7:0] $end
   $var wire 6 0 tile_x [5:0] $end
   $var wire 5 1 tile_y [4:0] $end
  $upscope $end
  $var wire 1 \ rdy_in $end
  $var wire 1 ] vld_out $end
  $scope module out_abs_pos $end
   $var wire 16 ^ x [15:0] $end
   $var wire 16 _ y [15:0] $end
   $var wire 16 ` z [15:0] $end
  $upscope $end
  $scope module out_delta_0 $end
   $var wire 16 a x [15:0] $end
   $var wire 16 b y [15:0] $end
   $var wire 16 c z [15:0] $end
  $upscope $end
  $scope module out_delta_1 $end
   $var wire 16 d x [15:0] $end
   $var wire 16 e y [15:0] $end
   $var wire 16 f z [15:0] $end
  $upscope $end
  $scope module out_delta_2 $end
   $var wire 16 g x [15:0] $end
   $var wire 16 h y [15:0] $end
   $var wire 16 i z [15:0] $end
  $upscope $end
  $var wire 32 j out_edge_0 [31:0] $end
  $var wire 32 k out_edge_1 [31:0] $end
  $var wire 32 l out_edge_2 [31:0] $end
  $scope module out_metadata $end
   $var wire 8 m color [7:0] $end
   $var wire 6 n tile_x [5:0] $end
   $var wire 5 o tile_y [4:0] $end
  $upscope $end
  $var wire 16 p out_dzdx [15:0] $end
  $var wire 16 q out_dzdy [15:0] $end
  $var wire 32 r out_z_current [31:0] $end
  $var wire 32 C! PERIOD [31:0] $end
  $scope module make_coord__Vstatic__point $end
   $var wire 16 2 x [15:0] $end
   $var wire 16 3 y [15:0] $end
   $var wire 16 4 z [15:0] $end
  $upscope $end
  $scope module make_meta__Vstatic__meta $end
   $var wire 8 5 color [7:0] $end
   $var wire 6 6 tile_x [5:0] $end
   $var wire 5 7 tile_y [4:0] $end
  $upscope $end
  $scope module tile_proc $end
   $var wire 1 A! clk $end
   $var wire 1 # rst_n $end
   $var wire 1 $ rdy_out $end
   $var wire 1 % vld_in $end
   $scope module v0 $end
    $var wire 16 & x [15:0] $end
    $var wire 16 ' y [15:0] $end
    $var wire 16 ( z [15:0] $end
   $upscope $end
   $scope module v1 $end
    $var wire 16 ) x [15:0] $end
    $var wire 16 * y [15:0] $end
    $var wire 16 + z [15:0] $end
   $upscope $end
   $scope module v2 $end
    $var wire 16 , x [15:0] $end
    $var wire 16 - y [15:0] $end
    $var wire 16 . z [15:0] $end
   $upscope $end
   $scope module in_metadata $end
    $var wire 8 / color [7:0] $end
    $var wire 6 0 tile_x [5:0] $end
    $var wire 5 1 tile_y [4:0] $end
   $upscope $end
   $var wire 1 \ rdy_in $end
   $var wire 1 ] vld_out $end
   $scope module out_abs_pos $end
    $var wire 16 ^ x [15:0] $end
    $var wire 16 _ y [15:0] $end
    $var wire 16 ` z [15:0] $end
   $upscope $end
   $scope module out_delta_0 $end
    $var wire 16 a x [15:0] $end
    $var wire 16 b y [15:0] $end
    $var wire 16 c z [15:0] $end
   $upscope $end
   $scope module out_delta_1 $end
    $var wire 16 d x [15:0] $end
    $var wire 16 e y [15:0] $end
    $var wire 16 f z [15:0] $end
   $upscope $end
   $scope module out_delta_2 $end
    $var wire 16 g x [15:0] $end
    $var wire 16 h y [15:0] $end
    $var wire 16 i z [15:0] $end
   $upscope $end
   $var wire 32 j out_edge_0 [31:0] $end
   $var wire 32 k out_edge_1 [31:0] $end
   $var wire 32 l out_edge_2 [31:0] $end
   $scope module out_metadata $end
    $var wire 8 m color [7:0] $end
    $var wire 6 n tile_x [5:0] $end
    $var wire 5 o tile_y [4:0] $end
   $upscope $end
   $var wire 16 p out_dzdx [15:0] $end
   $var wire 16 q out_dzdy [15:0] $end
   $var wire 32 r out_z_current [31:0] $end
   $var wire 32 s present_state [31:0] $end
   $var wire 32 B! next_state [31:0] $end
   $scope module v[0] $end
    $var wire 16 8 x [15:0] $end
    $var wire 16 9 y [15:0] $end
    $var wire 16 : z [15:0] $end
   $upscope $end
   $scope module v[1] $end
    $var wire 16 ; x [15:0] $end
    $var wire 16 < y [15:0] $end
    $var wire 16 = z [15:0] $end
   $upscope $end
   $scope module v[2] $end
    $var wire 16 > x [15:0] $end
    $var wire 16 ? y [15:0] $end
    $var wire 16 @ z [15:0] $end
   $upscope $end
   $scope module rotated_v[0] $end
    $var wire 16 A x [15:0] $end
    $var wire 16 B y [15:0] $end
    $var wire 16 C z [15:0] $end
   $upscope $end
   $scope module rotated_v[1] $end
    $var wire 16 D x [15:0] $end
    $var wire 16 E y [15:0] $end
    $var wire 16 F z [15:0] $end
   $upscope $end
   $scope module rotated_v[2] $end
    $var wire 16 G x [15:0] $end
    $var wire 16 H y [15:0] $end
    $var wire 16 I z [15:0] $end
   $upscope $end
   $scope module temp_start $end
    $var wire 16 J x [15:0] $end
    $var wire 16 K y [15:0] $end
    $var wire 16 L z [15:0] $end
   $upscope $end
   $scope module temp_deltas[0] $end
    $var wire 16 M x [15:0] $end
    $var wire 16 N y [15:0] $end
    $var wire 16 O z [15:0] $end
   $upscope $end
   $scope module temp_deltas[1] $end
    $var wire 16 P x [15:0] $end
    $var wire 16 Q y [15:0] $end
    $var wire 16 R z [15:0] $end
   $upscope $end
   $scope module temp_deltas[2] $end
    $var wire 16 S x [15:0] $end
    $var wire 16 T y [15:0] $end
    $var wire 16 U z [15:0] $end
   $upscope $end
   $scope module zero $end
    $var wire 16 D! x [15:0] $end
    $var wire 16 D! y [15:0] $end
    $var wire 16 D! z [15:0] $end
   $upscope $end
   $scope module abs_pos $end
    $var wire 16 t x [15:0] $end
    $var wire 16 u y [15:0] $end
    $var wire 16 v z [15:0] $end
   $upscope $end
   $scope module deltas[0] $end
    $var wire 16 w x [15:0] $end
    $var wire 16 x y [15:0] $end
    $var wire 16 y z [15:0] $end
   $upscope $end
   $scope module deltas[1] $end
    $var wire 16 z x [15:0] $end
    $var wire 16 { y [15:0] $end
    $var wire 16 | z [15:0] $end
   $upscope $end
   $scope module deltas[2] $end
    $var wire 16 } x [15:0] $end
    $var wire 16 ~ y [15:0] $end
    $var wire 16 !! z [15:0] $end
   $upscope $end
   $var wire 32 "! edges[0] [31:0] $end
   $var wire 32 #! edges[1] [31:0] $end
   $var wire 32 $! edges[2] [31:0] $end
   $scope module metadata $end
    $var wire 8 %! color [7:0] $end
    $var wire 6 &! tile_x [5:0] $end
    $var wire 5 '! tile_y [4:0] $end
   $upscope $end
   $var wire 32 (! coeff_A [31:0] $end
   $var wire 32 )! coeff_B [31:0] $end
   $var wire 32 *! coeff_C [31:0] $end
   $var wire 16 +! dzdx [15:0] $end
   $var wire 16 ,! dzdy [15:0] $end
   $var wire 32 -! z_current [31:0] $end
   $scope module tile_to_coord__Vstatic__out $end
    $var wire 16 V x [15:0] $end
    $var wire 16 W y [15:0] $end
    $var wire 16 X z [15:0] $end
   $upscope $end
   $scope module compute_delta__Vstatic__out $end
    $var wire 16 Y x [15:0] $end
    $var wire 16 Z y [15:0] $end
    $var wire 16 [ z [15:0] $end
   $upscope $end
   $var wire 16 .! compute_edge__Vstatic__temp_x_sub [15:0] $end
   $var wire 16 /! compute_edge__Vstatic__temp_y_sub [15:0] $end
   $var wire 32 0! compute_edge__Vstatic__temp_x_mult [31:0] $end
   $var wire 32 1! compute_edge__Vstatic__temp_y_mult [31:0] $end
   $var wire 32 2! compute_plane_coeff_a__Vstatic__temp_y0z2_mult [31:0] $end
   $var wire 32 3! compute_plane_coeff_a__Vstatic__temp_z0y2_mult [31:0] $end
   $var wire 32 4! compute_plane_coeff_b__Vstatic__temp_z0x2_mult [31:0] $end
   $var wire 32 5! compute_plane_coeff_b__Vstatic__temp_x0z2_mult [31:0] $end
   $var wire 32 6! compute_plane_coeff_c__Vstatic__temp_x0y2_mult [31:0] $end
   $var wire 32 7! compute_plane_coeff_c__Vstatic__temp_y0x2_mult [31:0] $end
   $var wire 32 8! scale_dz__Vstatic__div_result_dz [31:0] $end
   $var wire 16 9! compute_z__Vstatic__delta_x [15:0] $end
   $var wire 16 :! compute_z__Vstatic__delta_y [15:0] $end
   $var wire 32 ;! compute_z__Vstatic__x_component [31:0] $end
   $var wire 32 <! compute_z__Vstatic__y_component [31:0] $end
   $var wire 32 =! compute_z__Vstatic__z_component [31:0] $end
   $scope module unnamedblk1 $end
    $var wire 32 >! i [31:0] $end
   $upscope $end
   $scope module unnamedblk2 $end
    $var wire 32 ?! i [31:0] $end
   $upscope $end
   $scope module unnamedblk3 $end
    $var wire 32 @! i [31:0] $end
   $upscope $end
  $upscope $end
 $upscope $end
$enddefinitions $end


#0
0#
0$
0%
b0000000000000000 &
b0000000000000000 '
b0000000000000000 (
b0000000000000000 )
b0000000000000000 *
b0000000000000000 +
b0000000000000000 ,
b0000000000000000 -
b0000000000000000 .
b00000000 /
b000000 0
b00000 1
b0000000000000000 2
b0000000000000000 3
b0000000000000000 4
b00000000 5
b000000 6
b00000 7
b0000000000000000 8
b0000000000000000 9
b0000000000000000 :
b0000000000000000 ;
b0000000000000000 <
b0000000000000000 =
b0000000000000000 >
b0000000000000000 ?
b0000000000000000 @
b0000000000000000 A
b0000000000000000 B
b0000000000000000 C
b0000000000000000 D
b0000000000000000 E
b0000000000000000 F
b0000000000000000 G
b0000000000000000 H
b0000000000000000 I
b0000000000000000 J
b0000000000000000 K
b0000000000000000 L
b0000000000000000 M
b0000000000000000 N
b0000000000000000 O
b0000000000000000 P
b0000000000000000 Q
b0000000000000000 R
b0000000000000000 S
b0000000000000000 T
b0000000000000000 U
b0000000000000000 V
b0000000000000000 W
b0000000000000000 X
b0000000000000000 Y
b0000000000000000 Z
b0000000000000000 [
0\
0]
b0000000000000000 ^
b0000000000000000 _
b0000000000000000 `
b0000000000000000 a
b0000000000000000 b
b0000000000000000 c
b0000000000000000 d
b0000000000000000 e
b0000000000000000 f
b0000000000000000 g
b0000000000000000 h
b0000000000000000 i
b00000000000000000000000000000000 j
b00000000000000000000000000000000 k
b00000000000000000000000000000000 l
b00000000 m
b000000 n
b00000 o
b0000000000000000 p
b0000000000000000 q
b00000000000000000000000000000000 r
b00000000000000000000000000000000 s
b0000000000000000 t
b0000000000000000 u
b0000000000000000 v
b0000000000000000 w
b0000000000000000 x
b0000000000000000 y
b0000000000000000 z
b0000000000000000 {
b0000000000000000 |
b0000000000000000 }
b0000000000000000 ~
b0000000000000000 !!
b00000000000000000000000000000000 "!
b00000000000000000000000000000000 #!
b00000000000000000000000000000000 $!
b00000000 %!
b000000 &!
b00000 '!
b00000000000000000000000000000000 (!
b00000000000000000000000000000000 )!
b00000000000000000000000000000000 *!
b0000000000000000 +!
b0000000000000000 ,!
b00000000000000000000000000000000 -!
b0000000000000000 .!
b0000000000000000 /!
b00000000000000000000000000000000 0!
b00000000000000000000000000000000 1!
b00000000000000000000000000000000 2!
b00000000000000000000000000000000 3!
b00000000000000000000000000000000 4!
b00000000000000000000000000000000 5!
b00000000000000000000000000000000 6!
b00000000000000000000000000000000 7!
b00000000000000000000000000000000 8!
b0000000000000000 9!
b0000000000000000 :!
b00000000000000000000000000000000 ;!
b00000000000000000000000000000000 <!
b00000000000000000000000000000000 =!
b00000000000000000000000000000000 >!
b00000000000000000000000000000000 ?!
b00000000000000000000000000000000 @!
0A!
b00000000000000000000000000000000 B!
b00000000000000000000000000001010 C!
b0000000000000000 D!
#5000
1\
b00000000000000000000000000000011 >!
1A!
#10000
0A!
#15000
1#
b0000000000010000 &
b0000000011100000 '
b0010000000000000 (
b0000000001110000 )
b0000000000100000 *
b0010000000000000 +
b0000000011000000 ,
b0000000011110000 -
b0010000000000000 .
b00000001 /
b0000000000010000 2
b0000000011100000 3
b0010000000000000 4
b00000001 5
b0000000000010000 8
b0000000011100000 9
b0010000000000000 :
b0000000001110000 ;
b0000000000100000 <
b0010000000000000 =
b0000000011000000 >
b0000000011110000 ?
b0010000000000000 @
b0000000001110000 A
b0000000000100000 B
b0010000000000000 C
b0000000011000000 D
b0000000011110000 E
b0010000000000000 F
b0000000000010000 G
b0000000011100000 H
b0010000000000000 I
b0000000001100000 M
b1111111101000000 N
b0000000001010000 P
b0000000011010000 Q
b1111111101010000 S
b1111111111110000 T
b1111111101010000 Y
b1111111111110000 Z
b0000000001100000 w
b1111111101000000 x
b0000000001010000 z
b0000000011010000 {
b1111111101010000 }
b1111111111110000 ~
b00000000000000000110000000000000 "!
b11111111111111111010111100000000 #!
b11111111111111110110011100000000 $!
b00000001 %!
b1111111101000000 .!
b1111111100010000 /!
b00000000000000000000110000000000 0!
b00000000000000001010010100000000 1!
b00000000000000000000000000000011 ?!
b00000000000000000000000000000011 @!
1A!
#20000
1%
0A!
b00000000000000000000000000000001 B!
#25000
0\
b00000000000000000000000000000001 s
1A!
b00000000000000000000000000000010 B!
#30000
0%
0A!
#35000
b00000000000000000000000000000010 s
b00000000000000001000101000000000 *!
b11111111111111111111101000000000 6!
b00000000000000001000010000000000 7!
1A!
b00000000000000000000000000000011 B!
#40000
0A!
#45000
b00000000000000000000000000000011 s
1A!
b00000000000000000000000000000100 B!
#50000
0A!
#55000
b00000000000000000000000000000100 s
b00000000000000100000000000000000 -!
b0000000000010000 9!
b0000000011100000 :!
b00000000000000100000000000000000 =!
1A!
b00000000000000000000000000000101 B!
#60000
0A!
#65000
1$
1]
b0000000001100000 a
b1111111101000000 b
b0000000001010000 d
b0000000011010000 e
b1111111101010000 g
b1111111111110000 h
b00000000000000000110000000000000 j
b11111111111111111010111100000000 k
b11111111111111110110011100000000 l
b00000001 m
b00000000000000100000000000000000 r
b00000000000000000000000000000101 s
1A!
b00000000000000000000000000000000 B!
#70000
0A!
#75000
0$
1\
0]
b00000000000000000000000000000000 s
1A!
#80000
b0000000000010000 '
b0001000000000000 (
b0000000101000000 )
b0000000000010000 *
b0100000000000000 +
b0000000000010000 ,
b0000000000100000 -
b0001000000000000 .
b0000000000010000 3
b0001000000000000 4
b0000000000010000 9
b0001000000000000 :
b0000000101000000 ;
b0000000000010000 <
b0100000000000000 =
b0000000000010000 >
b0000000000100000 ?
b0001000000000000 @
b0000000101000000 A
b0000000000010000 B
b0100000000000000 C
b0000000000010000 D
b0000000000100000 E
b0001000000000000 F
b0000000000010000 H
b0001000000000000 I
b0000000100110000 M
b0000000000000000 N
b0011000000000000 O
b1111111011010000 P
b0000000000010000 Q
b1101000000000000 R
b0000000000000000 S
b0000000000000000 Y
0A!
#85000
b0000000100110000 w
b0000000000000000 x
b0011000000000000 y
b1111111011010000 z
b0000000000010000 {
b1101000000000000 |
b0000000000000000 }
b00000000000000000001001100000000 "!
b11111111111111111101100100000000 #!
b00000000000000000000000100000000 $!
b1111111111110000 .!
b1111111111100000 /!
b00000000000000000000000100000000 0!
b00000000000000000000000000000000 1!
1A!
#90000
1%
0A!
b00000000000000000000000000000001 B!
#95000
0\
b00000000000000000000000000000001 s
1A!
b00000000000000000000000000000010 B!
#100000
0%
0A!
#105000
b00000000000000000000000000000010 s
b11111111111111010000000000000000 (!
b00000000000000000001001100000000 *!
b11111111111111010000000000000000 3!
b11111111111111111110110100000000 6!
b00000000000000000000000000000000 7!
1A!
b00000000000000000000000000000011 B!
#110000
0A!
#115000
b00000000000000000000000000000011 s
b0000001010000110 +!
1A!
b00000000000000000000000000000100 B!
#120000
0A!
#125000
b00000000000000000000000000000100 s
b00000000000000001101011110100000 -!
b0000000000010000 :!
b00000000000000000010100001100000 ;!
b00000000000000010000000000000000 =!
1A!
b00000000000000000000000000000101 B!
#130000
0A!
#135000
1$
1]
b0000000100110000 a
b0000000000000000 b
b0011000000000000 c
b1111111011010000 d
b0000000000010000 e
b1101000000000000 f
b0000000000000000 g
b00000000000000000001001100000000 j
b11111111111111111101100100000000 k
b00000000000000000000000100000000 l
b0000001010000110 p
b00000000000000001101011110100000 r
b00000000000000000000000000000101 s
1A!
b00000000000000000000000000000000 B!
#140000
0A!
#145000
0$
1\
0]
b00000000000000000000000000000000 s
1A!
#150000
b0000000000100000 )
b0001000000000000 +
b0000000101000000 -
b0100000000000000 .
b0000000000100000 ;
b0001000000000000 =
b0000000101000000 ?
b0100000000000000 @
b0000000000100000 A
b0001000000000000 C
b0000000101000000 E
b0100000000000000 F
b0000000000010000 M
b0000000000000000 O
b1111111111110000 P
b0000000100110000 Q
b0011000000000000 R
b1111111011010000 T
b1101000000000000 U
b1111111011010000 Z
b1101000000000000 [
0A!
#155000
b0000000000010000 w
b0000000000000000 y
b1111111111110000 z
b0000000100110000 {
b0011000000000000 |
b1111111011010000 ~
b1101000000000000 !!
b00000000000000000000000100000000 "!
b00000000000000000001001100000000 $!
b1111111011000000 /!
b00000000000000000001001100000000 0!
1A!
#160000
1%
0A!
b00000000000000000000000000000001 B!
#165000
0\
b00000000000000000000000000000001 s
1A!
b00000000000000000000000000000010 B!
#170000
0%
0A!
#175000
b00000000000000000000000000000010 s
b00000000000000000000000000000000 (!
b11111111111111010000000000000000 )!
b00000000000000000000000000000000 3!
b11111111111111010000000000000000 5!
1A!
b00000000000000000000000000000011 B!
#180000
0A!
#185000
b00000000000000000000000000000011 s
b0000000000000000 +!
b0000001010000110 ,!
b00000000000000000010100001101011 8!
1A!
b00000000000000000000000000000100 B!
#190000
0A!
#195000
b00000000000000000000000000000100 s
b00000000000000000000000000000000 ;!
b00000000000000000010100001100000 <!
1A!
b00000000000000000000000000000101 B!
#200000
0A!
#205000
1$
1]
b0000000000010000 a
b0000000000000000 c
b1111111111110000 d
b0000000100110000 e
b0011000000000000 f
b1111111011010000 h
b1101000000000000 i
b00000000000000000000000100000000 j
b00000000000000000001001100000000 l
b0000000000000000 p
b0000001010000110 q
b00000000000000000000000000000101 s
1A!
b00000000000000000000000000000000 B!
#210000
0A!
#215000
0$
1\
0]
b00000000000000000000000000000000 s
1A!
#220000
0A!
#225000
1A!
#230000
1%
0A!
b00000000000000000000000000000001 B!
#235000
0\
b00000000000000000000000000000001 s
1A!
b00000000000000000000000000000010 B!
#240000
0%
0A!
#245000
b00000000000000000000000000000010 s
1A!
b00000000000000000000000000000011 B!
#250000
0A!
#255000
b00000000000000000000000000000011 s
1A!
b00000000000000000000000000000100 B!
#260000
0A!
#265000
b00000000000000000000000000000100 s
1A!
b00000000000000000000000000000101 B!
#270000
0A!
#275000
1$
1]
b00000000000000000000000000000101 s
1A!
b00000000000000000000000000000000 B!
#280000
0A!
#285000
0$
1\
0]
b00000000000000000000000000000000 s
1A!
