tests/tb_raster/tb_tile.vcd
$date
	Sat May 10 09:56:17 2025
$end
$version
	Icarus Verilog
$end
$timescale
	1s
$end
$scope module tb_tile $end
$var wire 1 ! vld_out $end
$var wire 1 " rdy_in $end
$var wire 32 # out_z_current [31:0] $end
$var wire 5 $ out_tile_y [4:0] $end
$var wire 6 % out_tile_x [5:0] $end
$var wire 32 & out_edge_2 [31:0] $end
$var wire 32 ' out_edge_1 [31:0] $end
$var wire 32 ( out_edge_0 [31:0] $end
$var wire 16 ) out_dzdy [15:0] $end
$var wire 16 * out_dzdx [15:0] $end
$var wire 16 + out_delta_2_z [15:0] $end
$var wire 16 , out_delta_2_y [15:0] $end
$var wire 16 - out_delta_2_x [15:0] $end
$var wire 16 . out_delta_1_z [15:0] $end
$var wire 16 / out_delta_1_y [15:0] $end
$var wire 16 0 out_delta_1_x [15:0] $end
$var wire 16 1 out_delta_0_z [15:0] $end
$var wire 16 2 out_delta_0_y [15:0] $end
$var wire 16 3 out_delta_0_x [15:0] $end
$var wire 8 4 out_color [7:0] $end
$var wire 16 5 out_abs_pos_z [15:0] $end
$var wire 16 6 out_abs_pos_y [15:0] $end
$var wire 16 7 out_abs_pos_x [15:0] $end
$var parameter 32 8 PERIOD $end
$var reg 1 9 clk $end
$var reg 8 : in_color [7:0] $end
$var reg 6 ; in_tile_x [5:0] $end
$var reg 5 < in_tile_y [4:0] $end
$var reg 1 = rdy_out $end
$var reg 1 > rst_n $end
$var reg 16 ? v0_x [15:0] $end
$var reg 16 @ v0_y [15:0] $end
$var reg 16 A v0_z [15:0] $end
$var reg 16 B v1_x [15:0] $end
$var reg 16 C v1_y [15:0] $end
$var reg 16 D v1_z [15:0] $end
$var reg 16 E v2_x [15:0] $end
$var reg 16 F v2_y [15:0] $end
$var reg 16 G v2_z [15:0] $end
$var reg 1 H vld_in $end
$scope function make_coord $end
$var reg 48 I point [47:0] $end
$var reg 16 J x_in [15:0] $end
$var reg 16 K y_in [15:0] $end
$var reg 16 L z_in [15:0] $end
$upscope $end
$scope function make_meta $end
$var reg 8 M colors_in [7:0] $end
$var reg 19 N meta [18:0] $end
$var reg 6 O tile_x_in [5:0] $end
$var reg 5 P tile_y_in [4:0] $end
$upscope $end
$scope module u_tile_processor $end
$var wire 1 9 clk $end
$var wire 8 Q in_color [7:0] $end
$var wire 6 R in_tile_x [5:0] $end
$var wire 5 S in_tile_y [4:0] $end
$var wire 1 = rdy_out $end
$var wire 1 > rst_n $end
$var wire 16 T v0_x [15:0] $end
$var wire 16 U v0_y [15:0] $end
$var wire 16 V v0_z [15:0] $end
$var wire 16 W v1_x [15:0] $end
$var wire 16 X v1_y [15:0] $end
$var wire 16 Y v1_z [15:0] $end
$var wire 16 Z v2_x [15:0] $end
$var wire 16 [ v2_y [15:0] $end
$var wire 16 \ v2_z [15:0] $end
$var wire 1 H vld_in $end
$var reg 48 ] abs_pos [47:0] $end
$var reg 32 ^ coeff_A [31:0] $end
$var reg 32 _ coeff_B [31:0] $end
$var reg 32 ` coeff_C [31:0] $end
$var reg 48 a delta_0 [47:0] $end
$var reg 48 b delta_1 [47:0] $end
$var reg 48 c delta_2 [47:0] $end
$var reg 16 d dzdx [15:0] $end
$var reg 16 e dzdy [15:0] $end
$var reg 19 f metadata [18:0] $end
$var reg 16 g out_abs_pos_x [15:0] $end
$var reg 16 h out_abs_pos_y [15:0] $end
$var reg 16 i out_abs_pos_z [15:0] $end
$var reg 8 j out_color [7:0] $end
$var reg 16 k out_delta_0_x [15:0] $end
$var reg 16 l out_delta_0_y [15:0] $end
$var reg 16 m out_delta_0_z [15:0] $end
$var reg 16 n out_delta_1_x [15:0] $end
$var reg 16 o out_delta_1_y [15:0] $end
$var reg 16 p out_delta_1_z [15:0] $end
$var reg 16 q out_delta_2_x [15:0] $end
$var reg 16 r out_delta_2_y [15:0] $end
$var reg 16 s out_delta_2_z [15:0] $end
$var reg 16 t out_dzdx [15:0] $end
$var reg 16 u out_dzdy [15:0] $end
$var reg 32 v out_edge_0 [31:0] $end
$var reg 32 w out_edge_1 [31:0] $end
$var reg 32 x out_edge_2 [31:0] $end
$var reg 6 y out_tile_x [5:0] $end
$var reg 5 z out_tile_y [4:0] $end
$var reg 32 { out_z_current [31:0] $end
$var reg 1 " rdy_in $end
$var reg 32 | temp_coeff_a [31:0] $end
$var reg 32 } temp_coeff_b [31:0] $end
$var reg 32 ~ temp_coeff_c [31:0] $end
$var reg 48 !" temp_delta_0 [47:0] $end
$var reg 48 "" temp_delta_1 [47:0] $end
$var reg 48 #" temp_delta_2 [47:0] $end
$var reg 16 $" temp_dzdx [15:0] $end
$var reg 16 %" temp_dzdy [15:0] $end
$var reg 32 &" temp_edge_i [31:0] $end
$var reg 48 '" temp_start [47:0] $end
$var reg 32 (" temp_z [31:0] $end
$var reg 48 )" v0 [47:0] $end
$var reg 48 *" v1 [47:0] $end
$var reg 48 +" v2 [47:0] $end
$var reg 1 ! vld_out $end
$var reg 32 ," z_current [31:0] $end
$var reg 48 -" zero [47:0] $end
$var integer 32 ." next_state [31:0] $end
$var integer 32 /" present_state [31:0] $end
$scope begin $ivl_for_loop0 $end
$var integer 32 0" i [31:0] $end
$upscope $end
$scope task compute_delta $end
$upscope $end
$scope task compute_edge $end
$upscope $end
$scope task compute_plane_coeff_a $end
$upscope $end
$scope task compute_plane_coeff_b $end
$upscope $end
$scope task compute_plane_coeff_c $end
$upscope $end
$scope task compute_z $end
$upscope $end
$scope task scale_dz $end
$upscope $end
$scope task tile_to_coord $end
$upscope $end
$upscope $end
$scope task run_triangle_test $end
$scope begin $ivl_for_loop4 $end
$upscope $end
$scope begin $ivl_for_loop5 $end
$upscope $end
$upscope $end
$scope task simulate_expected_output $end
$scope begin $ivl_for_loop2 $end
$upscope $end
$scope begin $ivl_for_loop3 $end
$scope begin $unm_blk_77 $end
$upscope $end
$upscope $end
$scope begin $unm_blk_78 $end
$upscope $end
$scope begin $unm_blk_79 $end
$upscope $end
$scope begin $unm_blk_80 $end
$upscope $end
$scope begin $unm_blk_82 $end
$upscope $end
$scope begin $unm_blk_83 $end
$upscope $end
$upscope $end
$upscope $end
$enddefinitions $end
$comment Show the parameter values. $end
$dumpall
b1010 8
$end
#0
$dumpvars
b0 0"
b0 /"
b0 ."
b0 -"
bx ,"
b0 +"
b0 *"
b0 )"
bx ("
b0 '"
bx &"
bx %"
bx $"
b0 #"
b0 ""
b0 !"
bx ~
bx }
bx |
bx {
bx z
bx y
bx x
bx w
bx v
bx u
bx t
bx s
bx r
bx q
bx p
bx o
bx n
bx m
bx l
bx k
bx j
bx i
bx h
bx g
bx f
bx e
bx d
bx c
bx b
bx a
bx `
bx _
bx ^
bx ]
b0 \
b0 [
b0 Z
b0 Y
b0 X
b0 W
b0 V
b0 U
b0 T
b0 S
b0 R
b0 Q
bx P
bx O
bx N
bx M
bx L
bx K
bx J
bx I
0H
b0 G
b0 F
b0 E
b0 D
b0 C
b0 B
b0 A
b0 @
b0 ?
0>
0=
b0 <
b0 ;
b0 :
09
bx 7
bx 6
bx 5
bx 4
bx 3
bx 2
bx 1
bx 0
bx /
bx .
bx -
bx ,
bx +
bx *
bx )
bx (
bx '
bx &
bx %
bx $
bx #
x"
x!
$end
#5
b0 #
b0 {
b0 )
b0 u
b0 *
b0 t
b0 $
b0 z
b0 %
b0 y
b0 4
b0 j
b0 &
b0 x
b0 '
b0 w
b0 (
b0 v
b0 +
b0 s
b0 ,
b0 r
b0 -
b0 q
b0 .
b0 p
b0 /
b0 o
b0 0
b0 n
b0 1
b0 m
b0 2
b0 l
b0 3
b0 k
b0 5
b0 i
b0 6
b0 h
b0 7
b0 g
0!
1"
b0 ,"
b0 e
b0 d
b0 `
b0 _
b0 ^
b0 f
b0 c
b0 b
b0 a
b0 ]
b11 0"
19
#10
09
#15
b111111111010000000000000110000000000000000000000 #"
b111111111011000011111111001100000000000000000000 ""
b1011000000000000000100000000000000000000 !"
b111000000000000001000000010000000000000 +"
b1100000000000000111100000010000000000000 *"
b1000000000000111000000010000000000000 )"
b11 0"
b1 :
b1 Q
b10000000000000 G
b10000000000000 \
b100000 F
b100000 [
b1110000 E
b1110000 Z
b10000000000000 D
b10000000000000 Y
b11110000 C
b11110000 X
b11000000 B
b11000000 W
b10000000000000 A
b10000000000000 V
b11100000 @
b11100000 U
b10000 ?
b10000 T
b100000000000 N
b1 M
b0 O
b0 P
b111000000000000001000000010000000000000 I
b111 J
b10 K
b1000000000 L
1>
19
#20
b1 ."
1H
09
#25
b10 ."
b111111111010000000000000110000000000000000000000 c
b111111111011000011111111001100000000000000000000 b
b1011000000000000000100000000000000000000 a
b100000000000 f
0"
b1 /"
b11111111111111111010000000000000 &"
19
#30
0H
09
#35
b11 ."
b11111111111111110111011000000000 `
b10 /"
b11111111111111110111011000000000 ~
b0 }
b0 |
19
#40
09
#45
b100 ."
b11 /"
b0 %"
b0 $"
19
#50
09
#55
b101 ."
b100000000000000000 ,"
b100 /"
b100000000000000000 ("
19
#60
09
#65
b0 ."
1=
b100000000000000000 #
b100000000000000000 {
b1 4
b1 j
b11111111111111111010000000000000 &
b11111111111111111010000000000000 x
b101000100000000 '
b101000100000000 w
b1001100100000000 (
b1001100100000000 v
b11000000 ,
b11000000 r
b1111111110100000 -
b1111111110100000 q
b1111111100110000 /
b1111111100110000 o
b1111111110110000 0
b1111111110110000 n
b10000 2
b10000 l
b10110000 3
b10110000 k
1!
b101 /"
19
#70
09
#75
0=
1"
0!
b0 /"
19
#80
b111111101101000000000000000000001101000000000000 #"
b10011000011111111111100000011000000000000 ""
b100000000000000000000 !"
b10100000000000000000100000100000000000000 +"
b1000000000000001000000001000000000000 *"
b1000000000000000100000001000000000000 )"
b10 :
b10 Q
b100000000000000 G
b100000000000000 \
b10000 F
b10000 [
b101000000 E
b101000000 Z
b1000000000000 D
b1000000000000 Y
b100000 C
b100000 X
b10000 B
b10000 W
b1000000000000 A
b1000000000000 V
b10000 @
b10000 U
b1000000000000 N
b10 M
b10100000000000000000100000100000000000000 I
b10100 J
b1 K
b10000000000 L
09
#85
b111111101101000000000000000000001101000000000000 c
b10011000011111111111100000011000000000000 b
b100000000000000000000 a
b1000000000000 f
b11111111111111111110110100000000 &"
19
#90
b1 ."
1H
09
#95
b10 ."
0"
b1 /"
b11111111111111111110110100000000 &"
19
#100
0H
09
#105
b11 ."
b11111111111111111110110100000000 `
b110000000000000000 ^
b10 /"
b11111111111111111110110100000000 ~
b110000000000000000 |
19
#110
09
#115
b100 ."
b1010000110 d
b11 /"
b1010000110 $"
19
#120
09
#125
b101 ."
b1101011110100000 ,"
b100 /"
b1101011110100000 ("
19
#130
09
#135
b0 ."
1=
b1101011110100000 #
b1101011110100000 {
b1010000110 *
b1010000110 t
b10 4
b10 j
b11111111111111111110110100000000 &
b11111111111111111110110100000000 x
b10011100000000 '
b10011100000000 w
b11111111111111111111111100000000 (
b11111111111111111111111100000000 v
b1101000000000000 +
b1101000000000000 s
b0 ,
b0 r
b1111111011010000 -
b1111111011010000 q
b11000000000000 .
b11000000000000 p
b1111111111110000 /
b1111111111110000 o
b100110000 0
b100110000 n
b0 3
b0 k
1!
b101 /"
19
#140
09
#145
0=
1"
0!
b0 /"
19
#150
b111111111111000000000000000000000000000000000000 #"
b1000011111110110100001101000000000000 ""
b1001100000011000000000000 !"
b10000000000000000100000001000000000000 +"
b1000000000001010000000100000000000000 *"
b11 :
b11 Q
b1000000000000 G
b1000000000000 \
b100000 E
b100000 Z
b100000000000000 D
b100000000000000 Y
b101000000 C
b101000000 X
b1100000000000 N
b11 M
b1 K
b10000000000000000100000001000000000000 I
b10 J
b100000000 L
09
#155
b111111111111000000000000000000000000000000000000 c
b1000011111110110100001101000000000000 b
b1001100000011000000000000 a
b1100000000000 f
b11111111111111111111111100000000 &"
19
#160
b1 ."
1H
09
#165
b10 ."
0"
b1 /"
b11111111111111111111111100000000 &"
19
#170
0H
09
#175
b11 ."
b110000000000000000 _
b0 ^
b10 /"
b110000000000000000 }
b0 |
19
#180
09
#185
b100 ."
b1010000110 e
b0 d
b11 /"
b1010000110 %"
b0 $"
19
#190
09
#195
b101 ."
b100 /"
19
#200
09
#205
b0 ."
1=
b1010000110 )
b1010000110 u
b0 *
b0 t
b11 4
b11 j
b11111111111111111111111100000000 &
b11111111111111111111111100000000 x
b11111111111111111110110100000000 (
b11111111111111111110110100000000 v
b0 +
b0 s
b1111111111110000 -
b1111111111110000 q
b1101000000000000 .
b1101000000000000 p
b1111111011010000 /
b1111111011010000 o
b10000 0
b10000 n
b11000000000000 1
b11000000000000 m
b100110000 2
b100110000 l
1!
b101 /"
19
#210
09
#215
0=
1"
0!
b0 /"
19
#220
b100000000000000000000000000000000000000000 '"
b10 ;
b10 R
b100 :
b100 Q
b10000001000000 N
b100 M
b10 O
b1 K
b100000000 L
b10000000000000000100000001000000000000 I
b10 J
09
#225
b100000000000000000000000000000000000000000 ]
b10000001000000 f
b11111111111111111111111100000000 &"
19
#230
b1 ."
1H
09
#235
b10 ."
0"
b1 /"
b11111111111111111111111100000000 &"
19
#240
0H
09
#245
b11 ."
b10 /"
19
#250
09
#255
b100 ."
b11 /"
19
#260
09
#265
b101 ."
b100 /"
19
#270
09
#275
b0 ."
1=
b10 %
b10 y
b100 4
b100 j
b11111111111111011100011100000000 '
b11111111111111011100011100000000 w
b100100110100000000 (
b100100110100000000 v
b1000000000 7
b1000000000 g
1!
b101 /"
19
#280
09
#285
0=
1"
0!
b0 /"
19
