tests/tb_raster/tb_tile.vcd
$date
	Sat May 10 07:49:50 2025
$end
$version
	Icarus Verilog
$end
$timescale
	1s
$end
$scope module tb_tile $end
$var wire 1 ! vld_out $end
$var wire 1 " rdy_in $end
$var wire 32 # out_z_current [31:0] $end
$var wire 19 $ out_metadata [18:0] $end
$var wire 32 % out_edge_2 [31:0] $end
$var wire 32 & out_edge_1 [31:0] $end
$var wire 32 ' out_edge_0 [31:0] $end
$var wire 16 ( out_dzdy [15:0] $end
$var wire 16 ) out_dzdx [15:0] $end
$var wire 48 * out_delta_2 [47:0] $end
$var wire 48 + out_delta_1 [47:0] $end
$var wire 48 , out_delta_0 [47:0] $end
$var wire 48 - out_abs_pos [47:0] $end
$var parameter 32 . PERIOD $end
$var reg 1 / clk $end
$var reg 19 0 in_metadata [18:0] $end
$var reg 1 1 rdy_out $end
$var reg 1 2 rst_n $end
$var reg 48 3 v0 [47:0] $end
$var reg 48 4 v1 [47:0] $end
$var reg 48 5 v2 [47:0] $end
$var reg 1 6 vld_in $end
$scope function make_coord $end
$var reg 48 7 point [47:0] $end
$var reg 16 8 x_in [15:0] $end
$var reg 16 9 y_in [15:0] $end
$var reg 16 : z_in [15:0] $end
$upscope $end
$scope function make_meta $end
$var reg 8 ; colors_in [7:0] $end
$var reg 19 < meta [18:0] $end
$var reg 6 = tile_x_in [5:0] $end
$var reg 5 > tile_y_in [4:0] $end
$upscope $end
$scope module tile_proc $end
$var wire 1 / clk $end
$var wire 19 ? in_metadata [18:0] $end
$var wire 1 1 rdy_out $end
$var wire 1 2 rst_n $end
$var wire 48 @ v0 [47:0] $end
$var wire 48 A v1 [47:0] $end
$var wire 48 B v2 [47:0] $end
$var wire 1 6 vld_in $end
$var wire 48 C zero [47:0] $end
$var reg 48 D abs_pos [47:0] $end
$var reg 32 E coeff_A [31:0] $end
$var reg 32 F coeff_B [31:0] $end
$var reg 32 G coeff_C [31:0] $end
$var reg 48 H delta_0 [47:0] $end
$var reg 48 I delta_1 [47:0] $end
$var reg 48 J delta_2 [47:0] $end
$var reg 16 K dzdx [15:0] $end
$var reg 16 L dzdy [15:0] $end
$var reg 19 M metadata [18:0] $end
$var reg 48 N out_abs_pos [47:0] $end
$var reg 48 O out_delta_0 [47:0] $end
$var reg 48 P out_delta_1 [47:0] $end
$var reg 48 Q out_delta_2 [47:0] $end
$var reg 16 R out_dzdx [15:0] $end
$var reg 16 S out_dzdy [15:0] $end
$var reg 32 T out_edge_0 [31:0] $end
$var reg 32 U out_edge_1 [31:0] $end
$var reg 32 V out_edge_2 [31:0] $end
$var reg 19 W out_metadata [18:0] $end
$var reg 32 X out_z_current [31:0] $end
$var reg 1 " rdy_in $end
$var reg 32 Y temp_coeff_a [31:0] $end
$var reg 32 Z temp_coeff_b [31:0] $end
$var reg 32 [ temp_coeff_c [31:0] $end
$var reg 48 \ temp_delta_0 [47:0] $end
$var reg 48 ] temp_delta_1 [47:0] $end
$var reg 48 ^ temp_delta_2 [47:0] $end
$var reg 16 _ temp_dzdx [15:0] $end
$var reg 16 ` temp_dzdy [15:0] $end
$var reg 32 a temp_edge_i [31:0] $end
$var reg 48 b temp_start [47:0] $end
$var reg 32 c temp_z [31:0] $end
$var reg 1 ! vld_out $end
$var reg 32 d z_current [31:0] $end
$var integer 32 e next_state [31:0] $end
$var integer 32 f present_state [31:0] $end
$scope begin $ivl_for_loop0 $end
$var integer 32 g i [31:0] $end
$upscope $end
$scope task compute_delta $end
$upscope $end
$scope task compute_edge $end
$upscope $end
$scope task compute_plane_coeff_a $end
$upscope $end
$scope task compute_plane_coeff_b $end
$upscope $end
$scope task compute_plane_coeff_c $end
$upscope $end
$scope task compute_z $end
$upscope $end
$scope task scale_dz $end
$upscope $end
$scope task tile_to_coord $end
$upscope $end
$upscope $end
$scope task run_triangle_test $end
$scope begin $ivl_for_loop4 $end
$upscope $end
$scope begin $ivl_for_loop5 $end
$upscope $end
$upscope $end
$scope task simulate_expected_output $end
$scope begin $ivl_for_loop2 $end
$upscope $end
$scope begin $ivl_for_loop3 $end
$scope begin $unm_blk_77 $end
$upscope $end
$upscope $end
$scope begin $unm_blk_78 $end
$upscope $end
$scope begin $unm_blk_79 $end
$upscope $end
$scope begin $unm_blk_80 $end
$upscope $end
$scope begin $unm_blk_82 $end
$upscope $end
$scope begin $unm_blk_83 $end
$upscope $end
$upscope $end
$upscope $end
$enddefinitions $end
$comment Show the parameter values. $end
$dumpall
b1010 .
$end
#0
$dumpvars
b0 g
b0 f
b0 e
bx d
bx c
b0 b
bx a
bx `
bx _
b0 ^
b0 ]
b0 \
bx [
bx Z
bx Y
bx X
bx W
bx V
bx U
bx T
bx S
bx R
bx Q
bx P
bx O
bx N
bx M
bx L
bx K
bx J
bx I
bx H
bx G
bx F
bx E
bx D
b0 C
b0 B
b0 A
b0 @
b0 ?
bx >
bx =
bx <
bx ;
bx :
bx 9
bx 8
bx 7
06
b0 5
b0 4
b0 3
02
01
b0 0
0/
bx -
bx ,
bx +
bx *
bx )
bx (
bx '
bx &
bx %
bx $
bx #
x"
x!
$end
#5
b0 #
b0 X
b0 (
b0 S
b0 )
b0 R
b0 $
b0 W
b0 %
b0 V
b0 &
b0 U
b0 '
b0 T
b0 *
b0 Q
b0 +
b0 P
b0 ,
b0 O
b0 -
b0 N
0!
1"
b0 d
b0 L
b0 K
b0 G
b0 F
b0 E
b0 M
b0 J
b0 I
b0 H
b0 D
b11 g
1/
#10
0/
#15
b111111111010000000000000110000000000000000000000 ^
b111111111011000011111111001100000000000000000000 ]
b1011000000000000000100000000000000000000 \
b11 g
b100000000000 0
b100000000000 ?
b111000000000000001000000010000000000000 5
b111000000000000001000000010000000000000 B
b1100000000000000111100000010000000000000 4
b1100000000000000111100000010000000000000 A
b1000000000000111000000010000000000000 3
b1000000000000111000000010000000000000 @
b100000000000 <
b1 ;
b0 =
b0 >
b111000000000000001000000010000000000000 7
b111 8
b10 9
b1000000000 :
12
1/
#20
b1 e
16
0/
#25
b10 e
b111111111010000000000000110000000000000000000000 J
b111111111011000011111111001100000000000000000000 I
b1011000000000000000100000000000000000000 H
b100000000000 M
0"
b1 f
b11111111111111111010000000000000 a
1/
#30
06
0/
#35
b11 e
b11111111111111110111011000000000 G
b10 f
b11111111111111110111011000000000 [
b0 Z
b0 Y
1/
#40
0/
#45
b100 e
b11 f
b0 `
b0 _
1/
#50
0/
#55
b101 e
b100000000000000000 d
b100 f
b100000000000000000 c
1/
#60
0/
#65
b0 e
11
b100000000000000000 #
b100000000000000000 X
b100000000000 $
b100000000000 W
b11111111111111111010000000000000 %
b11111111111111111010000000000000 V
b101000100000000 &
b101000100000000 U
b1001100100000000 '
b1001100100000000 T
b111111111010000000000000110000000000000000000000 *
b111111111010000000000000110000000000000000000000 Q
b111111111011000011111111001100000000000000000000 +
b111111111011000011111111001100000000000000000000 P
b1011000000000000000100000000000000000000 ,
b1011000000000000000100000000000000000000 O
1!
b101 f
1/
#70
0/
#75
01
1"
0!
b0 f
1/
#80
b111111101101000000000000000000001101000000000000 ^
b10011000011111111111100000011000000000000 ]
b100000000000000000000 \
b1000000000000 0
b1000000000000 ?
b10100000000000000000100000100000000000000 5
b10100000000000000000100000100000000000000 B
b1000000000000001000000001000000000000 4
b1000000000000001000000001000000000000 A
b1000000000000000100000001000000000000 3
b1000000000000000100000001000000000000 @
b1000000000000 <
b10 ;
b10100000000000000000100000100000000000000 7
b10100 8
b1 9
b10000000000 :
0/
#85
b111111101101000000000000000000001101000000000000 J
b10011000011111111111100000011000000000000 I
b100000000000000000000 H
b1000000000000 M
b11111111111111111110110100000000 a
1/
#90
b1 e
16
0/
#95
b10 e
0"
b1 f
b11111111111111111110110100000000 a
1/
#100
06
0/
#105
b11 e
b11111111111111111110110100000000 G
b110000000000000000 E
b10 f
b11111111111111111110110100000000 [
b110000000000000000 Y
1/
#110
0/
#115
b100 e
b1010000110 K
b11 f
b1010000110 _
1/
#120
0/
#125
b101 e
b1101011110100000 d
b100 f
b1101011110100000 c
1/
#130
0/
#135
b0 e
11
b1101011110100000 #
b1101011110100000 X
b1010000110 )
b1010000110 R
b1000000000000 $
b1000000000000 W
b11111111111111111110110100000000 %
b11111111111111111110110100000000 V
b10011100000000 &
b10011100000000 U
b11111111111111111111111100000000 '
b11111111111111111111111100000000 T
b111111101101000000000000000000001101000000000000 *
b111111101101000000000000000000001101000000000000 Q
b10011000011111111111100000011000000000000 +
b10011000011111111111100000011000000000000 P
b100000000000000000000 ,
b100000000000000000000 O
1!
b101 f
1/
#140
0/
#145
01
1"
0!
b0 f
1/
#150
b111111111111000000000000000000000000000000000000 ^
b1000011111110110100001101000000000000 ]
b1001100000011000000000000 \
b1100000000000 0
b1100000000000 ?
b10000000000000000100000001000000000000 5
b10000000000000000100000001000000000000 B
b1000000000001010000000100000000000000 4
b1000000000001010000000100000000000000 A
b1100000000000 <
b11 ;
b1 9
b10000000000000000100000001000000000000 7
b10 8
b100000000 :
0/
#155
b111111111111000000000000000000000000000000000000 J
b1000011111110110100001101000000000000 I
b1001100000011000000000000 H
b1100000000000 M
b11111111111111111111111100000000 a
1/
#160
b1 e
16
0/
#165
b10 e
0"
b1 f
b11111111111111111111111100000000 a
1/
#170
06
0/
#175
b11 e
b110000000000000000 F
b0 E
b10 f
b110000000000000000 Z
b0 Y
1/
#180
0/
#185
b100 e
b1010000110 L
b0 K
b11 f
b1010000110 `
b0 _
1/
#190
0/
#195
b101 e
b100 f
1/
#200
0/
#205
b0 e
11
b1010000110 (
b1010000110 S
b0 )
b0 R
b1100000000000 $
b1100000000000 W
b11111111111111111111111100000000 %
b11111111111111111111111100000000 V
b11111111111111111110110100000000 '
b11111111111111111110110100000000 T
b111111111111000000000000000000000000000000000000 *
b111111111111000000000000000000000000000000000000 Q
b1000011111110110100001101000000000000 +
b1000011111110110100001101000000000000 P
b1001100000011000000000000 ,
b1001100000011000000000000 O
1!
b101 f
1/
#210
0/
#215
01
1"
0!
b0 f
1/
#220
b100000000000000000000000000000000000000000 b
b10000001000000 0
b10000001000000 ?
b10000001000000 <
b100 ;
b10 =
b1 9
b100000000 :
b10000000000000000100000001000000000000 7
b10 8
0/
#225
b100000000000000000000000000000000000000000 D
b10000001000000 M
b11111111111111111111111100000000 a
1/
#230
b1 e
16
0/
#235
b10 e
0"
b1 f
b11111111111111111111111100000000 a
1/
#240
06
0/
#245
b11 e
b10 f
1/
#250
0/
#255
b100 e
b11 f
1/
#260
0/
#265
b101 e
b100 f
1/
#270
0/
#275
b0 e
11
b10000001000000 $
b10000001000000 W
b11111111111111011100011100000000 &
b11111111111111011100011100000000 U
b100100110100000000 '
b100100110100000000 T
b100000000000000000000000000000000000000000 -
b100000000000000000000000000000000000000000 N
1!
b101 f
1/
#280
0/
#285
01
1"
0!
b0 f
1/
